ISO-10303-21;
HEADER;
FILE_DESCRIPTION(('FreeCAD Model'),'2;1');
FILE_NAME(
  'C:/Users/Antonio/Desktop/screws/hexagonal_head_bolt_M3x40.step',
  '2020-02-20T20:45:13',('Author'),(''),
  'Open CASCADE STEP processor 7.3','FreeCAD','Unknown');
FILE_SCHEMA(('AUTOMOTIVE_DESIGN { 1 0 10303 214 1 1 1 1 }'));
ENDSEC;
DATA;
#1 = APPLICATION_PROTOCOL_DEFINITION('international standard',
  'automotive_design',2000,#2);
#2 = APPLICATION_CONTEXT(
  'core data for automotive mechanical design processes');
#3 = SHAPE_DEFINITION_REPRESENTATION(#4,#10);
#4 = PRODUCT_DEFINITION_SHAPE('','',#5);
#5 = PRODUCT_DEFINITION('design','',#6,#9);
#6 = PRODUCT_DEFINITION_FORMATION('','',#7);
#7 = PRODUCT('VITE_TESTA_ESAGONALE','VITE_TESTA_ESAGONALE','',(#8));
#8 = PRODUCT_CONTEXT('',#2,'mechanical');
#9 = PRODUCT_DEFINITION_CONTEXT('part definition',#2,'design');
#10 = ADVANCED_BREP_SHAPE_REPRESENTATION('',(#11,#15),#1337);
#11 = AXIS2_PLACEMENT_3D('',#12,#13,#14);
#12 = CARTESIAN_POINT('',(0.,0.,0.));
#13 = DIRECTION('',(0.,0.,1.));
#14 = DIRECTION('',(1.,0.,-0.));
#15 = MANIFOLD_SOLID_BREP('',#16);
#16 = CLOSED_SHELL('',(#17,#54,#109,#164,#199,#254,#416,#562,#676,#790,
    #904,#1018,#1110,#1137,#1281,#1307,#1313,#1319,#1325,#1331));
#17 = ADVANCED_FACE('',(#18),#31,.F.);
#18 = FACE_BOUND('',#19,.T.);
#19 = EDGE_LOOP('',(#20));
#20 = ORIENTED_EDGE('',*,*,#21,.F.);
#21 = EDGE_CURVE('',#22,#22,#24,.T.);
#22 = VERTEX_POINT('',#23);
#23 = CARTESIAN_POINT('',(1.2,-8.881784197001E-15,-40.));
#24 = SURFACE_CURVE('',#25,(#30,#42),.PCURVE_S1.);
#25 = CIRCLE('',#26,1.2);
#26 = AXIS2_PLACEMENT_3D('',#27,#28,#29);
#27 = CARTESIAN_POINT('',(0.,0.,-40.));
#28 = DIRECTION('',(-0.,0.,1.));
#29 = DIRECTION('',(1.,-7.401486830834E-15,0.));
#30 = PCURVE('',#31,#36);
#31 = PLANE('',#32);
#32 = AXIS2_PLACEMENT_3D('',#33,#34,#35);
#33 = CARTESIAN_POINT('',(0.,0.,-40.));
#34 = DIRECTION('',(0.,0.,1.));
#35 = DIRECTION('',(1.,-7.401486830834E-15,0.));
#36 = DEFINITIONAL_REPRESENTATION('',(#37),#41);
#37 = CIRCLE('',#38,1.2);
#38 = AXIS2_PLACEMENT_2D('',#39,#40);
#39 = CARTESIAN_POINT('',(0.,0.));
#40 = DIRECTION('',(1.,-0.));
#41 = ( GEOMETRIC_REPRESENTATION_CONTEXT(2) 
PARAMETRIC_REPRESENTATION_CONTEXT() REPRESENTATION_CONTEXT('2D SPACE',''
  ) );
#42 = PCURVE('',#43,#48);
#43 = CONICAL_SURFACE('',#44,1.2,0.78539816348);
#44 = AXIS2_PLACEMENT_3D('',#45,#46,#47);
#45 = CARTESIAN_POINT('',(0.,0.,-40.));
#46 = DIRECTION('',(0.,0.,1.));
#47 = DIRECTION('',(1.,-7.401486830834E-15,0.));
#48 = DEFINITIONAL_REPRESENTATION('',(#49),#53);
#49 = LINE('',#50,#51);
#50 = CARTESIAN_POINT('',(0.,0.));
#51 = VECTOR('',#52,1.);
#52 = DIRECTION('',(1.,0.));
#53 = ( GEOMETRIC_REPRESENTATION_CONTEXT(2) 
PARAMETRIC_REPRESENTATION_CONTEXT() REPRESENTATION_CONTEXT('2D SPACE',''
  ) );
#54 = ADVANCED_FACE('',(#55),#43,.T.);
#55 = FACE_BOUND('',#56,.T.);
#56 = EDGE_LOOP('',(#57,#58,#81,#108));
#57 = ORIENTED_EDGE('',*,*,#21,.T.);
#58 = ORIENTED_EDGE('',*,*,#59,.T.);
#59 = EDGE_CURVE('',#22,#60,#62,.T.);
#60 = VERTEX_POINT('',#61);
#61 = CARTESIAN_POINT('',(1.5,-8.815170815535E-15,-39.70000000004));
#62 = SEAM_CURVE('',#63,(#67,#74),.PCURVE_S1.);
#63 = LINE('',#64,#65);
#64 = CARTESIAN_POINT('',(1.2,-8.881784197001E-15,-40.));
#65 = VECTOR('',#66,1.);
#66 = DIRECTION('',(0.707106781245,1.570092458555E-16,0.707106781128));
#67 = PCURVE('',#43,#68);
#68 = DEFINITIONAL_REPRESENTATION('',(#69),#73);
#69 = LINE('',#70,#71);
#70 = CARTESIAN_POINT('',(0.,0.));
#71 = VECTOR('',#72,1.);
#72 = DIRECTION('',(0.,1.));
#73 = ( GEOMETRIC_REPRESENTATION_CONTEXT(2) 
PARAMETRIC_REPRESENTATION_CONTEXT() REPRESENTATION_CONTEXT('2D SPACE',''
  ) );
#74 = PCURVE('',#43,#75);
#75 = DEFINITIONAL_REPRESENTATION('',(#76),#80);
#76 = LINE('',#77,#78);
#77 = CARTESIAN_POINT('',(6.28318530718,0.));
#78 = VECTOR('',#79,1.);
#79 = DIRECTION('',(0.,1.));
#80 = ( GEOMETRIC_REPRESENTATION_CONTEXT(2) 
PARAMETRIC_REPRESENTATION_CONTEXT() REPRESENTATION_CONTEXT('2D SPACE',''
  ) );
#81 = ORIENTED_EDGE('',*,*,#82,.F.);
#82 = EDGE_CURVE('',#60,#60,#83,.T.);
#83 = SURFACE_CURVE('',#84,(#89,#96),.PCURVE_S1.);
#84 = CIRCLE('',#85,1.5);
#85 = AXIS2_PLACEMENT_3D('',#86,#87,#88);
#86 = CARTESIAN_POINT('',(0.,0.,-39.70000000004));
#87 = DIRECTION('',(-0.,0.,1.));
#88 = DIRECTION('',(1.,-5.87678054369E-15,0.));
#89 = PCURVE('',#43,#90);
#90 = DEFINITIONAL_REPRESENTATION('',(#91),#95);
#91 = LINE('',#92,#93);
#92 = CARTESIAN_POINT('',(0.,0.299999999951));
#93 = VECTOR('',#94,1.);
#94 = DIRECTION('',(1.,0.));
#95 = ( GEOMETRIC_REPRESENTATION_CONTEXT(2) 
PARAMETRIC_REPRESENTATION_CONTEXT() REPRESENTATION_CONTEXT('2D SPACE',''
  ) );
#96 = PCURVE('',#97,#102);
#97 = CYLINDRICAL_SURFACE('',#98,1.5);
#98 = AXIS2_PLACEMENT_3D('',#99,#100,#101);
#99 = CARTESIAN_POINT('',(0.,0.,-39.70000000004));
#100 = DIRECTION('',(0.,0.,1.));
#101 = DIRECTION('',(1.,-5.87678054369E-15,0.));
#102 = DEFINITIONAL_REPRESENTATION('',(#103),#107);
#103 = LINE('',#104,#105);
#104 = CARTESIAN_POINT('',(0.,0.));
#105 = VECTOR('',#106,1.);
#106 = DIRECTION('',(1.,0.));
#107 = ( GEOMETRIC_REPRESENTATION_CONTEXT(2) 
PARAMETRIC_REPRESENTATION_CONTEXT() REPRESENTATION_CONTEXT('2D SPACE',''
  ) );
#108 = ORIENTED_EDGE('',*,*,#59,.F.);
#109 = ADVANCED_FACE('',(#110),#97,.T.);
#110 = FACE_BOUND('',#111,.T.);
#111 = EDGE_LOOP('',(#112,#113,#136,#163));
#112 = ORIENTED_EDGE('',*,*,#82,.T.);
#113 = ORIENTED_EDGE('',*,*,#114,.T.);
#114 = EDGE_CURVE('',#60,#115,#117,.T.);
#115 = VERTEX_POINT('',#116);
#116 = CARTESIAN_POINT('',(1.5,0.,0.));
#117 = SEAM_CURVE('',#118,(#122,#129),.PCURVE_S1.);
#118 = LINE('',#119,#120);
#119 = CARTESIAN_POINT('',(1.5,-8.815170815535E-15,-39.70000000004));
#120 = VECTOR('',#121,1.);
#121 = DIRECTION('',(0.,2.22044604925E-16,1.));
#122 = PCURVE('',#97,#123);
#123 = DEFINITIONAL_REPRESENTATION('',(#124),#128);
#124 = LINE('',#125,#126);
#125 = CARTESIAN_POINT('',(0.,0.));
#126 = VECTOR('',#127,1.);
#127 = DIRECTION('',(0.,1.));
#128 = ( GEOMETRIC_REPRESENTATION_CONTEXT(2) 
PARAMETRIC_REPRESENTATION_CONTEXT() REPRESENTATION_CONTEXT('2D SPACE',''
  ) );
#129 = PCURVE('',#97,#130);
#130 = DEFINITIONAL_REPRESENTATION('',(#131),#135);
#131 = LINE('',#132,#133);
#132 = CARTESIAN_POINT('',(6.28318530718,0.));
#133 = VECTOR('',#134,1.);
#134 = DIRECTION('',(0.,1.));
#135 = ( GEOMETRIC_REPRESENTATION_CONTEXT(2) 
PARAMETRIC_REPRESENTATION_CONTEXT() REPRESENTATION_CONTEXT('2D SPACE',''
  ) );
#136 = ORIENTED_EDGE('',*,*,#137,.F.);
#137 = EDGE_CURVE('',#115,#115,#138,.T.);
#138 = SURFACE_CURVE('',#139,(#144,#151),.PCURVE_S1.);
#139 = CIRCLE('',#140,1.5);
#140 = AXIS2_PLACEMENT_3D('',#141,#142,#143);
#141 = CARTESIAN_POINT('',(0.,0.,0.));
#142 = DIRECTION('',(0.,0.,1.));
#143 = DIRECTION('',(1.,0.,0.));
#144 = PCURVE('',#97,#145);
#145 = DEFINITIONAL_REPRESENTATION('',(#146),#150);
#146 = LINE('',#147,#148);
#147 = CARTESIAN_POINT('',(0.,39.700000000049));
#148 = VECTOR('',#149,1.);
#149 = DIRECTION('',(1.,0.));
#150 = ( GEOMETRIC_REPRESENTATION_CONTEXT(2) 
PARAMETRIC_REPRESENTATION_CONTEXT() REPRESENTATION_CONTEXT('2D SPACE',''
  ) );
#151 = PCURVE('',#152,#157);
#152 = PLANE('',#153);
#153 = AXIS2_PLACEMENT_3D('',#154,#155,#156);
#154 = CARTESIAN_POINT('',(0.,0.,0.));
#155 = DIRECTION('',(0.,0.,1.));
#156 = DIRECTION('',(1.,0.,0.));
#157 = DEFINITIONAL_REPRESENTATION('',(#158),#162);
#158 = CIRCLE('',#159,1.5);
#159 = AXIS2_PLACEMENT_2D('',#160,#161);
#160 = CARTESIAN_POINT('',(0.,0.));
#161 = DIRECTION('',(1.,-0.));
#162 = ( GEOMETRIC_REPRESENTATION_CONTEXT(2) 
PARAMETRIC_REPRESENTATION_CONTEXT() REPRESENTATION_CONTEXT('2D SPACE',''
  ) );
#163 = ORIENTED_EDGE('',*,*,#114,.F.);
#164 = ADVANCED_FACE('',(#165,#168),#152,.F.);
#165 = FACE_BOUND('',#166,.T.);
#166 = EDGE_LOOP('',(#167));
#167 = ORIENTED_EDGE('',*,*,#137,.T.);
#168 = FACE_BOUND('',#169,.T.);
#169 = EDGE_LOOP('',(#170));
#170 = ORIENTED_EDGE('',*,*,#171,.F.);
#171 = EDGE_CURVE('',#172,#172,#174,.T.);
#172 = VERTEX_POINT('',#173);
#173 = CARTESIAN_POINT('',(2.74,0.,0.));
#174 = SURFACE_CURVE('',#175,(#180,#187),.PCURVE_S1.);
#175 = CIRCLE('',#176,2.74);
#176 = AXIS2_PLACEMENT_3D('',#177,#178,#179);
#177 = CARTESIAN_POINT('',(0.,0.,0.));
#178 = DIRECTION('',(0.,0.,1.));
#179 = DIRECTION('',(1.,0.,0.));
#180 = PCURVE('',#152,#181);
#181 = DEFINITIONAL_REPRESENTATION('',(#182),#186);
#182 = CIRCLE('',#183,2.74);
#183 = AXIS2_PLACEMENT_2D('',#184,#185);
#184 = CARTESIAN_POINT('',(0.,0.));
#185 = DIRECTION('',(1.,-0.));
#186 = ( GEOMETRIC_REPRESENTATION_CONTEXT(2) 
PARAMETRIC_REPRESENTATION_CONTEXT() REPRESENTATION_CONTEXT('2D SPACE',''
  ) );
#187 = PCURVE('',#188,#193);
#188 = CYLINDRICAL_SURFACE('',#189,2.74);
#189 = AXIS2_PLACEMENT_3D('',#190,#191,#192);
#190 = CARTESIAN_POINT('',(0.,0.,0.));
#191 = DIRECTION('',(0.,0.,1.));
#192 = DIRECTION('',(1.,0.,0.));
#193 = DEFINITIONAL_REPRESENTATION('',(#194),#198);
#194 = LINE('',#195,#196);
#195 = CARTESIAN_POINT('',(0.,0.));
#196 = VECTOR('',#197,1.);
#197 = DIRECTION('',(1.,0.));
#198 = ( GEOMETRIC_REPRESENTATION_CONTEXT(2) 
PARAMETRIC_REPRESENTATION_CONTEXT() REPRESENTATION_CONTEXT('2D SPACE',''
  ) );
#199 = ADVANCED_FACE('',(#200),#188,.T.);
#200 = FACE_BOUND('',#201,.T.);
#201 = EDGE_LOOP('',(#202,#203,#226,#253));
#202 = ORIENTED_EDGE('',*,*,#171,.T.);
#203 = ORIENTED_EDGE('',*,*,#204,.T.);
#204 = EDGE_CURVE('',#172,#205,#207,.T.);
#205 = VERTEX_POINT('',#206);
#206 = CARTESIAN_POINT('',(2.74,8.881784197001E-17,0.4));
#207 = SEAM_CURVE('',#208,(#212,#219),.PCURVE_S1.);
#208 = LINE('',#209,#210);
#209 = CARTESIAN_POINT('',(2.74,0.,0.));
#210 = VECTOR('',#211,1.);
#211 = DIRECTION('',(0.,2.22044604925E-16,1.));
#212 = PCURVE('',#188,#213);
#213 = DEFINITIONAL_REPRESENTATION('',(#214),#218);
#214 = LINE('',#215,#216);
#215 = CARTESIAN_POINT('',(0.,0.));
#216 = VECTOR('',#217,1.);
#217 = DIRECTION('',(0.,1.));
#218 = ( GEOMETRIC_REPRESENTATION_CONTEXT(2) 
PARAMETRIC_REPRESENTATION_CONTEXT() REPRESENTATION_CONTEXT('2D SPACE',''
  ) );
#219 = PCURVE('',#188,#220);
#220 = DEFINITIONAL_REPRESENTATION('',(#221),#225);
#221 = LINE('',#222,#223);
#222 = CARTESIAN_POINT('',(6.28318530718,0.));
#223 = VECTOR('',#224,1.);
#224 = DIRECTION('',(0.,1.));
#225 = ( GEOMETRIC_REPRESENTATION_CONTEXT(2) 
PARAMETRIC_REPRESENTATION_CONTEXT() REPRESENTATION_CONTEXT('2D SPACE',''
  ) );
#226 = ORIENTED_EDGE('',*,*,#227,.F.);
#227 = EDGE_CURVE('',#205,#205,#228,.T.);
#228 = SURFACE_CURVE('',#229,(#234,#241),.PCURVE_S1.);
#229 = CIRCLE('',#230,2.74);
#230 = AXIS2_PLACEMENT_3D('',#231,#232,#233);
#231 = CARTESIAN_POINT('',(0.,0.,0.4));
#232 = DIRECTION('',(0.,-0.,1.));
#233 = DIRECTION('',(1.,3.241527079198E-17,0.));
#234 = PCURVE('',#188,#235);
#235 = DEFINITIONAL_REPRESENTATION('',(#236),#240);
#236 = LINE('',#237,#238);
#237 = CARTESIAN_POINT('',(0.,0.4));
#238 = VECTOR('',#239,1.);
#239 = DIRECTION('',(1.,0.));
#240 = ( GEOMETRIC_REPRESENTATION_CONTEXT(2) 
PARAMETRIC_REPRESENTATION_CONTEXT() REPRESENTATION_CONTEXT('2D SPACE',''
  ) );
#241 = PCURVE('',#242,#247);
#242 = PLANE('',#243);
#243 = AXIS2_PLACEMENT_3D('',#244,#245,#246);
#244 = CARTESIAN_POINT('',(0.,0.,0.4));
#245 = DIRECTION('',(0.,0.,1.));
#246 = DIRECTION('',(1.,3.241527079198E-17,0.));
#247 = DEFINITIONAL_REPRESENTATION('',(#248),#252);
#248 = CIRCLE('',#249,2.74);
#249 = AXIS2_PLACEMENT_2D('',#250,#251);
#250 = CARTESIAN_POINT('',(0.,0.));
#251 = DIRECTION('',(1.,-0.));
#252 = ( GEOMETRIC_REPRESENTATION_CONTEXT(2) 
PARAMETRIC_REPRESENTATION_CONTEXT() REPRESENTATION_CONTEXT('2D SPACE',''
  ) );
#253 = ORIENTED_EDGE('',*,*,#204,.F.);
#254 = ADVANCED_FACE('',(#255,#413),#242,.F.);
#255 = FACE_BOUND('',#256,.T.);
#256 = EDGE_LOOP('',(#257,#285,#311,#337,#363,#389));
#257 = ORIENTED_EDGE('',*,*,#258,.F.);
#258 = EDGE_CURVE('',#259,#261,#263,.T.);
#259 = VERTEX_POINT('',#260);
#260 = CARTESIAN_POINT('',(3.175,8.881784197001E-17,0.4));
#261 = VERTEX_POINT('',#262);
#262 = CARTESIAN_POINT('',(1.5875,2.749630657016,0.4));
#263 = SURFACE_CURVE('',#264,(#268,#274),.PCURVE_S1.);
#264 = LINE('',#265,#266);
#265 = CARTESIAN_POINT('',(2.778125,0.687407664254,0.4));
#266 = VECTOR('',#267,1.);
#267 = DIRECTION('',(-0.5,0.866025403784,0.));
#268 = PCURVE('',#242,#269);
#269 = DEFINITIONAL_REPRESENTATION('',(#270),#273);
#270 = B_SPLINE_CURVE_WITH_KNOTS('',1,(#271,#272),.UNSPECIFIED.,.F.,.F.,
  (2,2),(-1.11125,2.69875),.PIECEWISE_BEZIER_KNOTS.);
#271 = CARTESIAN_POINT('',(3.33375,-0.274963065702));
#272 = CARTESIAN_POINT('',(1.42875,3.024593722717));
#273 = ( GEOMETRIC_REPRESENTATION_CONTEXT(2) 
PARAMETRIC_REPRESENTATION_CONTEXT() REPRESENTATION_CONTEXT('2D SPACE',''
  ) );
#274 = PCURVE('',#275,#280);
#275 = PLANE('',#276);
#276 = AXIS2_PLACEMENT_3D('',#277,#278,#279);
#277 = CARTESIAN_POINT('',(3.175,0.,0.));
#278 = DIRECTION('',(-0.866025403784,-0.5,0.));
#279 = DIRECTION('',(-0.5,0.866025403784,0.));
#280 = DEFINITIONAL_REPRESENTATION('',(#281),#284);
#281 = B_SPLINE_CURVE_WITH_KNOTS('',1,(#282,#283),.UNSPECIFIED.,.F.,.F.,
  (2,2),(-1.11125,2.69875),.PIECEWISE_BEZIER_KNOTS.);
#282 = CARTESIAN_POINT('',(-0.3175,-0.4));
#283 = CARTESIAN_POINT('',(3.4925,-0.4));
#284 = ( GEOMETRIC_REPRESENTATION_CONTEXT(2) 
PARAMETRIC_REPRESENTATION_CONTEXT() REPRESENTATION_CONTEXT('2D SPACE',''
  ) );
#285 = ORIENTED_EDGE('',*,*,#286,.F.);
#286 = EDGE_CURVE('',#287,#259,#289,.T.);
#287 = VERTEX_POINT('',#288);
#288 = CARTESIAN_POINT('',(1.5875,-2.749630657016,0.4));
#289 = SURFACE_CURVE('',#290,(#294,#300),.PCURVE_S1.);
#290 = LINE('',#291,#292);
#291 = CARTESIAN_POINT('',(1.984375,-2.062222992762,0.4));
#292 = VECTOR('',#293,1.);
#293 = DIRECTION('',(0.5,0.866025403784,0.));
#294 = PCURVE('',#242,#295);
#295 = DEFINITIONAL_REPRESENTATION('',(#296),#299);
#296 = B_SPLINE_CURVE_WITH_KNOTS('',1,(#297,#298),.UNSPECIFIED.,.F.,.F.,
  (2,2),(-1.11125,2.69875),.PIECEWISE_BEZIER_KNOTS.);
#297 = CARTESIAN_POINT('',(1.42875,-3.024593722717));
#298 = CARTESIAN_POINT('',(3.33375,0.274963065702));
#299 = ( GEOMETRIC_REPRESENTATION_CONTEXT(2) 
PARAMETRIC_REPRESENTATION_CONTEXT() REPRESENTATION_CONTEXT('2D SPACE',''
  ) );
#300 = PCURVE('',#301,#306);
#301 = PLANE('',#302);
#302 = AXIS2_PLACEMENT_3D('',#303,#304,#305);
#303 = CARTESIAN_POINT('',(1.5875,-2.749630657016,0.));
#304 = DIRECTION('',(-0.866025403784,0.5,0.));
#305 = DIRECTION('',(0.5,0.866025403784,0.));
#306 = DEFINITIONAL_REPRESENTATION('',(#307),#310);
#307 = B_SPLINE_CURVE_WITH_KNOTS('',1,(#308,#309),.UNSPECIFIED.,.F.,.F.,
  (2,2),(-1.11125,2.69875),.PIECEWISE_BEZIER_KNOTS.);
#308 = CARTESIAN_POINT('',(-0.3175,-0.4));
#309 = CARTESIAN_POINT('',(3.4925,-0.4));
#310 = ( GEOMETRIC_REPRESENTATION_CONTEXT(2) 
PARAMETRIC_REPRESENTATION_CONTEXT() REPRESENTATION_CONTEXT('2D SPACE',''
  ) );
#311 = ORIENTED_EDGE('',*,*,#312,.F.);
#312 = EDGE_CURVE('',#313,#287,#315,.T.);
#313 = VERTEX_POINT('',#314);
#314 = CARTESIAN_POINT('',(-1.5875,-2.749630657016,0.4));
#315 = SURFACE_CURVE('',#316,(#320,#326),.PCURVE_S1.);
#316 = LINE('',#317,#318);
#317 = CARTESIAN_POINT('',(-0.79375,-2.749630657016,0.4));
#318 = VECTOR('',#319,1.);
#319 = DIRECTION('',(1.,-5.6E-16,0.));
#320 = PCURVE('',#242,#321);
#321 = DEFINITIONAL_REPRESENTATION('',(#322),#325);
#322 = B_SPLINE_CURVE_WITH_KNOTS('',1,(#323,#324),.UNSPECIFIED.,.F.,.F.,
  (2,2),(-1.11125,2.69875),.PIECEWISE_BEZIER_KNOTS.);
#323 = CARTESIAN_POINT('',(-1.905,-2.749630657016));
#324 = CARTESIAN_POINT('',(1.905,-2.749630657016));
#325 = ( GEOMETRIC_REPRESENTATION_CONTEXT(2) 
PARAMETRIC_REPRESENTATION_CONTEXT() REPRESENTATION_CONTEXT('2D SPACE',''
  ) );
#326 = PCURVE('',#327,#332);
#327 = PLANE('',#328);
#328 = AXIS2_PLACEMENT_3D('',#329,#330,#331);
#329 = CARTESIAN_POINT('',(-1.5875,-2.749630657016,0.));
#330 = DIRECTION('',(5.6E-16,1.,0.));
#331 = DIRECTION('',(1.,-5.6E-16,0.));
#332 = DEFINITIONAL_REPRESENTATION('',(#333),#336);
#333 = B_SPLINE_CURVE_WITH_KNOTS('',1,(#334,#335),.UNSPECIFIED.,.F.,.F.,
  (2,2),(-1.11125,2.69875),.PIECEWISE_BEZIER_KNOTS.);
#334 = CARTESIAN_POINT('',(-0.3175,-0.4));
#335 = CARTESIAN_POINT('',(3.4925,-0.4));
#336 = ( GEOMETRIC_REPRESENTATION_CONTEXT(2) 
PARAMETRIC_REPRESENTATION_CONTEXT() REPRESENTATION_CONTEXT('2D SPACE',''
  ) );
#337 = ORIENTED_EDGE('',*,*,#338,.F.);
#338 = EDGE_CURVE('',#339,#313,#341,.T.);
#339 = VERTEX_POINT('',#340);
#340 = CARTESIAN_POINT('',(-3.175,8.177904013163E-14,0.4));
#341 = SURFACE_CURVE('',#342,(#346,#352),.PCURVE_S1.);
#342 = LINE('',#343,#344);
#343 = CARTESIAN_POINT('',(-2.778125,-0.687407664254,0.4));
#344 = VECTOR('',#345,1.);
#345 = DIRECTION('',(0.5,-0.866025403784,0.));
#346 = PCURVE('',#242,#347);
#347 = DEFINITIONAL_REPRESENTATION('',(#348),#351);
#348 = B_SPLINE_CURVE_WITH_KNOTS('',1,(#349,#350),.UNSPECIFIED.,.F.,.F.,
  (2,2),(-1.11125,2.69875),.PIECEWISE_BEZIER_KNOTS.);
#349 = CARTESIAN_POINT('',(-3.33375,0.274963065702));
#350 = CARTESIAN_POINT('',(-1.42875,-3.024593722717));
#351 = ( GEOMETRIC_REPRESENTATION_CONTEXT(2) 
PARAMETRIC_REPRESENTATION_CONTEXT() REPRESENTATION_CONTEXT('2D SPACE',''
  ) );
#352 = PCURVE('',#353,#358);
#353 = PLANE('',#354);
#354 = AXIS2_PLACEMENT_3D('',#355,#356,#357);
#355 = CARTESIAN_POINT('',(-3.175,1.11E-15,0.));
#356 = DIRECTION('',(0.866025403784,0.5,0.));
#357 = DIRECTION('',(0.5,-0.866025403784,0.));
#358 = DEFINITIONAL_REPRESENTATION('',(#359),#362);
#359 = B_SPLINE_CURVE_WITH_KNOTS('',1,(#360,#361),.UNSPECIFIED.,.F.,.F.,
  (2,2),(-1.11125,2.69875),.PIECEWISE_BEZIER_KNOTS.);
#360 = CARTESIAN_POINT('',(-0.3175,-0.4));
#361 = CARTESIAN_POINT('',(3.4925,-0.4));
#362 = ( GEOMETRIC_REPRESENTATION_CONTEXT(2) 
PARAMETRIC_REPRESENTATION_CONTEXT() REPRESENTATION_CONTEXT('2D SPACE',''
  ) );
#363 = ORIENTED_EDGE('',*,*,#364,.F.);
#364 = EDGE_CURVE('',#365,#339,#367,.T.);
#365 = VERTEX_POINT('',#366);
#366 = CARTESIAN_POINT('',(-1.5875,2.749630657016,0.4));
#367 = SURFACE_CURVE('',#368,(#372,#378),.PCURVE_S1.);
#368 = LINE('',#369,#370);
#369 = CARTESIAN_POINT('',(-1.984375,2.062222992762,0.4));
#370 = VECTOR('',#371,1.);
#371 = DIRECTION('',(-0.5,-0.866025403784,0.));
#372 = PCURVE('',#242,#373);
#373 = DEFINITIONAL_REPRESENTATION('',(#374),#377);
#374 = B_SPLINE_CURVE_WITH_KNOTS('',1,(#375,#376),.UNSPECIFIED.,.F.,.F.,
  (2,2),(-1.11125,2.69875),.PIECEWISE_BEZIER_KNOTS.);
#375 = CARTESIAN_POINT('',(-1.42875,3.024593722717));
#376 = CARTESIAN_POINT('',(-3.33375,-0.274963065702));
#377 = ( GEOMETRIC_REPRESENTATION_CONTEXT(2) 
PARAMETRIC_REPRESENTATION_CONTEXT() REPRESENTATION_CONTEXT('2D SPACE',''
  ) );
#378 = PCURVE('',#379,#384);
#379 = PLANE('',#380);
#380 = AXIS2_PLACEMENT_3D('',#381,#382,#383);
#381 = CARTESIAN_POINT('',(-1.5875,2.749630657016,0.));
#382 = DIRECTION('',(0.866025403784,-0.5,0.));
#383 = DIRECTION('',(-0.5,-0.866025403784,0.));
#384 = DEFINITIONAL_REPRESENTATION('',(#385),#388);
#385 = B_SPLINE_CURVE_WITH_KNOTS('',1,(#386,#387),.UNSPECIFIED.,.F.,.F.,
  (2,2),(-1.11125,2.69875),.PIECEWISE_BEZIER_KNOTS.);
#386 = CARTESIAN_POINT('',(-0.3175,-0.4));
#387 = CARTESIAN_POINT('',(3.4925,-0.4));
#388 = ( GEOMETRIC_REPRESENTATION_CONTEXT(2) 
PARAMETRIC_REPRESENTATION_CONTEXT() REPRESENTATION_CONTEXT('2D SPACE',''
  ) );
#389 = ORIENTED_EDGE('',*,*,#390,.F.);
#390 = EDGE_CURVE('',#261,#365,#391,.T.);
#391 = SURFACE_CURVE('',#392,(#396,#402),.PCURVE_S1.);
#392 = LINE('',#393,#394);
#393 = CARTESIAN_POINT('',(0.79375,2.749630657016,0.4));
#394 = VECTOR('',#395,1.);
#395 = DIRECTION('',(-1.,1.4E-16,0.));
#396 = PCURVE('',#242,#397);
#397 = DEFINITIONAL_REPRESENTATION('',(#398),#401);
#398 = B_SPLINE_CURVE_WITH_KNOTS('',1,(#399,#400),.UNSPECIFIED.,.F.,.F.,
  (2,2),(-1.11125,2.69875),.PIECEWISE_BEZIER_KNOTS.);
#399 = CARTESIAN_POINT('',(1.905,2.749630657016));
#400 = CARTESIAN_POINT('',(-1.905,2.749630657016));
#401 = ( GEOMETRIC_REPRESENTATION_CONTEXT(2) 
PARAMETRIC_REPRESENTATION_CONTEXT() REPRESENTATION_CONTEXT('2D SPACE',''
  ) );
#402 = PCURVE('',#403,#408);
#403 = PLANE('',#404);
#404 = AXIS2_PLACEMENT_3D('',#405,#406,#407);
#405 = CARTESIAN_POINT('',(1.5875,2.749630657016,0.));
#406 = DIRECTION('',(-1.4E-16,-1.,0.));
#407 = DIRECTION('',(-1.,1.4E-16,0.));
#408 = DEFINITIONAL_REPRESENTATION('',(#409),#412);
#409 = B_SPLINE_CURVE_WITH_KNOTS('',1,(#410,#411),.UNSPECIFIED.,.F.,.F.,
  (2,2),(-1.11125,2.69875),.PIECEWISE_BEZIER_KNOTS.);
#410 = CARTESIAN_POINT('',(-0.3175,-0.4));
#411 = CARTESIAN_POINT('',(3.4925,-0.4));
#412 = ( GEOMETRIC_REPRESENTATION_CONTEXT(2) 
PARAMETRIC_REPRESENTATION_CONTEXT() REPRESENTATION_CONTEXT('2D SPACE',''
  ) );
#413 = FACE_BOUND('',#414,.T.);
#414 = EDGE_LOOP('',(#415));
#415 = ORIENTED_EDGE('',*,*,#227,.T.);
#416 = ADVANCED_FACE('',(#417),#275,.F.);
#417 = FACE_BOUND('',#418,.F.);
#418 = EDGE_LOOP('',(#419,#420,#443,#478,#506,#541));
#419 = ORIENTED_EDGE('',*,*,#258,.F.);
#420 = ORIENTED_EDGE('',*,*,#421,.T.);
#421 = EDGE_CURVE('',#259,#422,#424,.T.);
#422 = VERTEX_POINT('',#423);
#423 = CARTESIAN_POINT('',(3.175,4.184710657094E-16,1.884626135594));
#424 = SURFACE_CURVE('',#425,(#429,#436),.PCURVE_S1.);
#425 = LINE('',#426,#427);
#426 = CARTESIAN_POINT('',(3.175,8.881784197001E-17,0.4));
#427 = VECTOR('',#428,1.);
#428 = DIRECTION('',(0.,2.22044604925E-16,1.));
#429 = PCURVE('',#275,#430);
#430 = DEFINITIONAL_REPRESENTATION('',(#431),#435);
#431 = LINE('',#432,#433);
#432 = CARTESIAN_POINT('',(5.768888059151E-17,-0.4));
#433 = VECTOR('',#434,1.);
#434 = DIRECTION('',(1.922962686384E-16,-1.));
#435 = ( GEOMETRIC_REPRESENTATION_CONTEXT(2) 
PARAMETRIC_REPRESENTATION_CONTEXT() REPRESENTATION_CONTEXT('2D SPACE',''
  ) );
#436 = PCURVE('',#301,#437);
#437 = DEFINITIONAL_REPRESENTATION('',(#438),#442);
#438 = LINE('',#439,#440);
#439 = CARTESIAN_POINT('',(3.175,-0.4));
#440 = VECTOR('',#441,1.);
#441 = DIRECTION('',(1.922962686384E-16,-1.));
#442 = ( GEOMETRIC_REPRESENTATION_CONTEXT(2) 
PARAMETRIC_REPRESENTATION_CONTEXT() REPRESENTATION_CONTEXT('2D SPACE',''
  ) );
#443 = ORIENTED_EDGE('',*,*,#444,.F.);
#444 = EDGE_CURVE('',#445,#422,#447,.T.);
#445 = VERTEX_POINT('',#446);
#446 = CARTESIAN_POINT('',(2.403784695472,1.335784091018,2.13));
#447 = SURFACE_CURVE('',#448,(#453,#460),.PCURVE_S1.);
#448 = HYPERBOLA('',#449,1.5875,2.749630657016);
#449 = AXIS2_PLACEMENT_3D('',#450,#451,#452);
#450 = CARTESIAN_POINT('',(2.38125,1.374815328508,3.717713240271));
#451 = DIRECTION('',(-0.866025403784,-0.5,-0.));
#452 = DIRECTION('',(0.,0.,-1.));
#453 = PCURVE('',#275,#454);
#454 = DEFINITIONAL_REPRESENTATION('',(#455),#459);
#455 = ( BOUNDED_CURVE() B_SPLINE_CURVE(2,(#456,#457,#458),
.UNSPECIFIED.,.F.,.F.) B_SPLINE_CURVE_WITH_KNOTS((3,3),(
1.639033699346E-02,0.549306144334),.PIECEWISE_BEZIER_KNOTS.) CURVE() 
GEOMETRIC_REPRESENTATION_ITEM() RATIONAL_B_SPLINE_CURVE((1.,
1.035710445508,1.)) REPRESENTATION_ITEM('') );
#456 = CARTESIAN_POINT('',(1.542430609057,-2.13));
#457 = CARTESIAN_POINT('',(0.826534545781,-2.123226106845));
#458 = CARTESIAN_POINT('',(4.440892098501E-16,-1.884626135594));
#459 = ( GEOMETRIC_REPRESENTATION_CONTEXT(2) 
PARAMETRIC_REPRESENTATION_CONTEXT() REPRESENTATION_CONTEXT('2D SPACE',''
  ) );
#460 = PCURVE('',#461,#466);
#461 = CONICAL_SURFACE('',#462,2.75,1.047197551197);
#462 = AXIS2_PLACEMENT_3D('',#463,#464,#465);
#463 = CARTESIAN_POINT('',(0.,0.,2.13));
#464 = DIRECTION('',(-0.,-0.,-1.));
#465 = DIRECTION('',(1.,1.71983639451E-16,0.));
#466 = DEFINITIONAL_REPRESENTATION('',(#467),#477);
#467 = B_SPLINE_CURVE_WITH_KNOTS('',8,(#468,#469,#470,#471,#472,#473,
    #474,#475,#476),.UNSPECIFIED.,.F.,.F.,(9,9),(1.639033699346E-02,
    0.549306144334),.PIECEWISE_BEZIER_KNOTS.);
#468 = CARTESIAN_POINT('',(-0.507209172414,3.033185711009E-16));
#469 = CARTESIAN_POINT('',(-0.440603643256,1.733363619873E-03));
#470 = CARTESIAN_POINT('',(-0.374081217323,1.151868048593E-02));
#471 = CARTESIAN_POINT('',(-0.30809203634,2.936767139292E-02));
#472 = CARTESIAN_POINT('',(-0.243082277048,5.53682821681E-02));
#473 = CARTESIAN_POINT('',(-0.179462404449,8.968484981085E-02));
#474 = CARTESIAN_POINT('',(-0.11757564364,0.132560073633));
#475 = CARTESIAN_POINT('',(-5.768982840441E-02,0.184318796011));
#476 = CARTESIAN_POINT('',(0.,0.245373864406));
#477 = ( GEOMETRIC_REPRESENTATION_CONTEXT(2) 
PARAMETRIC_REPRESENTATION_CONTEXT() REPRESENTATION_CONTEXT('2D SPACE',''
  ) );
#478 = ORIENTED_EDGE('',*,*,#479,.T.);
#479 = EDGE_CURVE('',#445,#480,#482,.T.);
#480 = VERTEX_POINT('',#481);
#481 = CARTESIAN_POINT('',(2.358715304528,1.413846565998,2.13));
#482 = SURFACE_CURVE('',#483,(#487,#494),.PCURVE_S1.);
#483 = LINE('',#484,#485);
#484 = CARTESIAN_POINT('',(3.175,0.,2.13));
#485 = VECTOR('',#486,1.);
#486 = DIRECTION('',(-0.5,0.866025403784,0.));
#487 = PCURVE('',#275,#488);
#488 = DEFINITIONAL_REPRESENTATION('',(#489),#493);
#489 = LINE('',#490,#491);
#490 = CARTESIAN_POINT('',(0.,-2.13));
#491 = VECTOR('',#492,1.);
#492 = DIRECTION('',(1.,0.));
#493 = ( GEOMETRIC_REPRESENTATION_CONTEXT(2) 
PARAMETRIC_REPRESENTATION_CONTEXT() REPRESENTATION_CONTEXT('2D SPACE',''
  ) );
#494 = PCURVE('',#495,#500);
#495 = PLANE('',#496);
#496 = AXIS2_PLACEMENT_3D('',#497,#498,#499);
#497 = CARTESIAN_POINT('',(0.,0.,2.13));
#498 = DIRECTION('',(0.,0.,1.));
#499 = DIRECTION('',(1.,1.71983639451E-16,0.));
#500 = DEFINITIONAL_REPRESENTATION('',(#501),#505);
#501 = LINE('',#502,#503);
#502 = CARTESIAN_POINT('',(3.175,-5.46048055257E-16));
#503 = VECTOR('',#504,1.);
#504 = DIRECTION('',(-0.5,0.866025403784));
#505 = ( GEOMETRIC_REPRESENTATION_CONTEXT(2) 
PARAMETRIC_REPRESENTATION_CONTEXT() REPRESENTATION_CONTEXT('2D SPACE',''
  ) );
#506 = ORIENTED_EDGE('',*,*,#507,.F.);
#507 = EDGE_CURVE('',#508,#480,#510,.T.);
#508 = VERTEX_POINT('',#509);
#509 = CARTESIAN_POINT('',(1.5875,2.749630657016,1.884626135594));
#510 = SURFACE_CURVE('',#511,(#516,#523),.PCURVE_S1.);
#511 = HYPERBOLA('',#512,1.5875,2.749630657016);
#512 = AXIS2_PLACEMENT_3D('',#513,#514,#515);
#513 = CARTESIAN_POINT('',(2.38125,1.374815328508,3.717713240271));
#514 = DIRECTION('',(-0.866025403784,-0.5,-0.));
#515 = DIRECTION('',(0.,0.,-1.));
#516 = PCURVE('',#275,#517);
#517 = DEFINITIONAL_REPRESENTATION('',(#518),#522);
#518 = ( BOUNDED_CURVE() B_SPLINE_CURVE(2,(#519,#520,#521),
.UNSPECIFIED.,.F.,.F.) B_SPLINE_CURVE_WITH_KNOTS((3,3),(-0.549306144334,
-1.639033699346E-02),.PIECEWISE_BEZIER_KNOTS.) CURVE() 
GEOMETRIC_REPRESENTATION_ITEM() RATIONAL_B_SPLINE_CURVE((1.,
1.035710445508,1.)) REPRESENTATION_ITEM('') );
#519 = CARTESIAN_POINT('',(3.175,-1.884626135594));
#520 = CARTESIAN_POINT('',(2.348465454219,-2.123226106845));
#521 = CARTESIAN_POINT('',(1.632569390943,-2.13));
#522 = ( GEOMETRIC_REPRESENTATION_CONTEXT(2) 
PARAMETRIC_REPRESENTATION_CONTEXT() REPRESENTATION_CONTEXT('2D SPACE',''
  ) );
#523 = PCURVE('',#524,#529);
#524 = CONICAL_SURFACE('',#525,2.75,1.047197551197);
#525 = AXIS2_PLACEMENT_3D('',#526,#527,#528);
#526 = CARTESIAN_POINT('',(0.,0.,2.13));
#527 = DIRECTION('',(-0.,-0.,-1.));
#528 = DIRECTION('',(1.,1.71983639451E-16,0.));
#529 = DEFINITIONAL_REPRESENTATION('',(#530),#540);
#530 = B_SPLINE_CURVE_WITH_KNOTS('',8,(#531,#532,#533,#534,#535,#536,
    #537,#538,#539),.UNSPECIFIED.,.F.,.F.,(9,9),(-0.549306144334,
    -1.639033699346E-02),.PIECEWISE_BEZIER_KNOTS.);
#531 = CARTESIAN_POINT('',(-1.047197551197,0.245373864406));
#532 = CARTESIAN_POINT('',(-0.989507722792,0.184318796011));
#533 = CARTESIAN_POINT('',(-0.929621907564,0.132560073633));
#534 = CARTESIAN_POINT('',(-0.867735146709,8.968484981088E-02));
#535 = CARTESIAN_POINT('',(-0.804115274199,5.536828216833E-02));
#536 = CARTESIAN_POINT('',(-0.73910551481,2.936767139306E-02));
#537 = CARTESIAN_POINT('',(-0.673116333885,1.151868048599E-02));
#538 = CARTESIAN_POINT('',(-0.60659390794,1.733363619873E-03));
#539 = CARTESIAN_POINT('',(-0.539988378782,1.110223024625E-16));
#540 = ( GEOMETRIC_REPRESENTATION_CONTEXT(2) 
PARAMETRIC_REPRESENTATION_CONTEXT() REPRESENTATION_CONTEXT('2D SPACE',''
  ) );
#541 = ORIENTED_EDGE('',*,*,#542,.F.);
#542 = EDGE_CURVE('',#261,#508,#543,.T.);
#543 = SURFACE_CURVE('',#544,(#548,#555),.PCURVE_S1.);
#544 = LINE('',#545,#546);
#545 = CARTESIAN_POINT('',(1.5875,2.749630657016,0.));
#546 = VECTOR('',#547,1.);
#547 = DIRECTION('',(0.,0.,1.));
#548 = PCURVE('',#275,#549);
#549 = DEFINITIONAL_REPRESENTATION('',(#550),#554);
#550 = LINE('',#551,#552);
#551 = CARTESIAN_POINT('',(3.175,0.));
#552 = VECTOR('',#553,1.);
#553 = DIRECTION('',(0.,-1.));
#554 = ( GEOMETRIC_REPRESENTATION_CONTEXT(2) 
PARAMETRIC_REPRESENTATION_CONTEXT() REPRESENTATION_CONTEXT('2D SPACE',''
  ) );
#555 = PCURVE('',#403,#556);
#556 = DEFINITIONAL_REPRESENTATION('',(#557),#561);
#557 = LINE('',#558,#559);
#558 = CARTESIAN_POINT('',(0.,0.));
#559 = VECTOR('',#560,1.);
#560 = DIRECTION('',(0.,-1.));
#561 = ( GEOMETRIC_REPRESENTATION_CONTEXT(2) 
PARAMETRIC_REPRESENTATION_CONTEXT() REPRESENTATION_CONTEXT('2D SPACE',''
  ) );
#562 = ADVANCED_FACE('',(#563),#403,.F.);
#563 = FACE_BOUND('',#564,.F.);
#564 = EDGE_LOOP('',(#565,#566,#567,#597,#620,#655));
#565 = ORIENTED_EDGE('',*,*,#390,.F.);
#566 = ORIENTED_EDGE('',*,*,#542,.T.);
#567 = ORIENTED_EDGE('',*,*,#568,.F.);
#568 = EDGE_CURVE('',#569,#508,#571,.T.);
#569 = VERTEX_POINT('',#570);
#570 = CARTESIAN_POINT('',(4.506939094322E-02,2.749630657016,2.13));
#571 = SURFACE_CURVE('',#572,(#577,#584),.PCURVE_S1.);
#572 = HYPERBOLA('',#573,1.5875,2.749630657016);
#573 = AXIS2_PLACEMENT_3D('',#574,#575,#576);
#574 = CARTESIAN_POINT('',(3.849482919822E-16,2.749630657016,
    3.717713240271));
#575 = DIRECTION('',(-1.4E-16,-1.,-0.));
#576 = DIRECTION('',(0.,0.,-1.));
#577 = PCURVE('',#403,#578);
#578 = DEFINITIONAL_REPRESENTATION('',(#579),#583);
#579 = ( BOUNDED_CURVE() B_SPLINE_CURVE(2,(#580,#581,#582),
.UNSPECIFIED.,.F.,.F.) B_SPLINE_CURVE_WITH_KNOTS((3,3),(
1.639033699346E-02,0.549306144334),.PIECEWISE_BEZIER_KNOTS.) CURVE() 
GEOMETRIC_REPRESENTATION_ITEM() RATIONAL_B_SPLINE_CURVE((1.,
1.035710445508,1.)) REPRESENTATION_ITEM('') );
#580 = CARTESIAN_POINT('',(1.542430609057,-2.13));
#581 = CARTESIAN_POINT('',(0.826534545781,-2.123226106845));
#582 = CARTESIAN_POINT('',(0.,-1.884626135594));
#583 = ( GEOMETRIC_REPRESENTATION_CONTEXT(2) 
PARAMETRIC_REPRESENTATION_CONTEXT() REPRESENTATION_CONTEXT('2D SPACE',''
  ) );
#584 = PCURVE('',#524,#585);
#585 = DEFINITIONAL_REPRESENTATION('',(#586),#596);
#586 = B_SPLINE_CURVE_WITH_KNOTS('',8,(#587,#588,#589,#590,#591,#592,
    #593,#594,#595),.UNSPECIFIED.,.F.,.F.,(9,9),(1.639033699346E-02,
    0.549306144334),.PIECEWISE_BEZIER_KNOTS.);
#587 = CARTESIAN_POINT('',(-1.554406723611,1.110223024625E-16));
#588 = CARTESIAN_POINT('',(-1.487801194453,1.733363619874E-03));
#589 = CARTESIAN_POINT('',(-1.421278768507,1.151868048596E-02));
#590 = CARTESIAN_POINT('',(-1.355289587583,2.9367671393E-02));
#591 = CARTESIAN_POINT('',(-1.290279828188,5.536828216793E-02));
#592 = CARTESIAN_POINT('',(-1.226659955685,8.968484981091E-02));
#593 = CARTESIAN_POINT('',(-1.164773194828,0.132560073633));
#594 = CARTESIAN_POINT('',(-1.104887379601,0.184318796011));
#595 = CARTESIAN_POINT('',(-1.047197551197,0.245373864406));
#596 = ( GEOMETRIC_REPRESENTATION_CONTEXT(2) 
PARAMETRIC_REPRESENTATION_CONTEXT() REPRESENTATION_CONTEXT('2D SPACE',''
  ) );
#597 = ORIENTED_EDGE('',*,*,#598,.T.);
#598 = EDGE_CURVE('',#569,#599,#601,.T.);
#599 = VERTEX_POINT('',#600);
#600 = CARTESIAN_POINT('',(-4.506939094341E-02,2.749630657016,2.13));
#601 = SURFACE_CURVE('',#602,(#606,#613),.PCURVE_S1.);
#602 = LINE('',#603,#604);
#603 = CARTESIAN_POINT('',(1.5875,2.749630657016,2.13));
#604 = VECTOR('',#605,1.);
#605 = DIRECTION('',(-1.,1.4E-16,0.));
#606 = PCURVE('',#403,#607);
#607 = DEFINITIONAL_REPRESENTATION('',(#608),#612);
#608 = LINE('',#609,#610);
#609 = CARTESIAN_POINT('',(0.,-2.13));
#610 = VECTOR('',#611,1.);
#611 = DIRECTION('',(1.,0.));
#612 = ( GEOMETRIC_REPRESENTATION_CONTEXT(2) 
PARAMETRIC_REPRESENTATION_CONTEXT() REPRESENTATION_CONTEXT('2D SPACE',''
  ) );
#613 = PCURVE('',#495,#614);
#614 = DEFINITIONAL_REPRESENTATION('',(#615),#619);
#615 = LINE('',#616,#617);
#616 = CARTESIAN_POINT('',(1.5875,2.749630657016));
#617 = VECTOR('',#618,1.);
#618 = DIRECTION('',(-1.,3.11983639451E-16));
#619 = ( GEOMETRIC_REPRESENTATION_CONTEXT(2) 
PARAMETRIC_REPRESENTATION_CONTEXT() REPRESENTATION_CONTEXT('2D SPACE',''
  ) );
#620 = ORIENTED_EDGE('',*,*,#621,.F.);
#621 = EDGE_CURVE('',#622,#599,#624,.T.);
#622 = VERTEX_POINT('',#623);
#623 = CARTESIAN_POINT('',(-1.5875,2.749630657016,1.884626135594));
#624 = SURFACE_CURVE('',#625,(#630,#637),.PCURVE_S1.);
#625 = HYPERBOLA('',#626,1.5875,2.749630657016);
#626 = AXIS2_PLACEMENT_3D('',#627,#628,#629);
#627 = CARTESIAN_POINT('',(3.849482919822E-16,2.749630657016,
    3.717713240271));
#628 = DIRECTION('',(-1.4E-16,-1.,-0.));
#629 = DIRECTION('',(0.,0.,-1.));
#630 = PCURVE('',#403,#631);
#631 = DEFINITIONAL_REPRESENTATION('',(#632),#636);
#632 = ( BOUNDED_CURVE() B_SPLINE_CURVE(2,(#633,#634,#635),
.UNSPECIFIED.,.F.,.F.) B_SPLINE_CURVE_WITH_KNOTS((3,3),(-0.549306144334,
-1.639033699346E-02),.PIECEWISE_BEZIER_KNOTS.) CURVE() 
GEOMETRIC_REPRESENTATION_ITEM() RATIONAL_B_SPLINE_CURVE((1.,
1.035710445508,1.)) REPRESENTATION_ITEM('') );
#633 = CARTESIAN_POINT('',(3.175,-1.884626135594));
#634 = CARTESIAN_POINT('',(2.348465454219,-2.123226106845));
#635 = CARTESIAN_POINT('',(1.632569390943,-2.13));
#636 = ( GEOMETRIC_REPRESENTATION_CONTEXT(2) 
PARAMETRIC_REPRESENTATION_CONTEXT() REPRESENTATION_CONTEXT('2D SPACE',''
  ) );
#637 = PCURVE('',#638,#643);
#638 = CONICAL_SURFACE('',#639,2.75,1.047197551197);
#639 = AXIS2_PLACEMENT_3D('',#640,#641,#642);
#640 = CARTESIAN_POINT('',(0.,0.,2.13));
#641 = DIRECTION('',(-0.,-0.,-1.));
#642 = DIRECTION('',(1.,1.71983639451E-16,0.));
#643 = DEFINITIONAL_REPRESENTATION('',(#644),#654);
#644 = B_SPLINE_CURVE_WITH_KNOTS('',8,(#645,#646,#647,#648,#649,#650,
    #651,#652,#653),.UNSPECIFIED.,.F.,.F.,(9,9),(-0.549306144334,
    -1.639033699346E-02),.PIECEWISE_BEZIER_KNOTS.);
#645 = CARTESIAN_POINT('',(-2.094395102393,0.245373864406));
#646 = CARTESIAN_POINT('',(-2.036705273989,0.184318796011));
#647 = CARTESIAN_POINT('',(-1.97681945876,0.132560073633));
#648 = CARTESIAN_POINT('',(-1.91493269791,8.968484981045E-02));
#649 = CARTESIAN_POINT('',(-1.851312825394,5.536828216904E-02));
#650 = CARTESIAN_POINT('',(-1.786303066009,2.936767139258E-02));
#651 = CARTESIAN_POINT('',(-1.720313885082,1.151868048608E-02));
#652 = CARTESIAN_POINT('',(-1.653791459137,1.733363619874E-03));
#653 = CARTESIAN_POINT('',(-1.587185929979,1.110223024625E-16));
#654 = ( GEOMETRIC_REPRESENTATION_CONTEXT(2) 
PARAMETRIC_REPRESENTATION_CONTEXT() REPRESENTATION_CONTEXT('2D SPACE',''
  ) );
#655 = ORIENTED_EDGE('',*,*,#656,.F.);
#656 = EDGE_CURVE('',#365,#622,#657,.T.);
#657 = SURFACE_CURVE('',#658,(#662,#669),.PCURVE_S1.);
#658 = LINE('',#659,#660);
#659 = CARTESIAN_POINT('',(-1.5875,2.749630657016,0.));
#660 = VECTOR('',#661,1.);
#661 = DIRECTION('',(0.,0.,1.));
#662 = PCURVE('',#403,#663);
#663 = DEFINITIONAL_REPRESENTATION('',(#664),#668);
#664 = LINE('',#665,#666);
#665 = CARTESIAN_POINT('',(3.175,0.));
#666 = VECTOR('',#667,1.);
#667 = DIRECTION('',(0.,-1.));
#668 = ( GEOMETRIC_REPRESENTATION_CONTEXT(2) 
PARAMETRIC_REPRESENTATION_CONTEXT() REPRESENTATION_CONTEXT('2D SPACE',''
  ) );
#669 = PCURVE('',#379,#670);
#670 = DEFINITIONAL_REPRESENTATION('',(#671),#675);
#671 = LINE('',#672,#673);
#672 = CARTESIAN_POINT('',(0.,0.));
#673 = VECTOR('',#674,1.);
#674 = DIRECTION('',(0.,-1.));
#675 = ( GEOMETRIC_REPRESENTATION_CONTEXT(2) 
PARAMETRIC_REPRESENTATION_CONTEXT() REPRESENTATION_CONTEXT('2D SPACE',''
  ) );
#676 = ADVANCED_FACE('',(#677),#379,.F.);
#677 = FACE_BOUND('',#678,.F.);
#678 = EDGE_LOOP('',(#679,#680,#681,#711,#734,#769));
#679 = ORIENTED_EDGE('',*,*,#364,.F.);
#680 = ORIENTED_EDGE('',*,*,#656,.T.);
#681 = ORIENTED_EDGE('',*,*,#682,.F.);
#682 = EDGE_CURVE('',#683,#622,#685,.T.);
#683 = VERTEX_POINT('',#684);
#684 = CARTESIAN_POINT('',(-2.358715304528,1.413846565998,2.13));
#685 = SURFACE_CURVE('',#686,(#691,#698),.PCURVE_S1.);
#686 = HYPERBOLA('',#687,1.5875,2.749630657016);
#687 = AXIS2_PLACEMENT_3D('',#688,#689,#690);
#688 = CARTESIAN_POINT('',(-2.38125,1.374815328508,3.717713240271));
#689 = DIRECTION('',(0.866025403784,-0.5,0.));
#690 = DIRECTION('',(0.,0.,-1.));
#691 = PCURVE('',#379,#692);
#692 = DEFINITIONAL_REPRESENTATION('',(#693),#697);
#693 = ( BOUNDED_CURVE() B_SPLINE_CURVE(2,(#694,#695,#696),
.UNSPECIFIED.,.F.,.F.) B_SPLINE_CURVE_WITH_KNOTS((3,3),(
1.639033699347E-02,0.549306144334),.PIECEWISE_BEZIER_KNOTS.) CURVE() 
GEOMETRIC_REPRESENTATION_ITEM() RATIONAL_B_SPLINE_CURVE((1.,
1.035710445508,1.)) REPRESENTATION_ITEM('') );
#694 = CARTESIAN_POINT('',(1.542430609057,-2.13));
#695 = CARTESIAN_POINT('',(0.826534545781,-2.123226106845));
#696 = CARTESIAN_POINT('',(4.440892098501E-16,-1.884626135594));
#697 = ( GEOMETRIC_REPRESENTATION_CONTEXT(2) 
PARAMETRIC_REPRESENTATION_CONTEXT() REPRESENTATION_CONTEXT('2D SPACE',''
  ) );
#698 = PCURVE('',#638,#699);
#699 = DEFINITIONAL_REPRESENTATION('',(#700),#710);
#700 = B_SPLINE_CURVE_WITH_KNOTS('',8,(#701,#702,#703,#704,#705,#706,
    #707,#708,#709),.UNSPECIFIED.,.F.,.F.,(9,9),(1.639033699347E-02,
    0.549306144334),.PIECEWISE_BEZIER_KNOTS.);
#701 = CARTESIAN_POINT('',(-2.601604274807,3.033185711009E-16));
#702 = CARTESIAN_POINT('',(-2.53499874565,1.733363619874E-03));
#703 = CARTESIAN_POINT('',(-2.468476319703,1.15186804859E-02));
#704 = CARTESIAN_POINT('',(-2.402487138779,2.936767139317E-02));
#705 = CARTESIAN_POINT('',(-2.337477379398,5.536828216782E-02));
#706 = CARTESIAN_POINT('',(-2.273857506879,8.968484981096E-02));
#707 = CARTESIAN_POINT('',(-2.211970746025,0.132560073633));
#708 = CARTESIAN_POINT('',(-2.152084930798,0.184318796011));
#709 = CARTESIAN_POINT('',(-2.094395102393,0.245373864406));
#710 = ( GEOMETRIC_REPRESENTATION_CONTEXT(2) 
PARAMETRIC_REPRESENTATION_CONTEXT() REPRESENTATION_CONTEXT('2D SPACE',''
  ) );
#711 = ORIENTED_EDGE('',*,*,#712,.T.);
#712 = EDGE_CURVE('',#683,#713,#715,.T.);
#713 = VERTEX_POINT('',#714);
#714 = CARTESIAN_POINT('',(-2.403784695472,1.335784091018,2.13));
#715 = SURFACE_CURVE('',#716,(#720,#727),.PCURVE_S1.);
#716 = LINE('',#717,#718);
#717 = CARTESIAN_POINT('',(-1.5875,2.749630657016,2.13));
#718 = VECTOR('',#719,1.);
#719 = DIRECTION('',(-0.5,-0.866025403784,0.));
#720 = PCURVE('',#379,#721);
#721 = DEFINITIONAL_REPRESENTATION('',(#722),#726);
#722 = LINE('',#723,#724);
#723 = CARTESIAN_POINT('',(0.,-2.13));
#724 = VECTOR('',#725,1.);
#725 = DIRECTION('',(1.,0.));
#726 = ( GEOMETRIC_REPRESENTATION_CONTEXT(2) 
PARAMETRIC_REPRESENTATION_CONTEXT() REPRESENTATION_CONTEXT('2D SPACE',''
  ) );
#727 = PCURVE('',#495,#728);
#728 = DEFINITIONAL_REPRESENTATION('',(#729),#733);
#729 = LINE('',#730,#731);
#730 = CARTESIAN_POINT('',(-1.5875,2.749630657016));
#731 = VECTOR('',#732,1.);
#732 = DIRECTION('',(-0.5,-0.866025403784));
#733 = ( GEOMETRIC_REPRESENTATION_CONTEXT(2) 
PARAMETRIC_REPRESENTATION_CONTEXT() REPRESENTATION_CONTEXT('2D SPACE',''
  ) );
#734 = ORIENTED_EDGE('',*,*,#735,.F.);
#735 = EDGE_CURVE('',#736,#713,#738,.T.);
#736 = VERTEX_POINT('',#737);
#737 = CARTESIAN_POINT('',(-3.175,8.161421351976E-14,1.884626135594));
#738 = SURFACE_CURVE('',#739,(#744,#751),.PCURVE_S1.);
#739 = HYPERBOLA('',#740,1.5875,2.749630657016);
#740 = AXIS2_PLACEMENT_3D('',#741,#742,#743);
#741 = CARTESIAN_POINT('',(-2.38125,1.374815328508,3.717713240271));
#742 = DIRECTION('',(0.866025403784,-0.5,0.));
#743 = DIRECTION('',(0.,0.,-1.));
#744 = PCURVE('',#379,#745);
#745 = DEFINITIONAL_REPRESENTATION('',(#746),#750);
#746 = ( BOUNDED_CURVE() B_SPLINE_CURVE(2,(#747,#748,#749),
.UNSPECIFIED.,.F.,.F.) B_SPLINE_CURVE_WITH_KNOTS((3,3),(-0.549306144334,
-1.639033699347E-02),.PIECEWISE_BEZIER_KNOTS.) CURVE() 
GEOMETRIC_REPRESENTATION_ITEM() RATIONAL_B_SPLINE_CURVE((1.,
1.035710445508,1.)) REPRESENTATION_ITEM('') );
#747 = CARTESIAN_POINT('',(3.175,-1.884626135594));
#748 = CARTESIAN_POINT('',(2.348465454219,-2.123226106845));
#749 = CARTESIAN_POINT('',(1.632569390943,-2.13));
#750 = ( GEOMETRIC_REPRESENTATION_CONTEXT(2) 
PARAMETRIC_REPRESENTATION_CONTEXT() REPRESENTATION_CONTEXT('2D SPACE',''
  ) );
#751 = PCURVE('',#752,#757);
#752 = CONICAL_SURFACE('',#753,2.75,1.047197551197);
#753 = AXIS2_PLACEMENT_3D('',#754,#755,#756);
#754 = CARTESIAN_POINT('',(0.,0.,2.13));
#755 = DIRECTION('',(-0.,-0.,-1.));
#756 = DIRECTION('',(1.,1.71983639451E-16,0.));
#757 = DEFINITIONAL_REPRESENTATION('',(#758),#768);
#758 = B_SPLINE_CURVE_WITH_KNOTS('',8,(#759,#760,#761,#762,#763,#764,
    #765,#766,#767),.UNSPECIFIED.,.F.,.F.,(9,9),(-0.549306144334,
    -1.639033699347E-02),.PIECEWISE_BEZIER_KNOTS.);
#759 = CARTESIAN_POINT('',(-3.14159265359,0.245373864406));
#760 = CARTESIAN_POINT('',(-3.083902825185,0.184318796011));
#761 = CARTESIAN_POINT('',(-3.024017009957,0.132560073633));
#762 = CARTESIAN_POINT('',(-2.962130249092,8.968484981062E-02));
#763 = CARTESIAN_POINT('',(-2.898510376601,5.536828216876E-02));
#764 = CARTESIAN_POINT('',(-2.833500617191,2.936767139269E-02));
#765 = CARTESIAN_POINT('',(-2.767511436277,1.151868048601E-02));
#766 = CARTESIAN_POINT('',(-2.700989010333,1.733363619874E-03));
#767 = CARTESIAN_POINT('',(-2.634383481176,4.956148397392E-16));
#768 = ( GEOMETRIC_REPRESENTATION_CONTEXT(2) 
PARAMETRIC_REPRESENTATION_CONTEXT() REPRESENTATION_CONTEXT('2D SPACE',''
  ) );
#769 = ORIENTED_EDGE('',*,*,#770,.F.);
#770 = EDGE_CURVE('',#339,#736,#771,.T.);
#771 = SURFACE_CURVE('',#772,(#776,#783),.PCURVE_S1.);
#772 = LINE('',#773,#774);
#773 = CARTESIAN_POINT('',(-3.175,1.11E-15,0.));
#774 = VECTOR('',#775,1.);
#775 = DIRECTION('',(0.,0.,1.));
#776 = PCURVE('',#379,#777);
#777 = DEFINITIONAL_REPRESENTATION('',(#778),#782);
#778 = LINE('',#779,#780);
#779 = CARTESIAN_POINT('',(3.175,0.));
#780 = VECTOR('',#781,1.);
#781 = DIRECTION('',(0.,-1.));
#782 = ( GEOMETRIC_REPRESENTATION_CONTEXT(2) 
PARAMETRIC_REPRESENTATION_CONTEXT() REPRESENTATION_CONTEXT('2D SPACE',''
  ) );
#783 = PCURVE('',#353,#784);
#784 = DEFINITIONAL_REPRESENTATION('',(#785),#789);
#785 = LINE('',#786,#787);
#786 = CARTESIAN_POINT('',(0.,0.));
#787 = VECTOR('',#788,1.);
#788 = DIRECTION('',(0.,-1.));
#789 = ( GEOMETRIC_REPRESENTATION_CONTEXT(2) 
PARAMETRIC_REPRESENTATION_CONTEXT() REPRESENTATION_CONTEXT('2D SPACE',''
  ) );
#790 = ADVANCED_FACE('',(#791),#353,.F.);
#791 = FACE_BOUND('',#792,.F.);
#792 = EDGE_LOOP('',(#793,#794,#795,#825,#848,#883));
#793 = ORIENTED_EDGE('',*,*,#338,.F.);
#794 = ORIENTED_EDGE('',*,*,#770,.T.);
#795 = ORIENTED_EDGE('',*,*,#796,.F.);
#796 = EDGE_CURVE('',#797,#736,#799,.T.);
#797 = VERTEX_POINT('',#798);
#798 = CARTESIAN_POINT('',(-2.403784695472,-1.335784091018,2.13));
#799 = SURFACE_CURVE('',#800,(#805,#812),.PCURVE_S1.);
#800 = HYPERBOLA('',#801,1.5875,2.749630657016);
#801 = AXIS2_PLACEMENT_3D('',#802,#803,#804);
#802 = CARTESIAN_POINT('',(-2.38125,-1.374815328508,3.717713240271));
#803 = DIRECTION('',(0.866025403784,0.5,0.));
#804 = DIRECTION('',(0.,0.,-1.));
#805 = PCURVE('',#353,#806);
#806 = DEFINITIONAL_REPRESENTATION('',(#807),#811);
#807 = ( BOUNDED_CURVE() B_SPLINE_CURVE(2,(#808,#809,#810),
.UNSPECIFIED.,.F.,.F.) B_SPLINE_CURVE_WITH_KNOTS((3,3),(
1.639033699345E-02,0.549306144334),.PIECEWISE_BEZIER_KNOTS.) CURVE() 
GEOMETRIC_REPRESENTATION_ITEM() RATIONAL_B_SPLINE_CURVE((1.,
1.035710445508,1.)) REPRESENTATION_ITEM('') );
#808 = CARTESIAN_POINT('',(1.542430609057,-2.13));
#809 = CARTESIAN_POINT('',(0.826534545781,-2.123226106845));
#810 = CARTESIAN_POINT('',(0.,-1.884626135594));
#811 = ( GEOMETRIC_REPRESENTATION_CONTEXT(2) 
PARAMETRIC_REPRESENTATION_CONTEXT() REPRESENTATION_CONTEXT('2D SPACE',''
  ) );
#812 = PCURVE('',#752,#813);
#813 = DEFINITIONAL_REPRESENTATION('',(#814),#824);
#814 = B_SPLINE_CURVE_WITH_KNOTS('',8,(#815,#816,#817,#818,#819,#820,
    #821,#822,#823),.UNSPECIFIED.,.F.,.F.,(9,9),(1.639033699345E-02,
    0.549306144334),.PIECEWISE_BEZIER_KNOTS.);
#815 = CARTESIAN_POINT('',(-3.648801826004,-1.922962686384E-16));
#816 = CARTESIAN_POINT('',(-3.582196296846,1.733363619872E-03));
#817 = CARTESIAN_POINT('',(-3.515673870899,1.151868048592E-02));
#818 = CARTESIAN_POINT('',(-3.449684689982,2.936767139315E-02));
#819 = CARTESIAN_POINT('',(-3.384674930596,5.536828216793E-02));
#820 = CARTESIAN_POINT('',(-3.321055058079,8.968484981096E-02));
#821 = CARTESIAN_POINT('',(-3.259168297221,0.132560073633));
#822 = CARTESIAN_POINT('',(-3.199282481994,0.184318796011));
#823 = CARTESIAN_POINT('',(-3.14159265359,0.245373864406));
#824 = ( GEOMETRIC_REPRESENTATION_CONTEXT(2) 
PARAMETRIC_REPRESENTATION_CONTEXT() REPRESENTATION_CONTEXT('2D SPACE',''
  ) );
#825 = ORIENTED_EDGE('',*,*,#826,.T.);
#826 = EDGE_CURVE('',#797,#827,#829,.T.);
#827 = VERTEX_POINT('',#828);
#828 = CARTESIAN_POINT('',(-2.358715304528,-1.413846565998,2.13));
#829 = SURFACE_CURVE('',#830,(#834,#841),.PCURVE_S1.);
#830 = LINE('',#831,#832);
#831 = CARTESIAN_POINT('',(-3.175,1.11E-15,2.13));
#832 = VECTOR('',#833,1.);
#833 = DIRECTION('',(0.5,-0.866025403784,0.));
#834 = PCURVE('',#353,#835);
#835 = DEFINITIONAL_REPRESENTATION('',(#836),#840);
#836 = LINE('',#837,#838);
#837 = CARTESIAN_POINT('',(0.,-2.13));
#838 = VECTOR('',#839,1.);
#839 = DIRECTION('',(1.,0.));
#840 = ( GEOMETRIC_REPRESENTATION_CONTEXT(2) 
PARAMETRIC_REPRESENTATION_CONTEXT() REPRESENTATION_CONTEXT('2D SPACE',''
  ) );
#841 = PCURVE('',#495,#842);
#842 = DEFINITIONAL_REPRESENTATION('',(#843),#847);
#843 = LINE('',#844,#845);
#844 = CARTESIAN_POINT('',(-3.175,1.656048055257E-15));
#845 = VECTOR('',#846,1.);
#846 = DIRECTION('',(0.5,-0.866025403784));
#847 = ( GEOMETRIC_REPRESENTATION_CONTEXT(2) 
PARAMETRIC_REPRESENTATION_CONTEXT() REPRESENTATION_CONTEXT('2D SPACE',''
  ) );
#848 = ORIENTED_EDGE('',*,*,#849,.F.);
#849 = EDGE_CURVE('',#850,#827,#852,.T.);
#850 = VERTEX_POINT('',#851);
#851 = CARTESIAN_POINT('',(-1.5875,-2.749630657016,1.884626135594));
#852 = SURFACE_CURVE('',#853,(#858,#865),.PCURVE_S1.);
#853 = HYPERBOLA('',#854,1.5875,2.749630657016);
#854 = AXIS2_PLACEMENT_3D('',#855,#856,#857);
#855 = CARTESIAN_POINT('',(-2.38125,-1.374815328508,3.717713240271));
#856 = DIRECTION('',(0.866025403784,0.5,0.));
#857 = DIRECTION('',(0.,0.,-1.));
#858 = PCURVE('',#353,#859);
#859 = DEFINITIONAL_REPRESENTATION('',(#860),#864);
#860 = ( BOUNDED_CURVE() B_SPLINE_CURVE(2,(#861,#862,#863),
.UNSPECIFIED.,.F.,.F.) B_SPLINE_CURVE_WITH_KNOTS((3,3),(-0.549306144334,
-1.639033699346E-02),.PIECEWISE_BEZIER_KNOTS.) CURVE() 
GEOMETRIC_REPRESENTATION_ITEM() RATIONAL_B_SPLINE_CURVE((1.,
1.035710445508,1.)) REPRESENTATION_ITEM('') );
#861 = CARTESIAN_POINT('',(3.175,-1.884626135594));
#862 = CARTESIAN_POINT('',(2.348465454219,-2.123226106845));
#863 = CARTESIAN_POINT('',(1.632569390943,-2.13));
#864 = ( GEOMETRIC_REPRESENTATION_CONTEXT(2) 
PARAMETRIC_REPRESENTATION_CONTEXT() REPRESENTATION_CONTEXT('2D SPACE',''
  ) );
#865 = PCURVE('',#866,#871);
#866 = CONICAL_SURFACE('',#867,2.75,1.047197551197);
#867 = AXIS2_PLACEMENT_3D('',#868,#869,#870);
#868 = CARTESIAN_POINT('',(0.,0.,2.13));
#869 = DIRECTION('',(-0.,-0.,-1.));
#870 = DIRECTION('',(1.,1.71983639451E-16,0.));
#871 = DEFINITIONAL_REPRESENTATION('',(#872),#882);
#872 = B_SPLINE_CURVE_WITH_KNOTS('',8,(#873,#874,#875,#876,#877,#878,
    #879,#880,#881),.UNSPECIFIED.,.F.,.F.,(9,9),(-0.549306144334,
    -1.639033699346E-02),.PIECEWISE_BEZIER_KNOTS.);
#873 = CARTESIAN_POINT('',(-4.188790204786,0.245373864406));
#874 = CARTESIAN_POINT('',(-4.131100376382,0.184318796011));
#875 = CARTESIAN_POINT('',(-4.071214561155,0.132560073633));
#876 = CARTESIAN_POINT('',(-4.009327800273,8.968484981034E-02));
#877 = CARTESIAN_POINT('',(-3.945707927825,5.536828216859E-02));
#878 = CARTESIAN_POINT('',(-3.880698168372,2.936767139255E-02));
#879 = CARTESIAN_POINT('',(-3.814708987477,1.151868048605E-02));
#880 = CARTESIAN_POINT('',(-3.74818656153,1.733363619873E-03));
#881 = CARTESIAN_POINT('',(-3.681581032372,0.));
#882 = ( GEOMETRIC_REPRESENTATION_CONTEXT(2) 
PARAMETRIC_REPRESENTATION_CONTEXT() REPRESENTATION_CONTEXT('2D SPACE',''
  ) );
#883 = ORIENTED_EDGE('',*,*,#884,.F.);
#884 = EDGE_CURVE('',#313,#850,#885,.T.);
#885 = SURFACE_CURVE('',#886,(#890,#897),.PCURVE_S1.);
#886 = LINE('',#887,#888);
#887 = CARTESIAN_POINT('',(-1.5875,-2.749630657016,0.));
#888 = VECTOR('',#889,1.);
#889 = DIRECTION('',(0.,0.,1.));
#890 = PCURVE('',#353,#891);
#891 = DEFINITIONAL_REPRESENTATION('',(#892),#896);
#892 = LINE('',#893,#894);
#893 = CARTESIAN_POINT('',(3.175,0.));
#894 = VECTOR('',#895,1.);
#895 = DIRECTION('',(0.,-1.));
#896 = ( GEOMETRIC_REPRESENTATION_CONTEXT(2) 
PARAMETRIC_REPRESENTATION_CONTEXT() REPRESENTATION_CONTEXT('2D SPACE',''
  ) );
#897 = PCURVE('',#327,#898);
#898 = DEFINITIONAL_REPRESENTATION('',(#899),#903);
#899 = LINE('',#900,#901);
#900 = CARTESIAN_POINT('',(0.,0.));
#901 = VECTOR('',#902,1.);
#902 = DIRECTION('',(0.,-1.));
#903 = ( GEOMETRIC_REPRESENTATION_CONTEXT(2) 
PARAMETRIC_REPRESENTATION_CONTEXT() REPRESENTATION_CONTEXT('2D SPACE',''
  ) );
#904 = ADVANCED_FACE('',(#905),#327,.F.);
#905 = FACE_BOUND('',#906,.F.);
#906 = EDGE_LOOP('',(#907,#908,#909,#939,#962,#997));
#907 = ORIENTED_EDGE('',*,*,#312,.F.);
#908 = ORIENTED_EDGE('',*,*,#884,.T.);
#909 = ORIENTED_EDGE('',*,*,#910,.F.);
#910 = EDGE_CURVE('',#911,#850,#913,.T.);
#911 = VERTEX_POINT('',#912);
#912 = CARTESIAN_POINT('',(-4.506939094342E-02,-2.749630657016,2.13));
#913 = SURFACE_CURVE('',#914,(#919,#926),.PCURVE_S1.);
#914 = HYPERBOLA('',#915,1.5875,2.749630657016);
#915 = AXIS2_PLACEMENT_3D('',#916,#917,#918);
#916 = CARTESIAN_POINT('',(-1.539793167929E-15,-2.749630657016,
    3.717713240271));
#917 = DIRECTION('',(5.6E-16,1.,0.));
#918 = DIRECTION('',(0.,0.,-1.));
#919 = PCURVE('',#327,#920);
#920 = DEFINITIONAL_REPRESENTATION('',(#921),#925);
#921 = ( BOUNDED_CURVE() B_SPLINE_CURVE(2,(#922,#923,#924),
.UNSPECIFIED.,.F.,.F.) B_SPLINE_CURVE_WITH_KNOTS((3,3),(
1.639033699346E-02,0.549306144334),.PIECEWISE_BEZIER_KNOTS.) CURVE() 
GEOMETRIC_REPRESENTATION_ITEM() RATIONAL_B_SPLINE_CURVE((1.,
1.035710445508,1.)) REPRESENTATION_ITEM('') );
#922 = CARTESIAN_POINT('',(1.542430609057,-2.13));
#923 = CARTESIAN_POINT('',(0.826534545781,-2.123226106845));
#924 = CARTESIAN_POINT('',(2.22044604925E-16,-1.884626135594));
#925 = ( GEOMETRIC_REPRESENTATION_CONTEXT(2) 
PARAMETRIC_REPRESENTATION_CONTEXT() REPRESENTATION_CONTEXT('2D SPACE',''
  ) );
#926 = PCURVE('',#866,#927);
#927 = DEFINITIONAL_REPRESENTATION('',(#928),#938);
#928 = B_SPLINE_CURVE_WITH_KNOTS('',8,(#929,#930,#931,#932,#933,#934,
    #935,#936,#937),.UNSPECIFIED.,.F.,.F.,(9,9),(1.639033699346E-02,
    0.549306144334),.PIECEWISE_BEZIER_KNOTS.);
#929 = CARTESIAN_POINT('',(-4.695999377201,1.110223024625E-16));
#930 = CARTESIAN_POINT('',(-4.629393848043,1.733363619873E-03));
#931 = CARTESIAN_POINT('',(-4.562871422092,1.151868048595E-02));
#932 = CARTESIAN_POINT('',(-4.496882241188,2.936767139329E-02));
#933 = CARTESIAN_POINT('',(-4.431872481735,5.53682821681E-02));
#934 = CARTESIAN_POINT('',(-4.368252609285,8.968484981114E-02));
#935 = CARTESIAN_POINT('',(-4.306365848411,0.132560073633));
#936 = CARTESIAN_POINT('',(-4.246480033191,0.184318796011));
#937 = CARTESIAN_POINT('',(-4.188790204786,0.245373864406));
#938 = ( GEOMETRIC_REPRESENTATION_CONTEXT(2) 
PARAMETRIC_REPRESENTATION_CONTEXT() REPRESENTATION_CONTEXT('2D SPACE',''
  ) );
#939 = ORIENTED_EDGE('',*,*,#940,.T.);
#940 = EDGE_CURVE('',#911,#941,#943,.T.);
#941 = VERTEX_POINT('',#942);
#942 = CARTESIAN_POINT('',(4.506939094322E-02,-2.749630657016,2.13));
#943 = SURFACE_CURVE('',#944,(#948,#955),.PCURVE_S1.);
#944 = LINE('',#945,#946);
#945 = CARTESIAN_POINT('',(-1.5875,-2.749630657016,2.13));
#946 = VECTOR('',#947,1.);
#947 = DIRECTION('',(1.,-5.6E-16,0.));
#948 = PCURVE('',#327,#949);
#949 = DEFINITIONAL_REPRESENTATION('',(#950),#954);
#950 = LINE('',#951,#952);
#951 = CARTESIAN_POINT('',(0.,-2.13));
#952 = VECTOR('',#953,1.);
#953 = DIRECTION('',(1.,0.));
#954 = ( GEOMETRIC_REPRESENTATION_CONTEXT(2) 
PARAMETRIC_REPRESENTATION_CONTEXT() REPRESENTATION_CONTEXT('2D SPACE',''
  ) );
#955 = PCURVE('',#495,#956);
#956 = DEFINITIONAL_REPRESENTATION('',(#957),#961);
#957 = LINE('',#958,#959);
#958 = CARTESIAN_POINT('',(-1.5875,-2.749630657016));
#959 = VECTOR('',#960,1.);
#960 = DIRECTION('',(1.,-7.31983639451E-16));
#961 = ( GEOMETRIC_REPRESENTATION_CONTEXT(2) 
PARAMETRIC_REPRESENTATION_CONTEXT() REPRESENTATION_CONTEXT('2D SPACE',''
  ) );
#962 = ORIENTED_EDGE('',*,*,#963,.F.);
#963 = EDGE_CURVE('',#964,#941,#966,.T.);
#964 = VERTEX_POINT('',#965);
#965 = CARTESIAN_POINT('',(1.5875,-2.749630657016,1.884626135594));
#966 = SURFACE_CURVE('',#967,(#972,#979),.PCURVE_S1.);
#967 = HYPERBOLA('',#968,1.5875,2.749630657016);
#968 = AXIS2_PLACEMENT_3D('',#969,#970,#971);
#969 = CARTESIAN_POINT('',(-1.539793167929E-15,-2.749630657016,
    3.717713240271));
#970 = DIRECTION('',(5.6E-16,1.,0.));
#971 = DIRECTION('',(0.,0.,-1.));
#972 = PCURVE('',#327,#973);
#973 = DEFINITIONAL_REPRESENTATION('',(#974),#978);
#974 = ( BOUNDED_CURVE() B_SPLINE_CURVE(2,(#975,#976,#977),
.UNSPECIFIED.,.F.,.F.) B_SPLINE_CURVE_WITH_KNOTS((3,3),(-0.549306144334,
-1.639033699347E-02),.PIECEWISE_BEZIER_KNOTS.) CURVE() 
GEOMETRIC_REPRESENTATION_ITEM() RATIONAL_B_SPLINE_CURVE((1.,
1.035710445508,1.)) REPRESENTATION_ITEM('') );
#975 = CARTESIAN_POINT('',(3.175,-1.884626135594));
#976 = CARTESIAN_POINT('',(2.348465454219,-2.123226106845));
#977 = CARTESIAN_POINT('',(1.632569390943,-2.13));
#978 = ( GEOMETRIC_REPRESENTATION_CONTEXT(2) 
PARAMETRIC_REPRESENTATION_CONTEXT() REPRESENTATION_CONTEXT('2D SPACE',''
  ) );
#979 = PCURVE('',#980,#985);
#980 = CONICAL_SURFACE('',#981,2.75,1.047197551197);
#981 = AXIS2_PLACEMENT_3D('',#982,#983,#984);
#982 = CARTESIAN_POINT('',(0.,0.,2.13));
#983 = DIRECTION('',(-0.,-0.,-1.));
#984 = DIRECTION('',(1.,1.71983639451E-16,0.));
#985 = DEFINITIONAL_REPRESENTATION('',(#986),#996);
#986 = B_SPLINE_CURVE_WITH_KNOTS('',8,(#987,#988,#989,#990,#991,#992,
    #993,#994,#995),.UNSPECIFIED.,.F.,.F.,(9,9),(-0.549306144334,
    -1.639033699347E-02),.PIECEWISE_BEZIER_KNOTS.);
#987 = CARTESIAN_POINT('',(-5.235987755983,0.245373864406));
#988 = CARTESIAN_POINT('',(-5.178297927579,0.184318796011));
#989 = CARTESIAN_POINT('',(-5.118412112349,0.132560073633));
#990 = CARTESIAN_POINT('',(-5.056525351503,8.968484981108E-02));
#991 = CARTESIAN_POINT('',(-4.992905478972,5.536828216802E-02));
#992 = CARTESIAN_POINT('',(-4.927895719597,2.936767139315E-02));
#993 = CARTESIAN_POINT('',(-4.86190653867,1.151868048593E-02));
#994 = CARTESIAN_POINT('',(-4.795384112727,1.733363619874E-03));
#995 = CARTESIAN_POINT('',(-4.728778583569,1.110223024625E-16));
#996 = ( GEOMETRIC_REPRESENTATION_CONTEXT(2) 
PARAMETRIC_REPRESENTATION_CONTEXT() REPRESENTATION_CONTEXT('2D SPACE',''
  ) );
#997 = ORIENTED_EDGE('',*,*,#998,.F.);
#998 = EDGE_CURVE('',#287,#964,#999,.T.);
#999 = SURFACE_CURVE('',#1000,(#1004,#1011),.PCURVE_S1.);
#1000 = LINE('',#1001,#1002);
#1001 = CARTESIAN_POINT('',(1.5875,-2.749630657016,0.));
#1002 = VECTOR('',#1003,1.);
#1003 = DIRECTION('',(0.,0.,1.));
#1004 = PCURVE('',#327,#1005);
#1005 = DEFINITIONAL_REPRESENTATION('',(#1006),#1010);
#1006 = LINE('',#1007,#1008);
#1007 = CARTESIAN_POINT('',(3.175,0.));
#1008 = VECTOR('',#1009,1.);
#1009 = DIRECTION('',(0.,-1.));
#1010 = ( GEOMETRIC_REPRESENTATION_CONTEXT(2) 
PARAMETRIC_REPRESENTATION_CONTEXT() REPRESENTATION_CONTEXT('2D SPACE',''
  ) );
#1011 = PCURVE('',#301,#1012);
#1012 = DEFINITIONAL_REPRESENTATION('',(#1013),#1017);
#1013 = LINE('',#1014,#1015);
#1014 = CARTESIAN_POINT('',(0.,0.));
#1015 = VECTOR('',#1016,1.);
#1016 = DIRECTION('',(0.,-1.));
#1017 = ( GEOMETRIC_REPRESENTATION_CONTEXT(2) 
PARAMETRIC_REPRESENTATION_CONTEXT() REPRESENTATION_CONTEXT('2D SPACE',''
  ) );
#1018 = ADVANCED_FACE('',(#1019),#301,.F.);
#1019 = FACE_BOUND('',#1020,.F.);
#1020 = EDGE_LOOP('',(#1021,#1022,#1023,#1053,#1076,#1109));
#1021 = ORIENTED_EDGE('',*,*,#286,.F.);
#1022 = ORIENTED_EDGE('',*,*,#998,.T.);
#1023 = ORIENTED_EDGE('',*,*,#1024,.F.);
#1024 = EDGE_CURVE('',#1025,#964,#1027,.T.);
#1025 = VERTEX_POINT('',#1026);
#1026 = CARTESIAN_POINT('',(2.358715304528,-1.413846565998,2.13));
#1027 = SURFACE_CURVE('',#1028,(#1033,#1040),.PCURVE_S1.);
#1028 = HYPERBOLA('',#1029,1.5875,2.749630657016);
#1029 = AXIS2_PLACEMENT_3D('',#1030,#1031,#1032);
#1030 = CARTESIAN_POINT('',(2.38125,-1.374815328508,3.717713240271));
#1031 = DIRECTION('',(-0.866025403784,0.5,0.));
#1032 = DIRECTION('',(0.,0.,-1.));
#1033 = PCURVE('',#301,#1034);
#1034 = DEFINITIONAL_REPRESENTATION('',(#1035),#1039);
#1035 = ( BOUNDED_CURVE() B_SPLINE_CURVE(2,(#1036,#1037,#1038),
.UNSPECIFIED.,.F.,.F.) B_SPLINE_CURVE_WITH_KNOTS((3,3),(
1.639033699347E-02,0.549306144334),.PIECEWISE_BEZIER_KNOTS.) CURVE() 
GEOMETRIC_REPRESENTATION_ITEM() RATIONAL_B_SPLINE_CURVE((1.,
1.035710445508,1.)) REPRESENTATION_ITEM('') );
#1036 = CARTESIAN_POINT('',(1.542430609057,-2.13));
#1037 = CARTESIAN_POINT('',(0.826534545781,-2.123226106845));
#1038 = CARTESIAN_POINT('',(4.440892098501E-16,-1.884626135594));
#1039 = ( GEOMETRIC_REPRESENTATION_CONTEXT(2) 
PARAMETRIC_REPRESENTATION_CONTEXT() REPRESENTATION_CONTEXT('2D SPACE',''
  ) );
#1040 = PCURVE('',#980,#1041);
#1041 = DEFINITIONAL_REPRESENTATION('',(#1042),#1052);
#1042 = B_SPLINE_CURVE_WITH_KNOTS('',8,(#1043,#1044,#1045,#1046,#1047,
    #1048,#1049,#1050,#1051),.UNSPECIFIED.,.F.,.F.,(9,9),(
    1.639033699347E-02,0.549306144334),.PIECEWISE_BEZIER_KNOTS.);
#1043 = CARTESIAN_POINT('',(-5.743196928397,3.033185711009E-16));
#1044 = CARTESIAN_POINT('',(-5.676591399239,1.733363619874E-03));
#1045 = CARTESIAN_POINT('',(-5.610068973292,1.151868048608E-02));
#1046 = CARTESIAN_POINT('',(-5.544079792373,2.936767139255E-02));
#1047 = CARTESIAN_POINT('',(-5.479070032965,5.536828216924E-02));
#1048 = CARTESIAN_POINT('',(-5.415450160457,8.968484981028E-02));
#1049 = CARTESIAN_POINT('',(-5.353563399612,0.132560073633));
#1050 = CARTESIAN_POINT('',(-5.293677584387,0.184318796011));
#1051 = CARTESIAN_POINT('',(-5.235987755983,0.245373864406));
#1052 = ( GEOMETRIC_REPRESENTATION_CONTEXT(2) 
PARAMETRIC_REPRESENTATION_CONTEXT() REPRESENTATION_CONTEXT('2D SPACE',''
  ) );
#1053 = ORIENTED_EDGE('',*,*,#1054,.T.);
#1054 = EDGE_CURVE('',#1025,#1055,#1057,.T.);
#1055 = VERTEX_POINT('',#1056);
#1056 = CARTESIAN_POINT('',(2.403784695472,-1.335784091018,2.13));
#1057 = SURFACE_CURVE('',#1058,(#1062,#1069),.PCURVE_S1.);
#1058 = LINE('',#1059,#1060);
#1059 = CARTESIAN_POINT('',(1.5875,-2.749630657016,2.13));
#1060 = VECTOR('',#1061,1.);
#1061 = DIRECTION('',(0.5,0.866025403784,0.));
#1062 = PCURVE('',#301,#1063);
#1063 = DEFINITIONAL_REPRESENTATION('',(#1064),#1068);
#1064 = LINE('',#1065,#1066);
#1065 = CARTESIAN_POINT('',(0.,-2.13));
#1066 = VECTOR('',#1067,1.);
#1067 = DIRECTION('',(1.,0.));
#1068 = ( GEOMETRIC_REPRESENTATION_CONTEXT(2) 
PARAMETRIC_REPRESENTATION_CONTEXT() REPRESENTATION_CONTEXT('2D SPACE',''
  ) );
#1069 = PCURVE('',#495,#1070);
#1070 = DEFINITIONAL_REPRESENTATION('',(#1071),#1075);
#1071 = LINE('',#1072,#1073);
#1072 = CARTESIAN_POINT('',(1.5875,-2.749630657016));
#1073 = VECTOR('',#1074,1.);
#1074 = DIRECTION('',(0.5,0.866025403784));
#1075 = ( GEOMETRIC_REPRESENTATION_CONTEXT(2) 
PARAMETRIC_REPRESENTATION_CONTEXT() REPRESENTATION_CONTEXT('2D SPACE',''
  ) );
#1076 = ORIENTED_EDGE('',*,*,#1077,.F.);
#1077 = EDGE_CURVE('',#422,#1055,#1078,.T.);
#1078 = SURFACE_CURVE('',#1079,(#1084,#1091),.PCURVE_S1.);
#1079 = HYPERBOLA('',#1080,1.5875,2.749630657016);
#1080 = AXIS2_PLACEMENT_3D('',#1081,#1082,#1083);
#1081 = CARTESIAN_POINT('',(2.38125,-1.374815328508,3.717713240271));
#1082 = DIRECTION('',(-0.866025403784,0.5,0.));
#1083 = DIRECTION('',(0.,0.,-1.));
#1084 = PCURVE('',#301,#1085);
#1085 = DEFINITIONAL_REPRESENTATION('',(#1086),#1090);
#1086 = ( BOUNDED_CURVE() B_SPLINE_CURVE(2,(#1087,#1088,#1089),
.UNSPECIFIED.,.F.,.F.) B_SPLINE_CURVE_WITH_KNOTS((3,3),(-0.549306144334,
-1.639033699347E-02),.PIECEWISE_BEZIER_KNOTS.) CURVE() 
GEOMETRIC_REPRESENTATION_ITEM() RATIONAL_B_SPLINE_CURVE((1.,
1.035710445508,1.)) REPRESENTATION_ITEM('') );
#1087 = CARTESIAN_POINT('',(3.175,-1.884626135594));
#1088 = CARTESIAN_POINT('',(2.348465454219,-2.123226106845));
#1089 = CARTESIAN_POINT('',(1.632569390943,-2.13));
#1090 = ( GEOMETRIC_REPRESENTATION_CONTEXT(2) 
PARAMETRIC_REPRESENTATION_CONTEXT() REPRESENTATION_CONTEXT('2D SPACE',''
  ) );
#1091 = PCURVE('',#1092,#1097);
#1092 = CONICAL_SURFACE('',#1093,2.75,1.047197551197);
#1093 = AXIS2_PLACEMENT_3D('',#1094,#1095,#1096);
#1094 = CARTESIAN_POINT('',(0.,0.,2.13));
#1095 = DIRECTION('',(-0.,-0.,-1.));
#1096 = DIRECTION('',(1.,1.71983639451E-16,0.));
#1097 = DEFINITIONAL_REPRESENTATION('',(#1098),#1108);
#1098 = B_SPLINE_CURVE_WITH_KNOTS('',8,(#1099,#1100,#1101,#1102,#1103,
    #1104,#1105,#1106,#1107),.UNSPECIFIED.,.F.,.F.,(9,9),(
    -0.549306144334,-1.639033699347E-02),.PIECEWISE_BEZIER_KNOTS.);
#1099 = CARTESIAN_POINT('',(-6.28318530718,0.245373864406));
#1100 = CARTESIAN_POINT('',(-6.225495478775,0.184318796011));
#1101 = CARTESIAN_POINT('',(-6.165609663545,0.132560073633));
#1102 = CARTESIAN_POINT('',(-6.103722902692,8.968484981096E-02));
#1103 = CARTESIAN_POINT('',(-6.04010303018,5.536828216796E-02));
#1104 = CARTESIAN_POINT('',(-5.975093270787,2.936767139309E-02));
#1105 = CARTESIAN_POINT('',(-5.909104089863,1.15186804859E-02));
#1106 = CARTESIAN_POINT('',(-5.842581663923,1.733363619875E-03));
#1107 = CARTESIAN_POINT('',(-5.775976134765,3.033185711009E-16));
#1108 = ( GEOMETRIC_REPRESENTATION_CONTEXT(2) 
PARAMETRIC_REPRESENTATION_CONTEXT() REPRESENTATION_CONTEXT('2D SPACE',''
  ) );
#1109 = ORIENTED_EDGE('',*,*,#421,.F.);
#1110 = ADVANCED_FACE('',(#1111),#524,.T.);
#1111 = FACE_BOUND('',#1112,.F.);
#1112 = EDGE_LOOP('',(#1113,#1114,#1136));
#1113 = ORIENTED_EDGE('',*,*,#507,.T.);
#1114 = ORIENTED_EDGE('',*,*,#1115,.T.);
#1115 = EDGE_CURVE('',#480,#569,#1116,.T.);
#1116 = SURFACE_CURVE('',#1117,(#1122,#1129),.PCURVE_S1.);
#1117 = CIRCLE('',#1118,2.75);
#1118 = AXIS2_PLACEMENT_3D('',#1119,#1120,#1121);
#1119 = CARTESIAN_POINT('',(0.,0.,2.13));
#1120 = DIRECTION('',(0.,-0.,1.));
#1121 = DIRECTION('',(1.,1.71983639451E-16,0.));
#1122 = PCURVE('',#524,#1123);
#1123 = DEFINITIONAL_REPRESENTATION('',(#1124),#1128);
#1124 = LINE('',#1125,#1126);
#1125 = CARTESIAN_POINT('',(-0.,0.));
#1126 = VECTOR('',#1127,1.);
#1127 = DIRECTION('',(-1.,0.));
#1128 = ( GEOMETRIC_REPRESENTATION_CONTEXT(2) 
PARAMETRIC_REPRESENTATION_CONTEXT() REPRESENTATION_CONTEXT('2D SPACE',''
  ) );
#1129 = PCURVE('',#495,#1130);
#1130 = DEFINITIONAL_REPRESENTATION('',(#1131),#1135);
#1131 = CIRCLE('',#1132,2.75);
#1132 = AXIS2_PLACEMENT_2D('',#1133,#1134);
#1133 = CARTESIAN_POINT('',(0.,0.));
#1134 = DIRECTION('',(1.,-0.));
#1135 = ( GEOMETRIC_REPRESENTATION_CONTEXT(2) 
PARAMETRIC_REPRESENTATION_CONTEXT() REPRESENTATION_CONTEXT('2D SPACE',''
  ) );
#1136 = ORIENTED_EDGE('',*,*,#568,.T.);
#1137 = ADVANCED_FACE('',(#1138),#495,.T.);
#1138 = FACE_BOUND('',#1139,.F.);
#1139 = EDGE_LOOP('',(#1140,#1164,#1186,#1187,#1209,#1210,#1232,#1233,
    #1255,#1256,#1278,#1279,#1280));
#1140 = ORIENTED_EDGE('',*,*,#1141,.F.);
#1141 = EDGE_CURVE('',#1142,#445,#1144,.T.);
#1142 = VERTEX_POINT('',#1143);
#1143 = CARTESIAN_POINT('',(2.75,4.729550084903E-16,2.13));
#1144 = SURFACE_CURVE('',#1145,(#1150,#1157),.PCURVE_S1.);
#1145 = CIRCLE('',#1146,2.75);
#1146 = AXIS2_PLACEMENT_3D('',#1147,#1148,#1149);
#1147 = CARTESIAN_POINT('',(0.,0.,2.13));
#1148 = DIRECTION('',(0.,-0.,1.));
#1149 = DIRECTION('',(1.,1.71983639451E-16,0.));
#1150 = PCURVE('',#495,#1151);
#1151 = DEFINITIONAL_REPRESENTATION('',(#1152),#1156);
#1152 = CIRCLE('',#1153,2.75);
#1153 = AXIS2_PLACEMENT_2D('',#1154,#1155);
#1154 = CARTESIAN_POINT('',(0.,0.));
#1155 = DIRECTION('',(1.,-0.));
#1156 = ( GEOMETRIC_REPRESENTATION_CONTEXT(2) 
PARAMETRIC_REPRESENTATION_CONTEXT() REPRESENTATION_CONTEXT('2D SPACE',''
  ) );
#1157 = PCURVE('',#461,#1158);
#1158 = DEFINITIONAL_REPRESENTATION('',(#1159),#1163);
#1159 = LINE('',#1160,#1161);
#1160 = CARTESIAN_POINT('',(-0.,0.));
#1161 = VECTOR('',#1162,1.);
#1162 = DIRECTION('',(-1.,0.));
#1163 = ( GEOMETRIC_REPRESENTATION_CONTEXT(2) 
PARAMETRIC_REPRESENTATION_CONTEXT() REPRESENTATION_CONTEXT('2D SPACE',''
  ) );
#1164 = ORIENTED_EDGE('',*,*,#1165,.F.);
#1165 = EDGE_CURVE('',#1055,#1142,#1166,.T.);
#1166 = SURFACE_CURVE('',#1167,(#1172,#1179),.PCURVE_S1.);
#1167 = CIRCLE('',#1168,2.75);
#1168 = AXIS2_PLACEMENT_3D('',#1169,#1170,#1171);
#1169 = CARTESIAN_POINT('',(0.,0.,2.13));
#1170 = DIRECTION('',(0.,-0.,1.));
#1171 = DIRECTION('',(1.,1.71983639451E-16,0.));
#1172 = PCURVE('',#495,#1173);
#1173 = DEFINITIONAL_REPRESENTATION('',(#1174),#1178);
#1174 = CIRCLE('',#1175,2.75);
#1175 = AXIS2_PLACEMENT_2D('',#1176,#1177);
#1176 = CARTESIAN_POINT('',(0.,0.));
#1177 = DIRECTION('',(1.,-0.));
#1178 = ( GEOMETRIC_REPRESENTATION_CONTEXT(2) 
PARAMETRIC_REPRESENTATION_CONTEXT() REPRESENTATION_CONTEXT('2D SPACE',''
  ) );
#1179 = PCURVE('',#1092,#1180);
#1180 = DEFINITIONAL_REPRESENTATION('',(#1181),#1185);
#1181 = LINE('',#1182,#1183);
#1182 = CARTESIAN_POINT('',(-0.,0.));
#1183 = VECTOR('',#1184,1.);
#1184 = DIRECTION('',(-1.,0.));
#1185 = ( GEOMETRIC_REPRESENTATION_CONTEXT(2) 
PARAMETRIC_REPRESENTATION_CONTEXT() REPRESENTATION_CONTEXT('2D SPACE',''
  ) );
#1186 = ORIENTED_EDGE('',*,*,#1054,.F.);
#1187 = ORIENTED_EDGE('',*,*,#1188,.F.);
#1188 = EDGE_CURVE('',#941,#1025,#1189,.T.);
#1189 = SURFACE_CURVE('',#1190,(#1195,#1202),.PCURVE_S1.);
#1190 = CIRCLE('',#1191,2.75);
#1191 = AXIS2_PLACEMENT_3D('',#1192,#1193,#1194);
#1192 = CARTESIAN_POINT('',(0.,0.,2.13));
#1193 = DIRECTION('',(0.,-0.,1.));
#1194 = DIRECTION('',(1.,1.71983639451E-16,0.));
#1195 = PCURVE('',#495,#1196);
#1196 = DEFINITIONAL_REPRESENTATION('',(#1197),#1201);
#1197 = CIRCLE('',#1198,2.75);
#1198 = AXIS2_PLACEMENT_2D('',#1199,#1200);
#1199 = CARTESIAN_POINT('',(0.,0.));
#1200 = DIRECTION('',(1.,-0.));
#1201 = ( GEOMETRIC_REPRESENTATION_CONTEXT(2) 
PARAMETRIC_REPRESENTATION_CONTEXT() REPRESENTATION_CONTEXT('2D SPACE',''
  ) );
#1202 = PCURVE('',#980,#1203);
#1203 = DEFINITIONAL_REPRESENTATION('',(#1204),#1208);
#1204 = LINE('',#1205,#1206);
#1205 = CARTESIAN_POINT('',(-0.,0.));
#1206 = VECTOR('',#1207,1.);
#1207 = DIRECTION('',(-1.,0.));
#1208 = ( GEOMETRIC_REPRESENTATION_CONTEXT(2) 
PARAMETRIC_REPRESENTATION_CONTEXT() REPRESENTATION_CONTEXT('2D SPACE',''
  ) );
#1209 = ORIENTED_EDGE('',*,*,#940,.F.);
#1210 = ORIENTED_EDGE('',*,*,#1211,.F.);
#1211 = EDGE_CURVE('',#827,#911,#1212,.T.);
#1212 = SURFACE_CURVE('',#1213,(#1218,#1225),.PCURVE_S1.);
#1213 = CIRCLE('',#1214,2.75);
#1214 = AXIS2_PLACEMENT_3D('',#1215,#1216,#1217);
#1215 = CARTESIAN_POINT('',(0.,0.,2.13));
#1216 = DIRECTION('',(0.,-0.,1.));
#1217 = DIRECTION('',(1.,1.71983639451E-16,0.));
#1218 = PCURVE('',#495,#1219);
#1219 = DEFINITIONAL_REPRESENTATION('',(#1220),#1224);
#1220 = CIRCLE('',#1221,2.75);
#1221 = AXIS2_PLACEMENT_2D('',#1222,#1223);
#1222 = CARTESIAN_POINT('',(0.,0.));
#1223 = DIRECTION('',(1.,-0.));
#1224 = ( GEOMETRIC_REPRESENTATION_CONTEXT(2) 
PARAMETRIC_REPRESENTATION_CONTEXT() REPRESENTATION_CONTEXT('2D SPACE',''
  ) );
#1225 = PCURVE('',#866,#1226);
#1226 = DEFINITIONAL_REPRESENTATION('',(#1227),#1231);
#1227 = LINE('',#1228,#1229);
#1228 = CARTESIAN_POINT('',(-0.,0.));
#1229 = VECTOR('',#1230,1.);
#1230 = DIRECTION('',(-1.,0.));
#1231 = ( GEOMETRIC_REPRESENTATION_CONTEXT(2) 
PARAMETRIC_REPRESENTATION_CONTEXT() REPRESENTATION_CONTEXT('2D SPACE',''
  ) );
#1232 = ORIENTED_EDGE('',*,*,#826,.F.);
#1233 = ORIENTED_EDGE('',*,*,#1234,.F.);
#1234 = EDGE_CURVE('',#713,#797,#1235,.T.);
#1235 = SURFACE_CURVE('',#1236,(#1241,#1248),.PCURVE_S1.);
#1236 = CIRCLE('',#1237,2.75);
#1237 = AXIS2_PLACEMENT_3D('',#1238,#1239,#1240);
#1238 = CARTESIAN_POINT('',(0.,0.,2.13));
#1239 = DIRECTION('',(0.,-0.,1.));
#1240 = DIRECTION('',(1.,1.71983639451E-16,0.));
#1241 = PCURVE('',#495,#1242);
#1242 = DEFINITIONAL_REPRESENTATION('',(#1243),#1247);
#1243 = CIRCLE('',#1244,2.75);
#1244 = AXIS2_PLACEMENT_2D('',#1245,#1246);
#1245 = CARTESIAN_POINT('',(0.,0.));
#1246 = DIRECTION('',(1.,-0.));
#1247 = ( GEOMETRIC_REPRESENTATION_CONTEXT(2) 
PARAMETRIC_REPRESENTATION_CONTEXT() REPRESENTATION_CONTEXT('2D SPACE',''
  ) );
#1248 = PCURVE('',#752,#1249);
#1249 = DEFINITIONAL_REPRESENTATION('',(#1250),#1254);
#1250 = LINE('',#1251,#1252);
#1251 = CARTESIAN_POINT('',(-0.,0.));
#1252 = VECTOR('',#1253,1.);
#1253 = DIRECTION('',(-1.,0.));
#1254 = ( GEOMETRIC_REPRESENTATION_CONTEXT(2) 
PARAMETRIC_REPRESENTATION_CONTEXT() REPRESENTATION_CONTEXT('2D SPACE',''
  ) );
#1255 = ORIENTED_EDGE('',*,*,#712,.F.);
#1256 = ORIENTED_EDGE('',*,*,#1257,.F.);
#1257 = EDGE_CURVE('',#599,#683,#1258,.T.);
#1258 = SURFACE_CURVE('',#1259,(#1264,#1271),.PCURVE_S1.);
#1259 = CIRCLE('',#1260,2.75);
#1260 = AXIS2_PLACEMENT_3D('',#1261,#1262,#1263);
#1261 = CARTESIAN_POINT('',(0.,0.,2.13));
#1262 = DIRECTION('',(0.,-0.,1.));
#1263 = DIRECTION('',(1.,1.71983639451E-16,0.));
#1264 = PCURVE('',#495,#1265);
#1265 = DEFINITIONAL_REPRESENTATION('',(#1266),#1270);
#1266 = CIRCLE('',#1267,2.75);
#1267 = AXIS2_PLACEMENT_2D('',#1268,#1269);
#1268 = CARTESIAN_POINT('',(0.,0.));
#1269 = DIRECTION('',(1.,-0.));
#1270 = ( GEOMETRIC_REPRESENTATION_CONTEXT(2) 
PARAMETRIC_REPRESENTATION_CONTEXT() REPRESENTATION_CONTEXT('2D SPACE',''
  ) );
#1271 = PCURVE('',#638,#1272);
#1272 = DEFINITIONAL_REPRESENTATION('',(#1273),#1277);
#1273 = LINE('',#1274,#1275);
#1274 = CARTESIAN_POINT('',(-0.,0.));
#1275 = VECTOR('',#1276,1.);
#1276 = DIRECTION('',(-1.,0.));
#1277 = ( GEOMETRIC_REPRESENTATION_CONTEXT(2) 
PARAMETRIC_REPRESENTATION_CONTEXT() REPRESENTATION_CONTEXT('2D SPACE',''
  ) );
#1278 = ORIENTED_EDGE('',*,*,#598,.F.);
#1279 = ORIENTED_EDGE('',*,*,#1115,.F.);
#1280 = ORIENTED_EDGE('',*,*,#479,.F.);
#1281 = ADVANCED_FACE('',(#1282),#461,.T.);
#1282 = FACE_BOUND('',#1283,.F.);
#1283 = EDGE_LOOP('',(#1284,#1305,#1306));
#1284 = ORIENTED_EDGE('',*,*,#1285,.F.);
#1285 = EDGE_CURVE('',#1142,#422,#1286,.T.);
#1286 = SURFACE_CURVE('',#1287,(#1291,#1298),.PCURVE_S1.);
#1287 = LINE('',#1288,#1289);
#1288 = CARTESIAN_POINT('',(2.75,4.729550084903E-16,2.13));
#1289 = VECTOR('',#1290,1.);
#1290 = DIRECTION('',(0.866025403784,-1.110223024625E-16,-0.5));
#1291 = PCURVE('',#461,#1292);
#1292 = DEFINITIONAL_REPRESENTATION('',(#1293),#1297);
#1293 = LINE('',#1294,#1295);
#1294 = CARTESIAN_POINT('',(-0.,0.));
#1295 = VECTOR('',#1296,1.);
#1296 = DIRECTION('',(-0.,1.));
#1297 = ( GEOMETRIC_REPRESENTATION_CONTEXT(2) 
PARAMETRIC_REPRESENTATION_CONTEXT() REPRESENTATION_CONTEXT('2D SPACE',''
  ) );
#1298 = PCURVE('',#1092,#1299);
#1299 = DEFINITIONAL_REPRESENTATION('',(#1300),#1304);
#1300 = LINE('',#1301,#1302);
#1301 = CARTESIAN_POINT('',(-6.28318530718,0.));
#1302 = VECTOR('',#1303,1.);
#1303 = DIRECTION('',(-0.,1.));
#1304 = ( GEOMETRIC_REPRESENTATION_CONTEXT(2) 
PARAMETRIC_REPRESENTATION_CONTEXT() REPRESENTATION_CONTEXT('2D SPACE',''
  ) );
#1305 = ORIENTED_EDGE('',*,*,#1141,.T.);
#1306 = ORIENTED_EDGE('',*,*,#444,.T.);
#1307 = ADVANCED_FACE('',(#1308),#638,.T.);
#1308 = FACE_BOUND('',#1309,.F.);
#1309 = EDGE_LOOP('',(#1310,#1311,#1312));
#1310 = ORIENTED_EDGE('',*,*,#682,.T.);
#1311 = ORIENTED_EDGE('',*,*,#621,.T.);
#1312 = ORIENTED_EDGE('',*,*,#1257,.T.);
#1313 = ADVANCED_FACE('',(#1314),#752,.T.);
#1314 = FACE_BOUND('',#1315,.F.);
#1315 = EDGE_LOOP('',(#1316,#1317,#1318));
#1316 = ORIENTED_EDGE('',*,*,#796,.T.);
#1317 = ORIENTED_EDGE('',*,*,#735,.T.);
#1318 = ORIENTED_EDGE('',*,*,#1234,.T.);
#1319 = ADVANCED_FACE('',(#1320),#866,.T.);
#1320 = FACE_BOUND('',#1321,.F.);
#1321 = EDGE_LOOP('',(#1322,#1323,#1324));
#1322 = ORIENTED_EDGE('',*,*,#910,.T.);
#1323 = ORIENTED_EDGE('',*,*,#849,.T.);
#1324 = ORIENTED_EDGE('',*,*,#1211,.T.);
#1325 = ADVANCED_FACE('',(#1326),#980,.T.);
#1326 = FACE_BOUND('',#1327,.F.);
#1327 = EDGE_LOOP('',(#1328,#1329,#1330));
#1328 = ORIENTED_EDGE('',*,*,#1188,.T.);
#1329 = ORIENTED_EDGE('',*,*,#1024,.T.);
#1330 = ORIENTED_EDGE('',*,*,#963,.T.);
#1331 = ADVANCED_FACE('',(#1332),#1092,.T.);
#1332 = FACE_BOUND('',#1333,.F.);
#1333 = EDGE_LOOP('',(#1334,#1335,#1336));
#1334 = ORIENTED_EDGE('',*,*,#1165,.T.);
#1335 = ORIENTED_EDGE('',*,*,#1285,.T.);
#1336 = ORIENTED_EDGE('',*,*,#1077,.T.);
#1337 = ( GEOMETRIC_REPRESENTATION_CONTEXT(3) 
GLOBAL_UNCERTAINTY_ASSIGNED_CONTEXT((#1341)) 
GLOBAL_UNIT_ASSIGNED_CONTEXT((#1338,#1339,#1340)) REPRESENTATION_CONTEXT
('Context #1','3D Context with UNIT and UNCERTAINTY') );
#1338 = ( LENGTH_UNIT() NAMED_UNIT(*) SI_UNIT(.MILLI.,.METRE.) );
#1339 = ( NAMED_UNIT(*) PLANE_ANGLE_UNIT() SI_UNIT($,.RADIAN.) );
#1340 = ( NAMED_UNIT(*) SI_UNIT($,.STERADIAN.) SOLID_ANGLE_UNIT() );
#1341 = UNCERTAINTY_MEASURE_WITH_UNIT(LENGTH_MEASURE(1.E-07),#1338,
  'distance_accuracy_value','confusion accuracy');
#1342 = PRODUCT_RELATED_PRODUCT_CATEGORY('part',$,(#7));
#1343 = MECHANICAL_DESIGN_GEOMETRIC_PRESENTATION_REPRESENTATION('',(
    #1344,#1352,#1359,#1366,#1373,#1380,#1387,#1394,#1401,#1408,#1415,
    #1422,#1429,#1436,#1443,#1450,#1457,#1464,#1471,#1478),#1337);
#1344 = STYLED_ITEM('color',(#1345),#17);
#1345 = PRESENTATION_STYLE_ASSIGNMENT((#1346));
#1346 = SURFACE_STYLE_USAGE(.BOTH.,#1347);
#1347 = SURFACE_SIDE_STYLE('',(#1348));
#1348 = SURFACE_STYLE_FILL_AREA(#1349);
#1349 = FILL_AREA_STYLE('',(#1350));
#1350 = FILL_AREA_STYLE_COLOUR('',#1351);
#1351 = COLOUR_RGB('',0.800000011921,0.800000011921,0.800000011921);
#1352 = STYLED_ITEM('color',(#1353),#54);
#1353 = PRESENTATION_STYLE_ASSIGNMENT((#1354));
#1354 = SURFACE_STYLE_USAGE(.BOTH.,#1355);
#1355 = SURFACE_SIDE_STYLE('',(#1356));
#1356 = SURFACE_STYLE_FILL_AREA(#1357);
#1357 = FILL_AREA_STYLE('',(#1358));
#1358 = FILL_AREA_STYLE_COLOUR('',#1351);
#1359 = STYLED_ITEM('color',(#1360),#109);
#1360 = PRESENTATION_STYLE_ASSIGNMENT((#1361));
#1361 = SURFACE_STYLE_USAGE(.BOTH.,#1362);
#1362 = SURFACE_SIDE_STYLE('',(#1363));
#1363 = SURFACE_STYLE_FILL_AREA(#1364);
#1364 = FILL_AREA_STYLE('',(#1365));
#1365 = FILL_AREA_STYLE_COLOUR('',#1351);
#1366 = STYLED_ITEM('color',(#1367),#164);
#1367 = PRESENTATION_STYLE_ASSIGNMENT((#1368));
#1368 = SURFACE_STYLE_USAGE(.BOTH.,#1369);
#1369 = SURFACE_SIDE_STYLE('',(#1370));
#1370 = SURFACE_STYLE_FILL_AREA(#1371);
#1371 = FILL_AREA_STYLE('',(#1372));
#1372 = FILL_AREA_STYLE_COLOUR('',#1351);
#1373 = STYLED_ITEM('color',(#1374),#199);
#1374 = PRESENTATION_STYLE_ASSIGNMENT((#1375));
#1375 = SURFACE_STYLE_USAGE(.BOTH.,#1376);
#1376 = SURFACE_SIDE_STYLE('',(#1377));
#1377 = SURFACE_STYLE_FILL_AREA(#1378);
#1378 = FILL_AREA_STYLE('',(#1379));
#1379 = FILL_AREA_STYLE_COLOUR('',#1351);
#1380 = STYLED_ITEM('color',(#1381),#254);
#1381 = PRESENTATION_STYLE_ASSIGNMENT((#1382));
#1382 = SURFACE_STYLE_USAGE(.BOTH.,#1383);
#1383 = SURFACE_SIDE_STYLE('',(#1384));
#1384 = SURFACE_STYLE_FILL_AREA(#1385);
#1385 = FILL_AREA_STYLE('',(#1386));
#1386 = FILL_AREA_STYLE_COLOUR('',#1351);
#1387 = STYLED_ITEM('color',(#1388),#416);
#1388 = PRESENTATION_STYLE_ASSIGNMENT((#1389));
#1389 = SURFACE_STYLE_USAGE(.BOTH.,#1390);
#1390 = SURFACE_SIDE_STYLE('',(#1391));
#1391 = SURFACE_STYLE_FILL_AREA(#1392);
#1392 = FILL_AREA_STYLE('',(#1393));
#1393 = FILL_AREA_STYLE_COLOUR('',#1351);
#1394 = STYLED_ITEM('color',(#1395),#562);
#1395 = PRESENTATION_STYLE_ASSIGNMENT((#1396));
#1396 = SURFACE_STYLE_USAGE(.BOTH.,#1397);
#1397 = SURFACE_SIDE_STYLE('',(#1398));
#1398 = SURFACE_STYLE_FILL_AREA(#1399);
#1399 = FILL_AREA_STYLE('',(#1400));
#1400 = FILL_AREA_STYLE_COLOUR('',#1351);
#1401 = STYLED_ITEM('color',(#1402),#676);
#1402 = PRESENTATION_STYLE_ASSIGNMENT((#1403));
#1403 = SURFACE_STYLE_USAGE(.BOTH.,#1404);
#1404 = SURFACE_SIDE_STYLE('',(#1405));
#1405 = SURFACE_STYLE_FILL_AREA(#1406);
#1406 = FILL_AREA_STYLE('',(#1407));
#1407 = FILL_AREA_STYLE_COLOUR('',#1351);
#1408 = STYLED_ITEM('color',(#1409),#790);
#1409 = PRESENTATION_STYLE_ASSIGNMENT((#1410));
#1410 = SURFACE_STYLE_USAGE(.BOTH.,#1411);
#1411 = SURFACE_SIDE_STYLE('',(#1412));
#1412 = SURFACE_STYLE_FILL_AREA(#1413);
#1413 = FILL_AREA_STYLE('',(#1414));
#1414 = FILL_AREA_STYLE_COLOUR('',#1351);
#1415 = STYLED_ITEM('color',(#1416),#904);
#1416 = PRESENTATION_STYLE_ASSIGNMENT((#1417));
#1417 = SURFACE_STYLE_USAGE(.BOTH.,#1418);
#1418 = SURFACE_SIDE_STYLE('',(#1419));
#1419 = SURFACE_STYLE_FILL_AREA(#1420);
#1420 = FILL_AREA_STYLE('',(#1421));
#1421 = FILL_AREA_STYLE_COLOUR('',#1351);
#1422 = STYLED_ITEM('color',(#1423),#1018);
#1423 = PRESENTATION_STYLE_ASSIGNMENT((#1424));
#1424 = SURFACE_STYLE_USAGE(.BOTH.,#1425);
#1425 = SURFACE_SIDE_STYLE('',(#1426));
#1426 = SURFACE_STYLE_FILL_AREA(#1427);
#1427 = FILL_AREA_STYLE('',(#1428));
#1428 = FILL_AREA_STYLE_COLOUR('',#1351);
#1429 = STYLED_ITEM('color',(#1430),#1110);
#1430 = PRESENTATION_STYLE_ASSIGNMENT((#1431));
#1431 = SURFACE_STYLE_USAGE(.BOTH.,#1432);
#1432 = SURFACE_SIDE_STYLE('',(#1433));
#1433 = SURFACE_STYLE_FILL_AREA(#1434);
#1434 = FILL_AREA_STYLE('',(#1435));
#1435 = FILL_AREA_STYLE_COLOUR('',#1351);
#1436 = STYLED_ITEM('color',(#1437),#1137);
#1437 = PRESENTATION_STYLE_ASSIGNMENT((#1438));
#1438 = SURFACE_STYLE_USAGE(.BOTH.,#1439);
#1439 = SURFACE_SIDE_STYLE('',(#1440));
#1440 = SURFACE_STYLE_FILL_AREA(#1441);
#1441 = FILL_AREA_STYLE('',(#1442));
#1442 = FILL_AREA_STYLE_COLOUR('',#1351);
#1443 = STYLED_ITEM('color',(#1444),#1281);
#1444 = PRESENTATION_STYLE_ASSIGNMENT((#1445));
#1445 = SURFACE_STYLE_USAGE(.BOTH.,#1446);
#1446 = SURFACE_SIDE_STYLE('',(#1447));
#1447 = SURFACE_STYLE_FILL_AREA(#1448);
#1448 = FILL_AREA_STYLE('',(#1449));
#1449 = FILL_AREA_STYLE_COLOUR('',#1351);
#1450 = STYLED_ITEM('color',(#1451),#1307);
#1451 = PRESENTATION_STYLE_ASSIGNMENT((#1452));
#1452 = SURFACE_STYLE_USAGE(.BOTH.,#1453);
#1453 = SURFACE_SIDE_STYLE('',(#1454));
#1454 = SURFACE_STYLE_FILL_AREA(#1455);
#1455 = FILL_AREA_STYLE('',(#1456));
#1456 = FILL_AREA_STYLE_COLOUR('',#1351);
#1457 = STYLED_ITEM('color',(#1458),#1313);
#1458 = PRESENTATION_STYLE_ASSIGNMENT((#1459));
#1459 = SURFACE_STYLE_USAGE(.BOTH.,#1460);
#1460 = SURFACE_SIDE_STYLE('',(#1461));
#1461 = SURFACE_STYLE_FILL_AREA(#1462);
#1462 = FILL_AREA_STYLE('',(#1463));
#1463 = FILL_AREA_STYLE_COLOUR('',#1351);
#1464 = STYLED_ITEM('color',(#1465),#1319);
#1465 = PRESENTATION_STYLE_ASSIGNMENT((#1466));
#1466 = SURFACE_STYLE_USAGE(.BOTH.,#1467);
#1467 = SURFACE_SIDE_STYLE('',(#1468));
#1468 = SURFACE_STYLE_FILL_AREA(#1469);
#1469 = FILL_AREA_STYLE('',(#1470));
#1470 = FILL_AREA_STYLE_COLOUR('',#1351);
#1471 = STYLED_ITEM('color',(#1472),#1325);
#1472 = PRESENTATION_STYLE_ASSIGNMENT((#1473));
#1473 = SURFACE_STYLE_USAGE(.BOTH.,#1474);
#1474 = SURFACE_SIDE_STYLE('',(#1475));
#1475 = SURFACE_STYLE_FILL_AREA(#1476);
#1476 = FILL_AREA_STYLE('',(#1477));
#1477 = FILL_AREA_STYLE_COLOUR('',#1351);
#1478 = STYLED_ITEM('color',(#1479),#1331);
#1479 = PRESENTATION_STYLE_ASSIGNMENT((#1480));
#1480 = SURFACE_STYLE_USAGE(.BOTH.,#1481);
#1481 = SURFACE_SIDE_STYLE('',(#1482));
#1482 = SURFACE_STYLE_FILL_AREA(#1483);
#1483 = FILL_AREA_STYLE('',(#1484));
#1484 = FILL_AREA_STYLE_COLOUR('',#1351);
ENDSEC;
END-ISO-10303-21;
