ISO-10303-21;
HEADER;
/* Generated by software containing ST-Developer
 * from STEP Tools, Inc. (www.steptools.com) 
 */

FILE_DESCRIPTION(
/* description */ (''),
/* implementation_level */ '2;1');

FILE_NAME(
/* name */ 
'C:/Users/Danillo/Desktop/GRABCAD/Hex nuts/Nylon Insert Lock Nut M5 v2.
step',
/* time_stamp */ '2020-07-02T13:28:54+01:00',
/* author */ (''),
/* organization */ (''),
/* preprocessor_version */ 'ST-DEVELOPER v18.1',
/* originating_system */ 'Autodesk Translation Framework v9.3.0.1241',
/* authorisation */ '');

FILE_SCHEMA (('AUTOMOTIVE_DESIGN { 1 0 10303 214 3 1 1 }'));
ENDSEC;

DATA;
#10=MECHANICAL_DESIGN_GEOMETRIC_PRESENTATION_REPRESENTATION('',(#13),#714);
#11=SHAPE_REPRESENTATION_RELATIONSHIP('SRR','None',#721,#12);
#12=ADVANCED_BREP_SHAPE_REPRESENTATION('',(#14),#713);
#13=STYLED_ITEM('',(#731),#14);
#14=MANIFOLD_SOLID_BREP('Body1',#384);
#15=FACE_BOUND('',#109,.T.);
#16=FACE_BOUND('',#111,.T.);
#17=FACE_BOUND('',#113,.T.);
#18=FACE_BOUND('',#115,.T.);
#19=PLANE('',#435);
#20=PLANE('',#436);
#21=PLANE('',#437);
#22=PLANE('',#438);
#23=PLANE('',#439);
#24=PLANE('',#440);
#25=PLANE('',#441);
#26=PLANE('',#442);
#27=PLANE('',#443);
#28=PLANE('',#444);
#29=(
BOUNDED_CURVE()
B_SPLINE_CURVE(2,(#589,#590,#591),.UNSPECIFIED.,.F.,.F.)
B_SPLINE_CURVE_WITH_KNOTS((3,3),(1.54385721463075,2.08663313171026),
 .UNSPECIFIED.)
CURVE()
GEOMETRIC_REPRESENTATION_ITEM()
RATIONAL_B_SPLINE_CURVE((2.38588759737931,2.38588759737931,2.21458857496045))
REPRESENTATION_ITEM('')
);
#30=(
BOUNDED_CURVE()
B_SPLINE_CURVE(2,(#592,#593,#594),.UNSPECIFIED.,.F.,.F.)
B_SPLINE_CURVE_WITH_KNOTS((3,3),(1.00108129755125,1.54385721463076),
 .UNSPECIFIED.)
CURVE()
GEOMETRIC_REPRESENTATION_ITEM()
RATIONAL_B_SPLINE_CURVE((2.21458857496045,2.38588759737931,2.38588759737931))
REPRESENTATION_ITEM('')
);
#31=(
BOUNDED_CURVE()
B_SPLINE_CURVE(2,(#600,#601,#602),.UNSPECIFIED.,.F.,.F.)
B_SPLINE_CURVE_WITH_KNOTS((3,3),(1.54385721463075,2.08663313171026),
 .UNSPECIFIED.)
CURVE()
GEOMETRIC_REPRESENTATION_ITEM()
RATIONAL_B_SPLINE_CURVE((2.38588759737931,2.38588759737931,2.21458857496045))
REPRESENTATION_ITEM('')
);
#32=(
BOUNDED_CURVE()
B_SPLINE_CURVE(2,(#603,#604,#605),.UNSPECIFIED.,.F.,.F.)
B_SPLINE_CURVE_WITH_KNOTS((3,3),(1.00108129755125,1.54385721463075),
 .UNSPECIFIED.)
CURVE()
GEOMETRIC_REPRESENTATION_ITEM()
RATIONAL_B_SPLINE_CURVE((2.21458857496045,2.38588759737931,2.38588759737931))
REPRESENTATION_ITEM('')
);
#33=(
BOUNDED_CURVE()
B_SPLINE_CURVE(2,(#609,#610,#611),.UNSPECIFIED.,.F.,.F.)
B_SPLINE_CURVE_WITH_KNOTS((3,3),(1.54385721463076,2.08663313171026),
 .UNSPECIFIED.)
CURVE()
GEOMETRIC_REPRESENTATION_ITEM()
RATIONAL_B_SPLINE_CURVE((2.38588759737931,2.38588759737931,2.21458857496045))
REPRESENTATION_ITEM('')
);
#34=(
BOUNDED_CURVE()
B_SPLINE_CURVE(2,(#613,#614,#615),.UNSPECIFIED.,.F.,.F.)
B_SPLINE_CURVE_WITH_KNOTS((3,3),(1.00108129755125,1.54385721463075),
 .UNSPECIFIED.)
CURVE()
GEOMETRIC_REPRESENTATION_ITEM()
RATIONAL_B_SPLINE_CURVE((2.21458857496045,2.38588759737931,2.38588759737931))
REPRESENTATION_ITEM('')
);
#35=(
BOUNDED_CURVE()
B_SPLINE_CURVE(2,(#621,#622,#623),.UNSPECIFIED.,.F.,.F.)
B_SPLINE_CURVE_WITH_KNOTS((3,3),(1.54385721463075,2.08663313171026),
 .UNSPECIFIED.)
CURVE()
GEOMETRIC_REPRESENTATION_ITEM()
RATIONAL_B_SPLINE_CURVE((2.38588759737931,2.38588759737931,2.21458857496045))
REPRESENTATION_ITEM('')
);
#36=(
BOUNDED_CURVE()
B_SPLINE_CURVE(2,(#624,#625,#626),.UNSPECIFIED.,.F.,.F.)
B_SPLINE_CURVE_WITH_KNOTS((3,3),(1.00108129755125,1.54385721463075),
 .UNSPECIFIED.)
CURVE()
GEOMETRIC_REPRESENTATION_ITEM()
RATIONAL_B_SPLINE_CURVE((2.21458857496046,2.38588759737931,2.38588759737931))
REPRESENTATION_ITEM('')
);
#37=(
BOUNDED_CURVE()
B_SPLINE_CURVE(2,(#630,#631,#632),.UNSPECIFIED.,.F.,.F.)
B_SPLINE_CURVE_WITH_KNOTS((3,3),(1.54385721463075,2.08663313171026),
 .UNSPECIFIED.)
CURVE()
GEOMETRIC_REPRESENTATION_ITEM()
RATIONAL_B_SPLINE_CURVE((2.38588759737931,2.38588759737931,2.21458857496046))
REPRESENTATION_ITEM('')
);
#38=(
BOUNDED_CURVE()
B_SPLINE_CURVE(2,(#633,#634,#635),.UNSPECIFIED.,.F.,.F.)
B_SPLINE_CURVE_WITH_KNOTS((3,3),(1.00108129755125,1.54385721463075),
 .UNSPECIFIED.)
CURVE()
GEOMETRIC_REPRESENTATION_ITEM()
RATIONAL_B_SPLINE_CURVE((2.21458857496045,2.38588759737931,2.38588759737931))
REPRESENTATION_ITEM('')
);
#39=(
BOUNDED_CURVE()
B_SPLINE_CURVE(2,(#639,#640,#641),.UNSPECIFIED.,.F.,.F.)
B_SPLINE_CURVE_WITH_KNOTS((3,3),(1.54385721463075,2.08663313171026),
 .UNSPECIFIED.)
CURVE()
GEOMETRIC_REPRESENTATION_ITEM()
RATIONAL_B_SPLINE_CURVE((2.38588759737931,2.38588759737931,2.21458857496046))
REPRESENTATION_ITEM('')
);
#40=(
BOUNDED_CURVE()
B_SPLINE_CURVE(2,(#642,#643,#644),.UNSPECIFIED.,.F.,.F.)
B_SPLINE_CURVE_WITH_KNOTS((3,3),(1.00108129755125,1.54385721463076),
 .UNSPECIFIED.)
CURVE()
GEOMETRIC_REPRESENTATION_ITEM()
RATIONAL_B_SPLINE_CURVE((2.21458857496045,2.38588759737931,2.38588759737931))
REPRESENTATION_ITEM('')
);
#41=(
BOUNDED_CURVE()
B_SPLINE_CURVE(2,(#648,#649,#650),.UNSPECIFIED.,.F.,.F.)
B_SPLINE_CURVE_WITH_KNOTS((3,3),(1.54385721463075,2.08663313171025),
 .UNSPECIFIED.)
CURVE()
GEOMETRIC_REPRESENTATION_ITEM()
RATIONAL_B_SPLINE_CURVE((2.38588759737931,2.38588759737931,2.21458857496045))
REPRESENTATION_ITEM('')
);
#42=(
BOUNDED_CURVE()
B_SPLINE_CURVE(2,(#651,#652,#653),.UNSPECIFIED.,.F.,.F.)
B_SPLINE_CURVE_WITH_KNOTS((3,3),(1.00108129755125,1.54385721463075),
 .UNSPECIFIED.)
CURVE()
GEOMETRIC_REPRESENTATION_ITEM()
RATIONAL_B_SPLINE_CURVE((2.21458857496045,2.38588759737931,2.38588759737931))
REPRESENTATION_ITEM('')
);
#43=(
BOUNDED_CURVE()
B_SPLINE_CURVE(2,(#657,#658,#659),.UNSPECIFIED.,.F.,.F.)
B_SPLINE_CURVE_WITH_KNOTS((3,3),(1.54385721463075,2.08663313171026),
 .UNSPECIFIED.)
CURVE()
GEOMETRIC_REPRESENTATION_ITEM()
RATIONAL_B_SPLINE_CURVE((2.38588759737931,2.38588759737931,2.21458857496046))
REPRESENTATION_ITEM('')
);
#44=(
BOUNDED_CURVE()
B_SPLINE_CURVE(2,(#660,#661,#662),.UNSPECIFIED.,.F.,.F.)
B_SPLINE_CURVE_WITH_KNOTS((3,3),(1.00108129755125,1.54385721463076),
 .UNSPECIFIED.)
CURVE()
GEOMETRIC_REPRESENTATION_ITEM()
RATIONAL_B_SPLINE_CURVE((2.21458857496045,2.38588759737931,2.38588759737931))
REPRESENTATION_ITEM('')
);
#45=(
BOUNDED_CURVE()
B_SPLINE_CURVE(2,(#665,#666,#667),.UNSPECIFIED.,.F.,.F.)
B_SPLINE_CURVE_WITH_KNOTS((3,3),(1.54385721463076,2.08663313171026),
 .UNSPECIFIED.)
CURVE()
GEOMETRIC_REPRESENTATION_ITEM()
RATIONAL_B_SPLINE_CURVE((2.38588759737931,2.38588759737931,2.21458857496045))
REPRESENTATION_ITEM('')
);
#46=(
BOUNDED_CURVE()
B_SPLINE_CURVE(2,(#668,#669,#670),.UNSPECIFIED.,.F.,.F.)
B_SPLINE_CURVE_WITH_KNOTS((3,3),(1.00108129755125,1.54385721463075),
 .UNSPECIFIED.)
CURVE()
GEOMETRIC_REPRESENTATION_ITEM()
RATIONAL_B_SPLINE_CURVE((2.21458857496045,2.38588759737931,2.38588759737931))
REPRESENTATION_ITEM('')
);
#47=(
BOUNDED_CURVE()
B_SPLINE_CURVE(2,(#673,#674,#675),.UNSPECIFIED.,.F.,.F.)
B_SPLINE_CURVE_WITH_KNOTS((3,3),(1.54385721463075,2.08663313171026),
 .UNSPECIFIED.)
CURVE()
GEOMETRIC_REPRESENTATION_ITEM()
RATIONAL_B_SPLINE_CURVE((2.38588759737931,2.38588759737931,2.21458857496045))
REPRESENTATION_ITEM('')
);
#48=(
BOUNDED_CURVE()
B_SPLINE_CURVE(2,(#676,#677,#678),.UNSPECIFIED.,.F.,.F.)
B_SPLINE_CURVE_WITH_KNOTS((3,3),(1.00108129755125,1.54385721463075),
 .UNSPECIFIED.)
CURVE()
GEOMETRIC_REPRESENTATION_ITEM()
RATIONAL_B_SPLINE_CURVE((2.21458857496045,2.38588759737931,2.38588759737931))
REPRESENTATION_ITEM('')
);
#49=(
BOUNDED_CURVE()
B_SPLINE_CURVE(2,(#681,#682,#683),.UNSPECIFIED.,.F.,.F.)
B_SPLINE_CURVE_WITH_KNOTS((3,3),(1.54385721463076,2.08663313171026),
 .UNSPECIFIED.)
CURVE()
GEOMETRIC_REPRESENTATION_ITEM()
RATIONAL_B_SPLINE_CURVE((2.38588759737931,2.38588759737931,2.21458857496045))
REPRESENTATION_ITEM('')
);
#50=(
BOUNDED_CURVE()
B_SPLINE_CURVE(2,(#684,#685,#686),.UNSPECIFIED.,.F.,.F.)
B_SPLINE_CURVE_WITH_KNOTS((3,3),(1.00108129755125,1.54385721463075),
 .UNSPECIFIED.)
CURVE()
GEOMETRIC_REPRESENTATION_ITEM()
RATIONAL_B_SPLINE_CURVE((2.21458857496045,2.38588759737931,2.38588759737931))
REPRESENTATION_ITEM('')
);
#51=(
BOUNDED_CURVE()
B_SPLINE_CURVE(2,(#689,#690,#691),.UNSPECIFIED.,.F.,.F.)
B_SPLINE_CURVE_WITH_KNOTS((3,3),(1.54385721463075,2.08663313171026),
 .UNSPECIFIED.)
CURVE()
GEOMETRIC_REPRESENTATION_ITEM()
RATIONAL_B_SPLINE_CURVE((2.38588759737931,2.38588759737931,2.21458857496045))
REPRESENTATION_ITEM('')
);
#52=(
BOUNDED_CURVE()
B_SPLINE_CURVE(2,(#692,#693,#694),.UNSPECIFIED.,.F.,.F.)
B_SPLINE_CURVE_WITH_KNOTS((3,3),(1.00108129755125,1.54385721463075),
 .UNSPECIFIED.)
CURVE()
GEOMETRIC_REPRESENTATION_ITEM()
RATIONAL_B_SPLINE_CURVE((2.21458857496045,2.38588759737931,2.38588759737931))
REPRESENTATION_ITEM('')
);
#53=CONICAL_SURFACE('',#417,4.75,1.13446401379632);
#54=CONICAL_SURFACE('',#418,3.99999999999999,1.13446401379632);
#55=CONICAL_SURFACE('',#420,3.99999999999999,1.13446401379632);
#56=CONICAL_SURFACE('',#422,3.99999999999999,1.13446401379632);
#57=CONICAL_SURFACE('',#424,3.99999999999999,1.13446401379632);
#58=CONICAL_SURFACE('',#426,3.99999999999999,1.13446401379632);
#59=CONICAL_SURFACE('',#428,3.99999999999999,1.13446401379632);
#60=CONICAL_SURFACE('',#430,4.75,1.13446401379632);
#61=CONICAL_SURFACE('',#431,4.75,1.13446401379632);
#62=CONICAL_SURFACE('',#432,4.75,1.13446401379632);
#63=CONICAL_SURFACE('',#433,4.75,1.13446401379632);
#64=CONICAL_SURFACE('',#434,4.75,1.13446401379632);
#65=TOROIDAL_SURFACE('',#404,3.17,0.83);
#66=FACE_OUTER_BOUND('',#92,.T.);
#67=FACE_OUTER_BOUND('',#93,.T.);
#68=FACE_OUTER_BOUND('',#94,.T.);
#69=FACE_OUTER_BOUND('',#95,.T.);
#70=FACE_OUTER_BOUND('',#96,.T.);
#71=FACE_OUTER_BOUND('',#97,.T.);
#72=FACE_OUTER_BOUND('',#98,.T.);
#73=FACE_OUTER_BOUND('',#99,.T.);
#74=FACE_OUTER_BOUND('',#100,.T.);
#75=FACE_OUTER_BOUND('',#101,.T.);
#76=FACE_OUTER_BOUND('',#102,.T.);
#77=FACE_OUTER_BOUND('',#103,.T.);
#78=FACE_OUTER_BOUND('',#104,.T.);
#79=FACE_OUTER_BOUND('',#105,.T.);
#80=FACE_OUTER_BOUND('',#106,.T.);
#81=FACE_OUTER_BOUND('',#107,.T.);
#82=FACE_OUTER_BOUND('',#108,.T.);
#83=FACE_OUTER_BOUND('',#110,.T.);
#84=FACE_OUTER_BOUND('',#112,.T.);
#85=FACE_OUTER_BOUND('',#114,.T.);
#86=FACE_OUTER_BOUND('',#116,.T.);
#87=FACE_OUTER_BOUND('',#117,.T.);
#88=FACE_OUTER_BOUND('',#118,.T.);
#89=FACE_OUTER_BOUND('',#119,.T.);
#90=FACE_OUTER_BOUND('',#120,.T.);
#91=FACE_OUTER_BOUND('',#121,.T.);
#92=EDGE_LOOP('',(#247,#248,#249,#250));
#93=EDGE_LOOP('',(#251,#252,#253,#254));
#94=EDGE_LOOP('',(#255,#256,#257,#258,#259,#260,#261,#262,#263,#264));
#95=EDGE_LOOP('',(#265,#266,#267,#268));
#96=EDGE_LOOP('',(#269,#270,#271));
#97=EDGE_LOOP('',(#272,#273,#274));
#98=EDGE_LOOP('',(#275,#276,#277));
#99=EDGE_LOOP('',(#278,#279,#280));
#100=EDGE_LOOP('',(#281,#282,#283));
#101=EDGE_LOOP('',(#284,#285,#286));
#102=EDGE_LOOP('',(#287,#288,#289));
#103=EDGE_LOOP('',(#290,#291,#292,#293));
#104=EDGE_LOOP('',(#294,#295,#296));
#105=EDGE_LOOP('',(#297,#298,#299));
#106=EDGE_LOOP('',(#300,#301,#302));
#107=EDGE_LOOP('',(#303,#304,#305));
#108=EDGE_LOOP('',(#306,#307,#308,#309,#310,#311));
#109=EDGE_LOOP('',(#312));
#110=EDGE_LOOP('',(#313));
#111=EDGE_LOOP('',(#314));
#112=EDGE_LOOP('',(#315));
#113=EDGE_LOOP('',(#316));
#114=EDGE_LOOP('',(#317));
#115=EDGE_LOOP('',(#318));
#116=EDGE_LOOP('',(#319,#320,#321,#322,#323,#324));
#117=EDGE_LOOP('',(#325,#326,#327,#328,#329,#330));
#118=EDGE_LOOP('',(#331,#332,#333,#334,#335,#336));
#119=EDGE_LOOP('',(#337,#338,#339,#340,#341,#342));
#120=EDGE_LOOP('',(#343,#344,#345,#346,#347,#348));
#121=EDGE_LOOP('',(#349,#350,#351,#352,#353,#354));
#122=LINE('',#555,#131);
#123=LINE('',#561,#132);
#124=LINE('',#585,#133);
#125=LINE('',#700,#134);
#126=LINE('',#701,#135);
#127=LINE('',#703,#136);
#128=LINE('',#705,#137);
#129=LINE('',#707,#138);
#130=LINE('',#709,#139);
#131=VECTOR('',#451,2.125);
#132=VECTOR('',#458,2.65);
#133=VECTOR('',#485,2.5);
#134=VECTOR('',#534,1000.);
#135=VECTOR('',#535,1000.);
#136=VECTOR('',#538,1000.);
#137=VECTOR('',#541,1000.);
#138=VECTOR('',#544,1000.);
#139=VECTOR('',#547,1000.);
#140=CIRCLE('',#399,2.125);
#141=CIRCLE('',#400,2.125);
#142=CIRCLE('',#402,2.65);
#143=CIRCLE('',#403,2.65);
#144=CIRCLE('',#405,4.);
#145=CIRCLE('',#406,4.);
#146=CIRCLE('',#407,4.);
#147=CIRCLE('',#408,4.);
#148=CIRCLE('',#409,0.83);
#149=CIRCLE('',#410,3.17);
#150=CIRCLE('',#411,4.);
#151=CIRCLE('',#412,4.);
#152=CIRCLE('',#413,4.);
#153=CIRCLE('',#415,2.5);
#154=CIRCLE('',#416,2.5);
#155=CIRCLE('',#419,3.99999999999999);
#156=CIRCLE('',#421,3.99999999999999);
#157=CIRCLE('',#423,3.99999999999999);
#158=CIRCLE('',#425,3.99999999999999);
#159=CIRCLE('',#427,3.99999999999999);
#160=CIRCLE('',#429,3.99999999999999);
#161=VERTEX_POINT('',#552);
#162=VERTEX_POINT('',#554);
#163=VERTEX_POINT('',#558);
#164=VERTEX_POINT('',#560);
#165=VERTEX_POINT('',#564);
#166=VERTEX_POINT('',#565);
#167=VERTEX_POINT('',#567);
#168=VERTEX_POINT('',#569);
#169=VERTEX_POINT('',#571);
#170=VERTEX_POINT('',#573);
#171=VERTEX_POINT('',#576);
#172=VERTEX_POINT('',#578);
#173=VERTEX_POINT('',#582);
#174=VERTEX_POINT('',#584);
#175=VERTEX_POINT('',#588);
#176=VERTEX_POINT('',#596);
#177=VERTEX_POINT('',#597);
#178=VERTEX_POINT('',#599);
#179=VERTEX_POINT('',#607);
#180=VERTEX_POINT('',#608);
#181=VERTEX_POINT('',#612);
#182=VERTEX_POINT('',#618);
#183=VERTEX_POINT('',#620);
#184=VERTEX_POINT('',#629);
#185=VERTEX_POINT('',#637);
#186=VERTEX_POINT('',#638);
#187=VERTEX_POINT('',#647);
#188=VERTEX_POINT('',#656);
#189=VERTEX_POINT('',#664);
#190=VERTEX_POINT('',#672);
#191=VERTEX_POINT('',#680);
#192=VERTEX_POINT('',#688);
#193=EDGE_CURVE('',#161,#161,#140,.T.);
#194=EDGE_CURVE('',#161,#162,#122,.T.);
#195=EDGE_CURVE('',#162,#162,#141,.T.);
#196=EDGE_CURVE('',#163,#163,#142,.T.);
#197=EDGE_CURVE('',#163,#164,#123,.T.);
#198=EDGE_CURVE('',#164,#164,#143,.T.);
#199=EDGE_CURVE('',#165,#166,#144,.T.);
#200=EDGE_CURVE('',#167,#165,#145,.T.);
#201=EDGE_CURVE('',#168,#167,#146,.T.);
#202=EDGE_CURVE('',#169,#168,#147,.T.);
#203=EDGE_CURVE('',#169,#170,#148,.T.);
#204=EDGE_CURVE('',#170,#170,#149,.T.);
#205=EDGE_CURVE('',#171,#169,#150,.T.);
#206=EDGE_CURVE('',#172,#171,#151,.T.);
#207=EDGE_CURVE('',#166,#172,#152,.T.);
#208=EDGE_CURVE('',#173,#173,#153,.T.);
#209=EDGE_CURVE('',#173,#174,#124,.T.);
#210=EDGE_CURVE('',#174,#174,#154,.T.);
#211=EDGE_CURVE('',#166,#175,#29,.T.);
#212=EDGE_CURVE('',#175,#165,#30,.T.);
#213=EDGE_CURVE('',#176,#177,#155,.T.);
#214=EDGE_CURVE('',#176,#178,#31,.T.);
#215=EDGE_CURVE('',#178,#177,#32,.T.);
#216=EDGE_CURVE('',#179,#180,#33,.T.);
#217=EDGE_CURVE('',#180,#181,#34,.T.);
#218=EDGE_CURVE('',#179,#181,#156,.T.);
#219=EDGE_CURVE('',#181,#182,#157,.T.);
#220=EDGE_CURVE('',#181,#183,#35,.T.);
#221=EDGE_CURVE('',#183,#182,#36,.T.);
#222=EDGE_CURVE('',#182,#176,#158,.T.);
#223=EDGE_CURVE('',#182,#184,#37,.T.);
#224=EDGE_CURVE('',#184,#176,#38,.T.);
#225=EDGE_CURVE('',#185,#186,#39,.T.);
#226=EDGE_CURVE('',#186,#179,#40,.T.);
#227=EDGE_CURVE('',#185,#179,#159,.T.);
#228=EDGE_CURVE('',#177,#187,#41,.T.);
#229=EDGE_CURVE('',#187,#185,#42,.T.);
#230=EDGE_CURVE('',#177,#185,#160,.T.);
#231=EDGE_CURVE('',#168,#188,#43,.T.);
#232=EDGE_CURVE('',#188,#171,#44,.T.);
#233=EDGE_CURVE('',#171,#189,#45,.T.);
#234=EDGE_CURVE('',#189,#172,#46,.T.);
#235=EDGE_CURVE('',#172,#190,#47,.T.);
#236=EDGE_CURVE('',#190,#166,#48,.T.);
#237=EDGE_CURVE('',#165,#191,#49,.T.);
#238=EDGE_CURVE('',#191,#167,#50,.T.);
#239=EDGE_CURVE('',#167,#192,#51,.T.);
#240=EDGE_CURVE('',#192,#168,#52,.T.);
#241=EDGE_CURVE('',#189,#184,#125,.T.);
#242=EDGE_CURVE('',#188,#178,#126,.T.);
#243=EDGE_CURVE('',#190,#183,#127,.T.);
#244=EDGE_CURVE('',#175,#180,#128,.T.);
#245=EDGE_CURVE('',#191,#186,#129,.T.);
#246=EDGE_CURVE('',#192,#187,#130,.T.);
#247=ORIENTED_EDGE('',*,*,#193,.F.);
#248=ORIENTED_EDGE('',*,*,#194,.T.);
#249=ORIENTED_EDGE('',*,*,#195,.T.);
#250=ORIENTED_EDGE('',*,*,#194,.F.);
#251=ORIENTED_EDGE('',*,*,#196,.F.);
#252=ORIENTED_EDGE('',*,*,#197,.T.);
#253=ORIENTED_EDGE('',*,*,#198,.T.);
#254=ORIENTED_EDGE('',*,*,#197,.F.);
#255=ORIENTED_EDGE('',*,*,#199,.F.);
#256=ORIENTED_EDGE('',*,*,#200,.F.);
#257=ORIENTED_EDGE('',*,*,#201,.F.);
#258=ORIENTED_EDGE('',*,*,#202,.F.);
#259=ORIENTED_EDGE('',*,*,#203,.T.);
#260=ORIENTED_EDGE('',*,*,#204,.T.);
#261=ORIENTED_EDGE('',*,*,#203,.F.);
#262=ORIENTED_EDGE('',*,*,#205,.F.);
#263=ORIENTED_EDGE('',*,*,#206,.F.);
#264=ORIENTED_EDGE('',*,*,#207,.F.);
#265=ORIENTED_EDGE('',*,*,#208,.F.);
#266=ORIENTED_EDGE('',*,*,#209,.T.);
#267=ORIENTED_EDGE('',*,*,#210,.T.);
#268=ORIENTED_EDGE('',*,*,#209,.F.);
#269=ORIENTED_EDGE('',*,*,#199,.T.);
#270=ORIENTED_EDGE('',*,*,#211,.T.);
#271=ORIENTED_EDGE('',*,*,#212,.T.);
#272=ORIENTED_EDGE('',*,*,#213,.F.);
#273=ORIENTED_EDGE('',*,*,#214,.T.);
#274=ORIENTED_EDGE('',*,*,#215,.T.);
#275=ORIENTED_EDGE('',*,*,#216,.T.);
#276=ORIENTED_EDGE('',*,*,#217,.T.);
#277=ORIENTED_EDGE('',*,*,#218,.F.);
#278=ORIENTED_EDGE('',*,*,#219,.F.);
#279=ORIENTED_EDGE('',*,*,#220,.T.);
#280=ORIENTED_EDGE('',*,*,#221,.T.);
#281=ORIENTED_EDGE('',*,*,#222,.F.);
#282=ORIENTED_EDGE('',*,*,#223,.T.);
#283=ORIENTED_EDGE('',*,*,#224,.T.);
#284=ORIENTED_EDGE('',*,*,#225,.T.);
#285=ORIENTED_EDGE('',*,*,#226,.T.);
#286=ORIENTED_EDGE('',*,*,#227,.F.);
#287=ORIENTED_EDGE('',*,*,#228,.T.);
#288=ORIENTED_EDGE('',*,*,#229,.T.);
#289=ORIENTED_EDGE('',*,*,#230,.F.);
#290=ORIENTED_EDGE('',*,*,#231,.T.);
#291=ORIENTED_EDGE('',*,*,#232,.T.);
#292=ORIENTED_EDGE('',*,*,#205,.T.);
#293=ORIENTED_EDGE('',*,*,#202,.T.);
#294=ORIENTED_EDGE('',*,*,#206,.T.);
#295=ORIENTED_EDGE('',*,*,#233,.T.);
#296=ORIENTED_EDGE('',*,*,#234,.T.);
#297=ORIENTED_EDGE('',*,*,#207,.T.);
#298=ORIENTED_EDGE('',*,*,#235,.T.);
#299=ORIENTED_EDGE('',*,*,#236,.T.);
#300=ORIENTED_EDGE('',*,*,#200,.T.);
#301=ORIENTED_EDGE('',*,*,#237,.T.);
#302=ORIENTED_EDGE('',*,*,#238,.T.);
#303=ORIENTED_EDGE('',*,*,#201,.T.);
#304=ORIENTED_EDGE('',*,*,#239,.T.);
#305=ORIENTED_EDGE('',*,*,#240,.T.);
#306=ORIENTED_EDGE('',*,*,#230,.T.);
#307=ORIENTED_EDGE('',*,*,#227,.T.);
#308=ORIENTED_EDGE('',*,*,#218,.T.);
#309=ORIENTED_EDGE('',*,*,#219,.T.);
#310=ORIENTED_EDGE('',*,*,#222,.T.);
#311=ORIENTED_EDGE('',*,*,#213,.T.);
#312=ORIENTED_EDGE('',*,*,#210,.F.);
#313=ORIENTED_EDGE('',*,*,#204,.F.);
#314=ORIENTED_EDGE('',*,*,#196,.T.);
#315=ORIENTED_EDGE('',*,*,#198,.F.);
#316=ORIENTED_EDGE('',*,*,#193,.T.);
#317=ORIENTED_EDGE('',*,*,#208,.T.);
#318=ORIENTED_EDGE('',*,*,#195,.F.);
#319=ORIENTED_EDGE('',*,*,#241,.F.);
#320=ORIENTED_EDGE('',*,*,#233,.F.);
#321=ORIENTED_EDGE('',*,*,#232,.F.);
#322=ORIENTED_EDGE('',*,*,#242,.T.);
#323=ORIENTED_EDGE('',*,*,#214,.F.);
#324=ORIENTED_EDGE('',*,*,#224,.F.);
#325=ORIENTED_EDGE('',*,*,#243,.F.);
#326=ORIENTED_EDGE('',*,*,#235,.F.);
#327=ORIENTED_EDGE('',*,*,#234,.F.);
#328=ORIENTED_EDGE('',*,*,#241,.T.);
#329=ORIENTED_EDGE('',*,*,#223,.F.);
#330=ORIENTED_EDGE('',*,*,#221,.F.);
#331=ORIENTED_EDGE('',*,*,#244,.F.);
#332=ORIENTED_EDGE('',*,*,#211,.F.);
#333=ORIENTED_EDGE('',*,*,#236,.F.);
#334=ORIENTED_EDGE('',*,*,#243,.T.);
#335=ORIENTED_EDGE('',*,*,#220,.F.);
#336=ORIENTED_EDGE('',*,*,#217,.F.);
#337=ORIENTED_EDGE('',*,*,#245,.F.);
#338=ORIENTED_EDGE('',*,*,#237,.F.);
#339=ORIENTED_EDGE('',*,*,#212,.F.);
#340=ORIENTED_EDGE('',*,*,#244,.T.);
#341=ORIENTED_EDGE('',*,*,#216,.F.);
#342=ORIENTED_EDGE('',*,*,#226,.F.);
#343=ORIENTED_EDGE('',*,*,#246,.F.);
#344=ORIENTED_EDGE('',*,*,#239,.F.);
#345=ORIENTED_EDGE('',*,*,#238,.F.);
#346=ORIENTED_EDGE('',*,*,#245,.T.);
#347=ORIENTED_EDGE('',*,*,#225,.F.);
#348=ORIENTED_EDGE('',*,*,#229,.F.);
#349=ORIENTED_EDGE('',*,*,#242,.F.);
#350=ORIENTED_EDGE('',*,*,#231,.F.);
#351=ORIENTED_EDGE('',*,*,#240,.F.);
#352=ORIENTED_EDGE('',*,*,#246,.T.);
#353=ORIENTED_EDGE('',*,*,#228,.F.);
#354=ORIENTED_EDGE('',*,*,#215,.F.);
#355=CYLINDRICAL_SURFACE('',#398,2.125);
#356=CYLINDRICAL_SURFACE('',#401,2.65);
#357=CYLINDRICAL_SURFACE('',#414,2.5);
#358=ADVANCED_FACE('',(#66),#355,.F.);
#359=ADVANCED_FACE('',(#67),#356,.F.);
#360=ADVANCED_FACE('',(#68),#65,.T.);
#361=ADVANCED_FACE('',(#69),#357,.F.);
#362=ADVANCED_FACE('',(#70),#53,.T.);
#363=ADVANCED_FACE('',(#71),#54,.T.);
#364=ADVANCED_FACE('',(#72),#55,.T.);
#365=ADVANCED_FACE('',(#73),#56,.T.);
#366=ADVANCED_FACE('',(#74),#57,.T.);
#367=ADVANCED_FACE('',(#75),#58,.T.);
#368=ADVANCED_FACE('',(#76),#59,.T.);
#369=ADVANCED_FACE('',(#77),#60,.T.);
#370=ADVANCED_FACE('',(#78),#61,.T.);
#371=ADVANCED_FACE('',(#79),#62,.T.);
#372=ADVANCED_FACE('',(#80),#63,.T.);
#373=ADVANCED_FACE('',(#81),#64,.T.);
#374=ADVANCED_FACE('',(#82,#15),#19,.F.);
#375=ADVANCED_FACE('',(#83,#16),#20,.F.);
#376=ADVANCED_FACE('',(#84,#17),#21,.F.);
#377=ADVANCED_FACE('',(#85,#18),#22,.F.);
#378=ADVANCED_FACE('',(#86),#23,.T.);
#379=ADVANCED_FACE('',(#87),#24,.T.);
#380=ADVANCED_FACE('',(#88),#25,.T.);
#381=ADVANCED_FACE('',(#89),#26,.T.);
#382=ADVANCED_FACE('',(#90),#27,.T.);
#383=ADVANCED_FACE('',(#91),#28,.T.);
#384=CLOSED_SHELL('',(#358,#359,#360,#361,#362,#363,#364,#365,#366,#367,
#368,#369,#370,#371,#372,#373,#374,#375,#376,#377,#378,#379,#380,#381,#382,
#383));
#385=DERIVED_UNIT_ELEMENT(#387,1.);
#386=DERIVED_UNIT_ELEMENT(#716,3.);
#387=(
MASS_UNIT()
NAMED_UNIT(*)
SI_UNIT(.KILO.,.GRAM.)
);
#388=DERIVED_UNIT((#385,#386));
#389=MEASURE_REPRESENTATION_ITEM('density measure',
POSITIVE_RATIO_MEASURE(7850.),#388);
#390=PROPERTY_DEFINITION_REPRESENTATION(#395,#392);
#391=PROPERTY_DEFINITION_REPRESENTATION(#396,#393);
#392=REPRESENTATION('material name',(#394),#713);
#393=REPRESENTATION('density',(#389),#713);
#394=DESCRIPTIVE_REPRESENTATION_ITEM('Steel','Steel');
#395=PROPERTY_DEFINITION('material property','material name',#723);
#396=PROPERTY_DEFINITION('material property','density of part',#723);
#397=AXIS2_PLACEMENT_3D('placement',#550,#445,#446);
#398=AXIS2_PLACEMENT_3D('',#551,#447,#448);
#399=AXIS2_PLACEMENT_3D('',#553,#449,#450);
#400=AXIS2_PLACEMENT_3D('',#556,#452,#453);
#401=AXIS2_PLACEMENT_3D('',#557,#454,#455);
#402=AXIS2_PLACEMENT_3D('',#559,#456,#457);
#403=AXIS2_PLACEMENT_3D('',#562,#459,#460);
#404=AXIS2_PLACEMENT_3D('',#563,#461,#462);
#405=AXIS2_PLACEMENT_3D('',#566,#463,#464);
#406=AXIS2_PLACEMENT_3D('',#568,#465,#466);
#407=AXIS2_PLACEMENT_3D('',#570,#467,#468);
#408=AXIS2_PLACEMENT_3D('',#572,#469,#470);
#409=AXIS2_PLACEMENT_3D('',#574,#471,#472);
#410=AXIS2_PLACEMENT_3D('',#575,#473,#474);
#411=AXIS2_PLACEMENT_3D('',#577,#475,#476);
#412=AXIS2_PLACEMENT_3D('',#579,#477,#478);
#413=AXIS2_PLACEMENT_3D('',#580,#479,#480);
#414=AXIS2_PLACEMENT_3D('',#581,#481,#482);
#415=AXIS2_PLACEMENT_3D('',#583,#483,#484);
#416=AXIS2_PLACEMENT_3D('',#586,#486,#487);
#417=AXIS2_PLACEMENT_3D('',#587,#488,#489);
#418=AXIS2_PLACEMENT_3D('',#595,#490,#491);
#419=AXIS2_PLACEMENT_3D('',#598,#492,#493);
#420=AXIS2_PLACEMENT_3D('',#606,#494,#495);
#421=AXIS2_PLACEMENT_3D('',#616,#496,#497);
#422=AXIS2_PLACEMENT_3D('',#617,#498,#499);
#423=AXIS2_PLACEMENT_3D('',#619,#500,#501);
#424=AXIS2_PLACEMENT_3D('',#627,#502,#503);
#425=AXIS2_PLACEMENT_3D('',#628,#504,#505);
#426=AXIS2_PLACEMENT_3D('',#636,#506,#507);
#427=AXIS2_PLACEMENT_3D('',#645,#508,#509);
#428=AXIS2_PLACEMENT_3D('',#646,#510,#511);
#429=AXIS2_PLACEMENT_3D('',#654,#512,#513);
#430=AXIS2_PLACEMENT_3D('',#655,#514,#515);
#431=AXIS2_PLACEMENT_3D('',#663,#516,#517);
#432=AXIS2_PLACEMENT_3D('',#671,#518,#519);
#433=AXIS2_PLACEMENT_3D('',#679,#520,#521);
#434=AXIS2_PLACEMENT_3D('',#687,#522,#523);
#435=AXIS2_PLACEMENT_3D('',#695,#524,#525);
#436=AXIS2_PLACEMENT_3D('',#696,#526,#527);
#437=AXIS2_PLACEMENT_3D('',#697,#528,#529);
#438=AXIS2_PLACEMENT_3D('',#698,#530,#531);
#439=AXIS2_PLACEMENT_3D('',#699,#532,#533);
#440=AXIS2_PLACEMENT_3D('',#702,#536,#537);
#441=AXIS2_PLACEMENT_3D('',#704,#539,#540);
#442=AXIS2_PLACEMENT_3D('',#706,#542,#543);
#443=AXIS2_PLACEMENT_3D('',#708,#545,#546);
#444=AXIS2_PLACEMENT_3D('',#710,#548,#549);
#445=DIRECTION('axis',(0.,0.,1.));
#446=DIRECTION('refdir',(1.,0.,0.));
#447=DIRECTION('center_axis',(0.,-1.,0.));
#448=DIRECTION('ref_axis',(0.,0.,-1.));
#449=DIRECTION('center_axis',(0.,-1.,0.));
#450=DIRECTION('ref_axis',(0.,0.,-1.));
#451=DIRECTION('',(0.,-1.,0.));
#452=DIRECTION('center_axis',(0.,-1.,0.));
#453=DIRECTION('ref_axis',(0.,0.,-1.));
#454=DIRECTION('center_axis',(0.,-1.,0.));
#455=DIRECTION('ref_axis',(0.,0.,-1.));
#456=DIRECTION('center_axis',(0.,-1.,0.));
#457=DIRECTION('ref_axis',(0.,0.,-1.));
#458=DIRECTION('',(0.,-1.,0.));
#459=DIRECTION('center_axis',(0.,-1.,0.));
#460=DIRECTION('ref_axis',(0.,0.,-1.));
#461=DIRECTION('center_axis',(0.,-1.,0.));
#462=DIRECTION('ref_axis',(0.,0.,-1.));
#463=DIRECTION('center_axis',(0.,-1.,0.));
#464=DIRECTION('ref_axis',(0.,0.,-1.));
#465=DIRECTION('center_axis',(0.,-1.,0.));
#466=DIRECTION('ref_axis',(0.,0.,-1.));
#467=DIRECTION('center_axis',(0.,-1.,0.));
#468=DIRECTION('ref_axis',(0.,0.,-1.));
#469=DIRECTION('center_axis',(0.,-1.,0.));
#470=DIRECTION('ref_axis',(0.,0.,-1.));
#471=DIRECTION('center_axis',(-1.,0.,-1.22464679914735E-16));
#472=DIRECTION('ref_axis',(-1.22464679914735E-16,0.,1.));
#473=DIRECTION('center_axis',(0.,-1.,0.));
#474=DIRECTION('ref_axis',(0.,0.,-1.));
#475=DIRECTION('center_axis',(0.,-1.,0.));
#476=DIRECTION('ref_axis',(0.,0.,-1.));
#477=DIRECTION('center_axis',(0.,-1.,0.));
#478=DIRECTION('ref_axis',(0.,0.,-1.));
#479=DIRECTION('center_axis',(0.,-1.,0.));
#480=DIRECTION('ref_axis',(0.,0.,-1.));
#481=DIRECTION('center_axis',(0.,-1.,0.));
#482=DIRECTION('ref_axis',(0.,0.,-1.));
#483=DIRECTION('center_axis',(0.,-1.,0.));
#484=DIRECTION('ref_axis',(0.,0.,-1.));
#485=DIRECTION('',(0.,-1.,0.));
#486=DIRECTION('center_axis',(0.,-1.,0.));
#487=DIRECTION('ref_axis',(0.,0.,-1.));
#488=DIRECTION('center_axis',(0.,-1.,0.));
#489=DIRECTION('ref_axis',(0.,0.,-1.));
#490=DIRECTION('center_axis',(0.,1.,0.));
#491=DIRECTION('ref_axis',(0.,0.,1.));
#492=DIRECTION('center_axis',(0.,-1.,0.));
#493=DIRECTION('ref_axis',(0.,0.,1.));
#494=DIRECTION('center_axis',(0.,1.,0.));
#495=DIRECTION('ref_axis',(-1.22464679914735E-16,0.,-1.));
#496=DIRECTION('center_axis',(0.,-1.,0.));
#497=DIRECTION('ref_axis',(1.77635683940025E-15,0.,1.));
#498=DIRECTION('center_axis',(0.,1.,0.));
#499=DIRECTION('ref_axis',(0.,0.,1.));
#500=DIRECTION('center_axis',(0.,-1.,0.));
#501=DIRECTION('ref_axis',(0.,0.,1.));
#502=DIRECTION('center_axis',(0.,1.,0.));
#503=DIRECTION('ref_axis',(0.,0.,1.));
#504=DIRECTION('center_axis',(0.,-1.,0.));
#505=DIRECTION('ref_axis',(-1.77635683940025E-15,0.,1.));
#506=DIRECTION('center_axis',(0.,1.,0.));
#507=DIRECTION('ref_axis',(0.,0.,1.));
#508=DIRECTION('center_axis',(0.,-1.,0.));
#509=DIRECTION('ref_axis',(0.,0.,1.));
#510=DIRECTION('center_axis',(0.,1.,0.));
#511=DIRECTION('ref_axis',(0.,0.,1.));
#512=DIRECTION('center_axis',(0.,-1.,0.));
#513=DIRECTION('ref_axis',(0.,0.,1.));
#514=DIRECTION('center_axis',(0.,-1.,0.));
#515=DIRECTION('ref_axis',(-1.22464679914735E-16,0.,1.));
#516=DIRECTION('center_axis',(0.,-1.,0.));
#517=DIRECTION('ref_axis',(0.,0.,-1.));
#518=DIRECTION('center_axis',(0.,-1.,0.));
#519=DIRECTION('ref_axis',(0.,0.,-1.));
#520=DIRECTION('center_axis',(0.,-1.,0.));
#521=DIRECTION('ref_axis',(0.,0.,-1.));
#522=DIRECTION('center_axis',(0.,-1.,0.));
#523=DIRECTION('ref_axis',(0.,0.,-1.));
#524=DIRECTION('center_axis',(0.,1.,0.));
#525=DIRECTION('ref_axis',(0.,0.,1.));
#526=DIRECTION('center_axis',(0.,-1.,0.));
#527=DIRECTION('ref_axis',(0.,0.,-1.));
#528=DIRECTION('center_axis',(0.,-1.,0.));
#529=DIRECTION('ref_axis',(0.,0.,-1.));
#530=DIRECTION('center_axis',(0.,1.,0.));
#531=DIRECTION('ref_axis',(0.,0.,1.));
#532=DIRECTION('center_axis',(0.5,0.,0.866025403784439));
#533=DIRECTION('ref_axis',(0.866025403784439,0.,-0.5));
#534=DIRECTION('',(0.,-1.,0.));
#535=DIRECTION('',(0.,-1.,0.));
#536=DIRECTION('center_axis',(1.,0.,0.));
#537=DIRECTION('ref_axis',(0.,0.,-1.));
#538=DIRECTION('',(0.,-1.,0.));
#539=DIRECTION('center_axis',(0.5,0.,-0.866025403784439));
#540=DIRECTION('ref_axis',(-0.866025403784439,0.,-0.5));
#541=DIRECTION('',(0.,-1.,0.));
#542=DIRECTION('center_axis',(-0.5,0.,-0.866025403784439));
#543=DIRECTION('ref_axis',(-0.866025403784439,0.,0.5));
#544=DIRECTION('',(0.,-1.,0.));
#545=DIRECTION('center_axis',(-1.,0.,0.));
#546=DIRECTION('ref_axis',(0.,0.,1.));
#547=DIRECTION('',(0.,-1.,0.));
#548=DIRECTION('center_axis',(-0.5,0.,0.866025403784439));
#549=DIRECTION('ref_axis',(0.866025403784439,0.,0.5));
#550=CARTESIAN_POINT('',(0.,0.,0.));
#551=CARTESIAN_POINT('Origin',(0.,0.,0.));
#552=CARTESIAN_POINT('',(-2.60237444818813E-16,4.77,2.125));
#553=CARTESIAN_POINT('Origin',(0.,4.77,0.));
#554=CARTESIAN_POINT('',(-2.60237444818813E-16,4.17,2.125));
#555=CARTESIAN_POINT('',(-2.60237444818813E-16,0.,2.125));
#556=CARTESIAN_POINT('Origin',(0.,4.17,0.));
#557=CARTESIAN_POINT('Origin',(0.,0.,0.));
#558=CARTESIAN_POINT('',(-3.24531401774049E-16,5.,2.65));
#559=CARTESIAN_POINT('Origin',(0.,5.,0.));
#560=CARTESIAN_POINT('',(-3.24531401774049E-16,4.77,2.65));
#561=CARTESIAN_POINT('',(-3.24531401774049E-16,0.,2.65));
#562=CARTESIAN_POINT('Origin',(0.,4.77,0.));
#563=CARTESIAN_POINT('Origin',(0.,4.17,0.));
#564=CARTESIAN_POINT('',(-2.,4.17,-3.46410161513776));
#565=CARTESIAN_POINT('',(2.,4.17,-3.46410161513776));
#566=CARTESIAN_POINT('Origin',(0.,4.17,0.));
#567=CARTESIAN_POINT('',(-4.,4.17,-6.73521110506541E-20));
#568=CARTESIAN_POINT('Origin',(0.,4.17,0.));
#569=CARTESIAN_POINT('',(-2.,4.17,3.46410161513776));
#570=CARTESIAN_POINT('Origin',(0.,4.17,0.));
#571=CARTESIAN_POINT('',(-4.89858719658941E-16,4.17,4.));
#572=CARTESIAN_POINT('Origin',(0.,4.17,0.));
#573=CARTESIAN_POINT('',(-3.88213035329711E-16,5.,3.17));
#574=CARTESIAN_POINT('Origin',(-3.88213035329711E-16,4.17,3.17));
#575=CARTESIAN_POINT('Origin',(0.,5.,0.));
#576=CARTESIAN_POINT('',(2.,4.17,3.46410161513776));
#577=CARTESIAN_POINT('Origin',(0.,4.17,0.));
#578=CARTESIAN_POINT('',(4.,4.17,-6.73519595893603E-20));
#579=CARTESIAN_POINT('Origin',(0.,4.17,0.));
#580=CARTESIAN_POINT('Origin',(0.,4.17,0.));
#581=CARTESIAN_POINT('Origin',(0.,0.,0.));
#582=CARTESIAN_POINT('',(-3.06161699786838E-16,4.17,2.5));
#583=CARTESIAN_POINT('Origin',(0.,4.17,0.));
#584=CARTESIAN_POINT('',(-3.06161699786838E-16,0.,2.5));
#585=CARTESIAN_POINT('',(-3.06161699786838E-16,0.,2.5));
#586=CARTESIAN_POINT('Origin',(0.,0.,0.));
#587=CARTESIAN_POINT('Origin',(0.,3.82026925638375,0.));
#588=CARTESIAN_POINT('',(-1.59857788091625E-15,3.88144781693221,-4.61880215351701));
#589=CARTESIAN_POINT('Ctrl Pts',(2.,4.17,-3.46410161513775));
#590=CARTESIAN_POINT('Ctrl Pts',(1.07179676972098,4.17,-4.00000000000203));
#591=CARTESIAN_POINT('Ctrl Pts',(-8.73584491342985E-12,3.88144781692986,
-4.61880215352205));
#592=CARTESIAN_POINT('Ctrl Pts',(8.72942798575494E-12,3.88144781692986,
-4.61880215352205));
#593=CARTESIAN_POINT('Ctrl Pts',(-1.07179676972098,4.17,-4.00000000000203));
#594=CARTESIAN_POINT('Ctrl Pts',(-2.,4.17,-3.46410161513775));
#595=CARTESIAN_POINT('Origin',(0.,0.,0.));
#596=CARTESIAN_POINT('',(2.,0.,3.46410161513776));
#597=CARTESIAN_POINT('',(-2.,0.,3.46410161513776));
#598=CARTESIAN_POINT('Origin',(0.,0.,0.));
#599=CARTESIAN_POINT('',(9.09587494490075E-17,0.288552183067787,4.61880215351701));
#600=CARTESIAN_POINT('Ctrl Pts',(2.00000000000001,4.00183060688354E-15,
3.46410161513775));
#601=CARTESIAN_POINT('Ctrl Pts',(1.07179676972098,3.14135334476148E-15,
4.00000000000203));
#602=CARTESIAN_POINT('Ctrl Pts',(-8.73143327565335E-12,0.288552183070137,
4.61880215352205));
#603=CARTESIAN_POINT('Ctrl Pts',(8.73203486262288E-12,0.288552183070141,
4.61880215352205));
#604=CARTESIAN_POINT('Ctrl Pts',(-1.07179676972098,7.38298311375729E-15,
4.00000000000203));
#605=CARTESIAN_POINT('Ctrl Pts',(-2.,5.86314716822473E-15,3.46410161513776));
#606=CARTESIAN_POINT('Origin',(0.,0.,0.));
#607=CARTESIAN_POINT('',(-2.,0.,-3.46410161513776));
#608=CARTESIAN_POINT('',(-1.59857788091625E-15,0.288552183067787,-4.61880215351701));
#609=CARTESIAN_POINT('Ctrl Pts',(-1.99999999999999,5.77008134015768E-15,
-3.46410161513776));
#610=CARTESIAN_POINT('Ctrl Pts',(-1.07179676972098,7.87890550722967E-15,
-4.00000000000203));
#611=CARTESIAN_POINT('Ctrl Pts',(8.72982904373463E-12,0.28855218307014,
-4.61880215352205));
#612=CARTESIAN_POINT('',(2.,0.,-3.46410161513776));
#613=CARTESIAN_POINT('Ctrl Pts',(-8.7312327466635E-12,0.288552183070138,
-4.61880215352205));
#614=CARTESIAN_POINT('Ctrl Pts',(1.07179676972098,4.32986979603811E-15,
-4.00000000000203));
#615=CARTESIAN_POINT('Ctrl Pts',(2.,4.09489643495059E-15,-3.46410161513776));
#616=CARTESIAN_POINT('Origin',(0.,0.,0.));
#617=CARTESIAN_POINT('Origin',(0.,0.,0.));
#618=CARTESIAN_POINT('',(4.,0.,0.));
#619=CARTESIAN_POINT('Origin',(0.,0.,0.));
#620=CARTESIAN_POINT('',(4.,0.288552183067787,-2.3094010767585));
#621=CARTESIAN_POINT('Ctrl Pts',(2.,4.09489643495059E-15,-3.46410161513776));
#622=CARTESIAN_POINT('Ctrl Pts',(2.92820323027902,3.74815149910912E-15,
-2.92820323027349));
#623=CARTESIAN_POINT('Ctrl Pts',(4.00000000000874,0.288552183070139,-2.30940107675346));
#624=CARTESIAN_POINT('Ctrl Pts',(4.,0.288552183070137,-2.30940107676858));
#625=CARTESIAN_POINT('Ctrl Pts',(4.,3.83026943495679E-15,-1.07179676972854));
#626=CARTESIAN_POINT('Ctrl Pts',(4.,3.35036981041412E-15,-3.35036981041412E-15));
#627=CARTESIAN_POINT('Origin',(0.,0.,0.));
#628=CARTESIAN_POINT('Origin',(0.,0.,0.));
#629=CARTESIAN_POINT('',(4.,0.288552183067787,2.3094010767585));
#630=CARTESIAN_POINT('Ctrl Pts',(4.,3.35036981041412E-15,-3.35036981041412E-15));
#631=CARTESIAN_POINT('Ctrl Pts',(4.,3.03118553808961E-15,1.07179676972854));
#632=CARTESIAN_POINT('Ctrl Pts',(4.,0.288552183070136,2.30940107676858));
#633=CARTESIAN_POINT('Ctrl Pts',(4.00000000000874,0.288552183070139,2.30940107675346));
#634=CARTESIAN_POINT('Ctrl Pts',(2.92820323027902,4.91273688396632E-15,
2.92820323027348));
#635=CARTESIAN_POINT('Ctrl Pts',(2.00000000000001,4.00183060688354E-15,
3.46410161513775));
#636=CARTESIAN_POINT('Origin',(0.,0.,0.));
#637=CARTESIAN_POINT('',(-4.,0.,0.));
#638=CARTESIAN_POINT('',(-4.,0.288552183067787,-2.3094010767585));
#639=CARTESIAN_POINT('Ctrl Pts',(-4.,3.35036981041412E-15,-2.97810649814589E-15));
#640=CARTESIAN_POINT('Ctrl Pts',(-4.,3.73376616948309E-15,-1.07179676972854));
#641=CARTESIAN_POINT('Ctrl Pts',(-4.,0.288552183070137,-2.30940107676858));
#642=CARTESIAN_POINT('Ctrl Pts',(-4.00000000000873,0.288552183070138,-2.30940107675346));
#643=CARTESIAN_POINT('Ctrl Pts',(-2.92820323027901,3.71924713249427E-15,
-2.92820323027349));
#644=CARTESIAN_POINT('Ctrl Pts',(-1.99999999999999,5.77008134015768E-15,
-3.46410161513776));
#645=CARTESIAN_POINT('Origin',(0.,0.,0.));
#646=CARTESIAN_POINT('Origin',(0.,0.,0.));
#647=CARTESIAN_POINT('',(-4.,0.288552183067787,2.3094010767585));
#648=CARTESIAN_POINT('Ctrl Pts',(-2.,5.86314716822473E-15,3.46410161513776));
#649=CARTESIAN_POINT('Ctrl Pts',(-2.92820323027902,4.42634890241497E-15,
2.92820323027349));
#650=CARTESIAN_POINT('Ctrl Pts',(-4.00000000000873,0.288552183070136,2.30940107675347));
#651=CARTESIAN_POINT('Ctrl Pts',(-4.,0.288552183070138,2.30940107676859));
#652=CARTESIAN_POINT('Ctrl Pts',(-4.,3.05311331771918E-15,1.07179676972854));
#653=CARTESIAN_POINT('Ctrl Pts',(-4.,3.35036981041412E-15,-2.97810649814589E-15));
#654=CARTESIAN_POINT('Origin',(0.,0.,0.));
#655=CARTESIAN_POINT('Origin',(0.,3.82026925638375,0.));
#656=CARTESIAN_POINT('',(7.61885070717527E-17,3.88144781693221,4.61880215351701));
#657=CARTESIAN_POINT('Ctrl Pts',(-2.,4.17,3.46410161513775));
#658=CARTESIAN_POINT('Ctrl Pts',(-1.07179676972098,4.17,4.00000000000203));
#659=CARTESIAN_POINT('Ctrl Pts',(8.73243592060254E-12,3.88144781692986,
4.61880215352205));
#660=CARTESIAN_POINT('Ctrl Pts',(-8.73103221767366E-12,3.88144781692986,
4.61880215352205));
#661=CARTESIAN_POINT('Ctrl Pts',(1.07179676972098,4.17,4.00000000000203));
#662=CARTESIAN_POINT('Ctrl Pts',(2.,4.17,3.46410161513775));
#663=CARTESIAN_POINT('Origin',(0.,3.82026925638375,0.));
#664=CARTESIAN_POINT('',(4.,3.88144781693221,2.3094010767585));
#665=CARTESIAN_POINT('Ctrl Pts',(2.,4.17,3.46410161513775));
#666=CARTESIAN_POINT('Ctrl Pts',(2.92820323027902,4.17,2.92820323027348));
#667=CARTESIAN_POINT('Ctrl Pts',(4.00000000000874,3.88144781692986,2.30940107675346));
#668=CARTESIAN_POINT('Ctrl Pts',(4.,3.88144781692986,2.30940107676859));
#669=CARTESIAN_POINT('Ctrl Pts',(4.,4.17,1.07179676972855));
#670=CARTESIAN_POINT('Ctrl Pts',(4.,4.17,5.58394968402354E-15));
#671=CARTESIAN_POINT('Origin',(0.,3.82026925638375,0.));
#672=CARTESIAN_POINT('',(4.,3.88144781693221,-2.3094010767585));
#673=CARTESIAN_POINT('Ctrl Pts',(4.,4.17,5.58394968402354E-15));
#674=CARTESIAN_POINT('Ctrl Pts',(4.,4.17,-1.07179676972854));
#675=CARTESIAN_POINT('Ctrl Pts',(4.,3.88144781692987,-2.30940107676858));
#676=CARTESIAN_POINT('Ctrl Pts',(4.00000000000873,3.88144781692986,-2.30940107675346));
#677=CARTESIAN_POINT('Ctrl Pts',(2.92820323027902,4.17,-2.92820323027348));
#678=CARTESIAN_POINT('Ctrl Pts',(2.,4.17,-3.46410161513775));
#679=CARTESIAN_POINT('Origin',(0.,3.82026925638375,0.));
#680=CARTESIAN_POINT('',(-4.,3.88144781693221,-2.3094010767585));
#681=CARTESIAN_POINT('Ctrl Pts',(-2.,4.17,-3.46410161513775));
#682=CARTESIAN_POINT('Ctrl Pts',(-2.92820323027902,4.17,-2.92820323027348));
#683=CARTESIAN_POINT('Ctrl Pts',(-4.00000000000874,3.88144781692986,-2.30940107675346));
#684=CARTESIAN_POINT('Ctrl Pts',(-4.,3.88144781692986,-2.30940107676859));
#685=CARTESIAN_POINT('Ctrl Pts',(-4.,4.17,-1.07179676972855));
#686=CARTESIAN_POINT('Ctrl Pts',(-4.,4.17,-3.35036981041413E-15));
#687=CARTESIAN_POINT('Origin',(0.,3.82026925638375,0.));
#688=CARTESIAN_POINT('',(-4.,3.88144781693221,2.3094010767585));
#689=CARTESIAN_POINT('Ctrl Pts',(-4.,4.17,-3.35036981041413E-15));
#690=CARTESIAN_POINT('Ctrl Pts',(-4.,4.17,1.07179676972854));
#691=CARTESIAN_POINT('Ctrl Pts',(-4.,3.88144781692986,2.30940107676859));
#692=CARTESIAN_POINT('Ctrl Pts',(-4.00000000000874,3.88144781692986,2.30940107675346));
#693=CARTESIAN_POINT('Ctrl Pts',(-2.92820323027902,4.17,2.92820323027348));
#694=CARTESIAN_POINT('Ctrl Pts',(-2.,4.17,3.46410161513775));
#695=CARTESIAN_POINT('Origin',(-2.5,0.,0.));
#696=CARTESIAN_POINT('Origin',(-3.17,5.,0.));
#697=CARTESIAN_POINT('Origin',(-2.65,4.77,0.));
#698=CARTESIAN_POINT('Origin',(-2.125,4.17,0.));
#699=CARTESIAN_POINT('Origin',(4.,5.,2.3094010767585));
#700=CARTESIAN_POINT('',(4.,5.,2.3094010767585));
#701=CARTESIAN_POINT('',(9.09587494490075E-17,5.,4.61880215351701));
#702=CARTESIAN_POINT('Origin',(4.,5.,-2.3094010767585));
#703=CARTESIAN_POINT('',(4.,5.,-2.3094010767585));
#704=CARTESIAN_POINT('Origin',(-1.59857788091625E-15,5.,-4.61880215351701));
#705=CARTESIAN_POINT('',(-1.59857788091625E-15,5.,-4.61880215351701));
#706=CARTESIAN_POINT('Origin',(-4.,5.,-2.3094010767585));
#707=CARTESIAN_POINT('',(-4.,5.,-2.3094010767585));
#708=CARTESIAN_POINT('Origin',(-4.,5.,2.3094010767585));
#709=CARTESIAN_POINT('',(-4.,5.,2.3094010767585));
#710=CARTESIAN_POINT('Origin',(9.09587494490075E-17,5.,4.61880215351701));
#711=UNCERTAINTY_MEASURE_WITH_UNIT(LENGTH_MEASURE(0.01),#715,
'DISTANCE_ACCURACY_VALUE',
'Maximum model space distance between geometric entities at asserted c
onnectivities');
#712=UNCERTAINTY_MEASURE_WITH_UNIT(LENGTH_MEASURE(0.01),#715,
'DISTANCE_ACCURACY_VALUE',
'Maximum model space distance between geometric entities at asserted c
onnectivities');
#713=(
GEOMETRIC_REPRESENTATION_CONTEXT(3)
GLOBAL_UNCERTAINTY_ASSIGNED_CONTEXT((#711))
GLOBAL_UNIT_ASSIGNED_CONTEXT((#715,#717,#718))
REPRESENTATION_CONTEXT('','3D')
);
#714=(
GEOMETRIC_REPRESENTATION_CONTEXT(3)
GLOBAL_UNCERTAINTY_ASSIGNED_CONTEXT((#712))
GLOBAL_UNIT_ASSIGNED_CONTEXT((#715,#717,#718))
REPRESENTATION_CONTEXT('','3D')
);
#715=(
LENGTH_UNIT()
NAMED_UNIT(*)
SI_UNIT(.MILLI.,.METRE.)
);
#716=(
LENGTH_UNIT()
NAMED_UNIT(*)
SI_UNIT($,.METRE.)
);
#717=(
NAMED_UNIT(*)
PLANE_ANGLE_UNIT()
SI_UNIT($,.RADIAN.)
);
#718=(
NAMED_UNIT(*)
SI_UNIT($,.STERADIAN.)
SOLID_ANGLE_UNIT()
);
#719=SHAPE_DEFINITION_REPRESENTATION(#720,#721);
#720=PRODUCT_DEFINITION_SHAPE('',$,#723);
#721=SHAPE_REPRESENTATION('',(#397),#713);
#722=PRODUCT_DEFINITION_CONTEXT('part definition',#727,'design');
#723=PRODUCT_DEFINITION('Nylon Insert Lock Nut M5',
'Nylon Insert Lock Nut M5 v2',#724,#722);
#724=PRODUCT_DEFINITION_FORMATION('',$,#729);
#725=PRODUCT_RELATED_PRODUCT_CATEGORY('Nylon Insert Lock Nut M5 v2',
'Nylon Insert Lock Nut M5 v2',(#729));
#726=APPLICATION_PROTOCOL_DEFINITION('international standard',
'automotive_design',2009,#727);
#727=APPLICATION_CONTEXT(
'Core Data for Automotive Mechanical Design Process');
#728=PRODUCT_CONTEXT('part definition',#727,'mechanical');
#729=PRODUCT('Nylon Insert Lock Nut M5','Nylon Insert Lock Nut M5 v2',$,
(#728));
#730=PRESENTATION_STYLE_ASSIGNMENT((#732));
#731=PRESENTATION_STYLE_ASSIGNMENT((#733));
#732=SURFACE_STYLE_USAGE(.BOTH.,#734);
#733=SURFACE_STYLE_USAGE(.BOTH.,#735);
#734=SURFACE_SIDE_STYLE('',(#736));
#735=SURFACE_SIDE_STYLE('',(#737));
#736=SURFACE_STYLE_FILL_AREA(#738);
#737=SURFACE_STYLE_FILL_AREA(#739);
#738=FILL_AREA_STYLE('Steel - Satin',(#740));
#739=FILL_AREA_STYLE('Aluminum - Anodized Glossy (Grey)',(#741));
#740=FILL_AREA_STYLE_COLOUR('Steel - Satin',#742);
#741=FILL_AREA_STYLE_COLOUR('Aluminum - Anodized Glossy (Grey)',#743);
#742=COLOUR_RGB('Steel - Satin',0.627450980392157,0.627450980392157,0.627450980392157);
#743=COLOUR_RGB('Aluminum - Anodized Glossy (Grey)',0.,0.,0.);
ENDSEC;
END-ISO-10303-21;
