ISO-10303-21;
HEADER;
/* Generated by software containing ST-Developer
 * from STEP Tools, Inc. (www.steptools.com) 
 */

FILE_DESCRIPTION(
/* description */ (''),
/* implementation_level */ '2;1');

FILE_NAME(
/* name */ 
'C:/Users/Danillo/Desktop/GRABCAD/Hex nuts/M5 hex nut v1.step',
/* time_stamp */ '2020-07-02T13:28:48+01:00',
/* author */ (''),
/* organization */ (''),
/* preprocessor_version */ 'ST-DEVELOPER v18.1',
/* originating_system */ 'Autodesk Translation Framework v9.3.0.1241',
/* authorisation */ '');

FILE_SCHEMA (('AUTOMOTIVE_DESIGN { 1 0 10303 214 3 1 1 }'));
ENDSEC;

DATA;
#10=MECHANICAL_DESIGN_GEOMETRIC_PRESENTATION_REPRESENTATION('',(#13),#588);
#11=SHAPE_REPRESENTATION_RELATIONSHIP('SRR','None',#595,#12);
#12=ADVANCED_BREP_SHAPE_REPRESENTATION('',(#14),#587);
#13=STYLED_ITEM('',(#604),#14);
#14=MANIFOLD_SOLID_BREP('Body1',#316);
#15=(
BOUNDED_CURVE()
B_SPLINE_CURVE(2,(#466,#467,#468),.UNSPECIFIED.,.F.,.F.)
B_SPLINE_CURVE_WITH_KNOTS((3,3),(1.54385721463075,2.08663313171026),
 .UNSPECIFIED.)
CURVE()
GEOMETRIC_REPRESENTATION_ITEM()
RATIONAL_B_SPLINE_CURVE((2.38588759737931,2.38588759737931,2.21458857496045))
REPRESENTATION_ITEM('')
);
#16=(
BOUNDED_CURVE()
B_SPLINE_CURVE(2,(#469,#470,#471),.UNSPECIFIED.,.F.,.F.)
B_SPLINE_CURVE_WITH_KNOTS((3,3),(1.00108129755125,1.54385721463076),
 .UNSPECIFIED.)
CURVE()
GEOMETRIC_REPRESENTATION_ITEM()
RATIONAL_B_SPLINE_CURVE((2.21458857496045,2.38588759737931,2.38588759737931))
REPRESENTATION_ITEM('')
);
#17=(
BOUNDED_CURVE()
B_SPLINE_CURVE(2,(#477,#478,#479),.UNSPECIFIED.,.F.,.F.)
B_SPLINE_CURVE_WITH_KNOTS((3,3),(1.54385721463075,2.08663313171026),
 .UNSPECIFIED.)
CURVE()
GEOMETRIC_REPRESENTATION_ITEM()
RATIONAL_B_SPLINE_CURVE((2.38588759737931,2.38588759737931,2.21458857496045))
REPRESENTATION_ITEM('')
);
#18=(
BOUNDED_CURVE()
B_SPLINE_CURVE(2,(#480,#481,#482),.UNSPECIFIED.,.F.,.F.)
B_SPLINE_CURVE_WITH_KNOTS((3,3),(1.00108129755125,1.54385721463075),
 .UNSPECIFIED.)
CURVE()
GEOMETRIC_REPRESENTATION_ITEM()
RATIONAL_B_SPLINE_CURVE((2.21458857496045,2.38588759737931,2.38588759737931))
REPRESENTATION_ITEM('')
);
#19=(
BOUNDED_CURVE()
B_SPLINE_CURVE(2,(#486,#487,#488),.UNSPECIFIED.,.F.,.F.)
B_SPLINE_CURVE_WITH_KNOTS((3,3),(1.54385721463076,2.08663313171026),
 .UNSPECIFIED.)
CURVE()
GEOMETRIC_REPRESENTATION_ITEM()
RATIONAL_B_SPLINE_CURVE((2.38588759737931,2.38588759737931,2.21458857496045))
REPRESENTATION_ITEM('')
);
#20=(
BOUNDED_CURVE()
B_SPLINE_CURVE(2,(#490,#491,#492),.UNSPECIFIED.,.F.,.F.)
B_SPLINE_CURVE_WITH_KNOTS((3,3),(1.00108129755125,1.54385721463075),
 .UNSPECIFIED.)
CURVE()
GEOMETRIC_REPRESENTATION_ITEM()
RATIONAL_B_SPLINE_CURVE((2.21458857496045,2.38588759737931,2.38588759737931))
REPRESENTATION_ITEM('')
);
#21=(
BOUNDED_CURVE()
B_SPLINE_CURVE(2,(#498,#499,#500),.UNSPECIFIED.,.F.,.F.)
B_SPLINE_CURVE_WITH_KNOTS((3,3),(1.54385721463075,2.08663313171026),
 .UNSPECIFIED.)
CURVE()
GEOMETRIC_REPRESENTATION_ITEM()
RATIONAL_B_SPLINE_CURVE((2.38588759737931,2.38588759737931,2.21458857496045))
REPRESENTATION_ITEM('')
);
#22=(
BOUNDED_CURVE()
B_SPLINE_CURVE(2,(#501,#502,#503),.UNSPECIFIED.,.F.,.F.)
B_SPLINE_CURVE_WITH_KNOTS((3,3),(1.00108129755125,1.54385721463075),
 .UNSPECIFIED.)
CURVE()
GEOMETRIC_REPRESENTATION_ITEM()
RATIONAL_B_SPLINE_CURVE((2.21458857496046,2.38588759737931,2.38588759737931))
REPRESENTATION_ITEM('')
);
#23=(
BOUNDED_CURVE()
B_SPLINE_CURVE(2,(#507,#508,#509),.UNSPECIFIED.,.F.,.F.)
B_SPLINE_CURVE_WITH_KNOTS((3,3),(1.54385721463075,2.08663313171026),
 .UNSPECIFIED.)
CURVE()
GEOMETRIC_REPRESENTATION_ITEM()
RATIONAL_B_SPLINE_CURVE((2.38588759737931,2.38588759737931,2.21458857496046))
REPRESENTATION_ITEM('')
);
#24=(
BOUNDED_CURVE()
B_SPLINE_CURVE(2,(#510,#511,#512),.UNSPECIFIED.,.F.,.F.)
B_SPLINE_CURVE_WITH_KNOTS((3,3),(1.00108129755125,1.54385721463075),
 .UNSPECIFIED.)
CURVE()
GEOMETRIC_REPRESENTATION_ITEM()
RATIONAL_B_SPLINE_CURVE((2.21458857496045,2.38588759737931,2.38588759737931))
REPRESENTATION_ITEM('')
);
#25=(
BOUNDED_CURVE()
B_SPLINE_CURVE(2,(#516,#517,#518),.UNSPECIFIED.,.F.,.F.)
B_SPLINE_CURVE_WITH_KNOTS((3,3),(1.54385721463075,2.08663313171026),
 .UNSPECIFIED.)
CURVE()
GEOMETRIC_REPRESENTATION_ITEM()
RATIONAL_B_SPLINE_CURVE((2.38588759737931,2.38588759737931,2.21458857496046))
REPRESENTATION_ITEM('')
);
#26=(
BOUNDED_CURVE()
B_SPLINE_CURVE(2,(#519,#520,#521),.UNSPECIFIED.,.F.,.F.)
B_SPLINE_CURVE_WITH_KNOTS((3,3),(1.00108129755125,1.54385721463076),
 .UNSPECIFIED.)
CURVE()
GEOMETRIC_REPRESENTATION_ITEM()
RATIONAL_B_SPLINE_CURVE((2.21458857496045,2.38588759737931,2.38588759737931))
REPRESENTATION_ITEM('')
);
#27=(
BOUNDED_CURVE()
B_SPLINE_CURVE(2,(#525,#526,#527),.UNSPECIFIED.,.F.,.F.)
B_SPLINE_CURVE_WITH_KNOTS((3,3),(1.54385721463075,2.08663313171025),
 .UNSPECIFIED.)
CURVE()
GEOMETRIC_REPRESENTATION_ITEM()
RATIONAL_B_SPLINE_CURVE((2.38588759737931,2.38588759737931,2.21458857496045))
REPRESENTATION_ITEM('')
);
#28=(
BOUNDED_CURVE()
B_SPLINE_CURVE(2,(#528,#529,#530),.UNSPECIFIED.,.F.,.F.)
B_SPLINE_CURVE_WITH_KNOTS((3,3),(1.00108129755125,1.54385721463075),
 .UNSPECIFIED.)
CURVE()
GEOMETRIC_REPRESENTATION_ITEM()
RATIONAL_B_SPLINE_CURVE((2.21458857496045,2.38588759737931,2.38588759737931))
REPRESENTATION_ITEM('')
);
#29=(
BOUNDED_CURVE()
B_SPLINE_CURVE(2,(#534,#535,#536),.UNSPECIFIED.,.F.,.F.)
B_SPLINE_CURVE_WITH_KNOTS((3,3),(1.54385721463075,2.08663313171026),
 .UNSPECIFIED.)
CURVE()
GEOMETRIC_REPRESENTATION_ITEM()
RATIONAL_B_SPLINE_CURVE((2.38588759737931,2.38588759737931,2.21458857496046))
REPRESENTATION_ITEM('')
);
#30=(
BOUNDED_CURVE()
B_SPLINE_CURVE(2,(#537,#538,#539),.UNSPECIFIED.,.F.,.F.)
B_SPLINE_CURVE_WITH_KNOTS((3,3),(1.00108129755125,1.54385721463076),
 .UNSPECIFIED.)
CURVE()
GEOMETRIC_REPRESENTATION_ITEM()
RATIONAL_B_SPLINE_CURVE((2.21458857496045,2.38588759737931,2.38588759737931))
REPRESENTATION_ITEM('')
);
#31=(
BOUNDED_CURVE()
B_SPLINE_CURVE(2,(#542,#543,#544),.UNSPECIFIED.,.F.,.F.)
B_SPLINE_CURVE_WITH_KNOTS((3,3),(1.54385721463076,2.08663313171026),
 .UNSPECIFIED.)
CURVE()
GEOMETRIC_REPRESENTATION_ITEM()
RATIONAL_B_SPLINE_CURVE((2.38588759737931,2.38588759737931,2.21458857496045))
REPRESENTATION_ITEM('')
);
#32=(
BOUNDED_CURVE()
B_SPLINE_CURVE(2,(#545,#546,#547),.UNSPECIFIED.,.F.,.F.)
B_SPLINE_CURVE_WITH_KNOTS((3,3),(1.00108129755125,1.54385721463075),
 .UNSPECIFIED.)
CURVE()
GEOMETRIC_REPRESENTATION_ITEM()
RATIONAL_B_SPLINE_CURVE((2.21458857496045,2.38588759737931,2.38588759737931))
REPRESENTATION_ITEM('')
);
#33=(
BOUNDED_CURVE()
B_SPLINE_CURVE(2,(#550,#551,#552),.UNSPECIFIED.,.F.,.F.)
B_SPLINE_CURVE_WITH_KNOTS((3,3),(1.54385721463075,2.08663313171026),
 .UNSPECIFIED.)
CURVE()
GEOMETRIC_REPRESENTATION_ITEM()
RATIONAL_B_SPLINE_CURVE((2.38588759737931,2.38588759737931,2.21458857496045))
REPRESENTATION_ITEM('')
);
#34=(
BOUNDED_CURVE()
B_SPLINE_CURVE(2,(#553,#554,#555),.UNSPECIFIED.,.F.,.F.)
B_SPLINE_CURVE_WITH_KNOTS((3,3),(1.00108129755125,1.54385721463075),
 .UNSPECIFIED.)
CURVE()
GEOMETRIC_REPRESENTATION_ITEM()
RATIONAL_B_SPLINE_CURVE((2.21458857496045,2.38588759737931,2.38588759737931))
REPRESENTATION_ITEM('')
);
#35=(
BOUNDED_CURVE()
B_SPLINE_CURVE(2,(#558,#559,#560),.UNSPECIFIED.,.F.,.F.)
B_SPLINE_CURVE_WITH_KNOTS((3,3),(1.54385721463076,2.08663313171026),
 .UNSPECIFIED.)
CURVE()
GEOMETRIC_REPRESENTATION_ITEM()
RATIONAL_B_SPLINE_CURVE((2.38588759737931,2.38588759737931,2.21458857496045))
REPRESENTATION_ITEM('')
);
#36=(
BOUNDED_CURVE()
B_SPLINE_CURVE(2,(#561,#562,#563),.UNSPECIFIED.,.F.,.F.)
B_SPLINE_CURVE_WITH_KNOTS((3,3),(1.00108129755125,1.54385721463075),
 .UNSPECIFIED.)
CURVE()
GEOMETRIC_REPRESENTATION_ITEM()
RATIONAL_B_SPLINE_CURVE((2.21458857496045,2.38588759737931,2.38588759737931))
REPRESENTATION_ITEM('')
);
#37=(
BOUNDED_CURVE()
B_SPLINE_CURVE(2,(#566,#567,#568),.UNSPECIFIED.,.F.,.F.)
B_SPLINE_CURVE_WITH_KNOTS((3,3),(1.54385721463075,2.08663313171026),
 .UNSPECIFIED.)
CURVE()
GEOMETRIC_REPRESENTATION_ITEM()
RATIONAL_B_SPLINE_CURVE((2.38588759737931,2.38588759737931,2.21458857496045))
REPRESENTATION_ITEM('')
);
#38=(
BOUNDED_CURVE()
B_SPLINE_CURVE(2,(#569,#570,#571),.UNSPECIFIED.,.F.,.F.)
B_SPLINE_CURVE_WITH_KNOTS((3,3),(1.00108129755125,1.54385721463075),
 .UNSPECIFIED.)
CURVE()
GEOMETRIC_REPRESENTATION_ITEM()
RATIONAL_B_SPLINE_CURVE((2.21458857496045,2.38588759737931,2.38588759737931))
REPRESENTATION_ITEM('')
);
#39=CONICAL_SURFACE('',#340,4.75,1.13446401379632);
#40=CONICAL_SURFACE('',#341,3.99999999999999,1.13446401379632);
#41=CONICAL_SURFACE('',#343,3.99999999999999,1.13446401379632);
#42=CONICAL_SURFACE('',#345,3.99999999999999,1.13446401379632);
#43=CONICAL_SURFACE('',#347,3.99999999999999,1.13446401379632);
#44=CONICAL_SURFACE('',#349,3.99999999999999,1.13446401379632);
#45=CONICAL_SURFACE('',#351,3.99999999999999,1.13446401379632);
#46=CONICAL_SURFACE('',#353,4.75,1.13446401379632);
#47=CONICAL_SURFACE('',#354,4.75,1.13446401379632);
#48=CONICAL_SURFACE('',#355,4.75,1.13446401379632);
#49=CONICAL_SURFACE('',#356,4.75,1.13446401379632);
#50=CONICAL_SURFACE('',#357,4.75,1.13446401379632);
#51=LINE('',#462,#58);
#52=LINE('',#574,#59);
#53=LINE('',#575,#60);
#54=LINE('',#577,#61);
#55=LINE('',#579,#62);
#56=LINE('',#581,#63);
#57=LINE('',#583,#64);
#58=VECTOR('',#385,2.5);
#59=VECTOR('',#428,1000.);
#60=VECTOR('',#429,1000.);
#61=VECTOR('',#432,1000.);
#62=VECTOR('',#435,1000.);
#63=VECTOR('',#438,1000.);
#64=VECTOR('',#441,1000.);
#65=CYLINDRICAL_SURFACE('',#338,2.5);
#66=FACE_BOUND('',#90,.T.);
#67=FACE_BOUND('',#105,.T.);
#68=FACE_OUTER_BOUND('',#89,.T.);
#69=FACE_OUTER_BOUND('',#91,.T.);
#70=FACE_OUTER_BOUND('',#92,.T.);
#71=FACE_OUTER_BOUND('',#93,.T.);
#72=FACE_OUTER_BOUND('',#94,.T.);
#73=FACE_OUTER_BOUND('',#95,.T.);
#74=FACE_OUTER_BOUND('',#96,.T.);
#75=FACE_OUTER_BOUND('',#97,.T.);
#76=FACE_OUTER_BOUND('',#98,.T.);
#77=FACE_OUTER_BOUND('',#99,.T.);
#78=FACE_OUTER_BOUND('',#100,.T.);
#79=FACE_OUTER_BOUND('',#101,.T.);
#80=FACE_OUTER_BOUND('',#102,.T.);
#81=FACE_OUTER_BOUND('',#103,.T.);
#82=FACE_OUTER_BOUND('',#104,.T.);
#83=FACE_OUTER_BOUND('',#106,.T.);
#84=FACE_OUTER_BOUND('',#107,.T.);
#85=FACE_OUTER_BOUND('',#108,.T.);
#86=FACE_OUTER_BOUND('',#109,.T.);
#87=FACE_OUTER_BOUND('',#110,.T.);
#88=FACE_OUTER_BOUND('',#111,.T.);
#89=EDGE_LOOP('',(#197,#198,#199,#200,#201,#202));
#90=EDGE_LOOP('',(#203));
#91=EDGE_LOOP('',(#204,#205,#206,#207));
#92=EDGE_LOOP('',(#208,#209,#210));
#93=EDGE_LOOP('',(#211,#212,#213));
#94=EDGE_LOOP('',(#214,#215,#216));
#95=EDGE_LOOP('',(#217,#218,#219));
#96=EDGE_LOOP('',(#220,#221,#222));
#97=EDGE_LOOP('',(#223,#224,#225));
#98=EDGE_LOOP('',(#226,#227,#228));
#99=EDGE_LOOP('',(#229,#230,#231));
#100=EDGE_LOOP('',(#232,#233,#234));
#101=EDGE_LOOP('',(#235,#236,#237));
#102=EDGE_LOOP('',(#238,#239,#240));
#103=EDGE_LOOP('',(#241,#242,#243));
#104=EDGE_LOOP('',(#244,#245,#246,#247,#248,#249));
#105=EDGE_LOOP('',(#250));
#106=EDGE_LOOP('',(#251,#252,#253,#254,#255,#256));
#107=EDGE_LOOP('',(#257,#258,#259,#260,#261,#262));
#108=EDGE_LOOP('',(#263,#264,#265,#266,#267,#268));
#109=EDGE_LOOP('',(#269,#270,#271,#272,#273,#274));
#110=EDGE_LOOP('',(#275,#276,#277,#278,#279,#280));
#111=EDGE_LOOP('',(#281,#282,#283,#284,#285,#286));
#112=CIRCLE('',#331,4.);
#113=CIRCLE('',#332,4.);
#114=CIRCLE('',#333,4.);
#115=CIRCLE('',#334,4.);
#116=CIRCLE('',#335,4.);
#117=CIRCLE('',#336,4.);
#118=CIRCLE('',#337,2.5);
#119=CIRCLE('',#339,2.5);
#120=CIRCLE('',#342,3.99999999999999);
#121=CIRCLE('',#344,3.99999999999999);
#122=CIRCLE('',#346,3.99999999999999);
#123=CIRCLE('',#348,3.99999999999999);
#124=CIRCLE('',#350,3.99999999999999);
#125=CIRCLE('',#352,3.99999999999999);
#126=VERTEX_POINT('',#446);
#127=VERTEX_POINT('',#447);
#128=VERTEX_POINT('',#449);
#129=VERTEX_POINT('',#451);
#130=VERTEX_POINT('',#453);
#131=VERTEX_POINT('',#455);
#132=VERTEX_POINT('',#458);
#133=VERTEX_POINT('',#461);
#134=VERTEX_POINT('',#465);
#135=VERTEX_POINT('',#473);
#136=VERTEX_POINT('',#474);
#137=VERTEX_POINT('',#476);
#138=VERTEX_POINT('',#484);
#139=VERTEX_POINT('',#485);
#140=VERTEX_POINT('',#489);
#141=VERTEX_POINT('',#495);
#142=VERTEX_POINT('',#497);
#143=VERTEX_POINT('',#506);
#144=VERTEX_POINT('',#514);
#145=VERTEX_POINT('',#515);
#146=VERTEX_POINT('',#524);
#147=VERTEX_POINT('',#533);
#148=VERTEX_POINT('',#541);
#149=VERTEX_POINT('',#549);
#150=VERTEX_POINT('',#557);
#151=VERTEX_POINT('',#565);
#152=EDGE_CURVE('',#126,#127,#112,.T.);
#153=EDGE_CURVE('',#128,#126,#113,.T.);
#154=EDGE_CURVE('',#129,#128,#114,.T.);
#155=EDGE_CURVE('',#130,#129,#115,.T.);
#156=EDGE_CURVE('',#131,#130,#116,.T.);
#157=EDGE_CURVE('',#127,#131,#117,.T.);
#158=EDGE_CURVE('',#132,#132,#118,.T.);
#159=EDGE_CURVE('',#132,#133,#51,.T.);
#160=EDGE_CURVE('',#133,#133,#119,.T.);
#161=EDGE_CURVE('',#126,#134,#15,.T.);
#162=EDGE_CURVE('',#134,#128,#16,.T.);
#163=EDGE_CURVE('',#135,#136,#120,.T.);
#164=EDGE_CURVE('',#135,#137,#17,.T.);
#165=EDGE_CURVE('',#137,#136,#18,.T.);
#166=EDGE_CURVE('',#138,#139,#19,.T.);
#167=EDGE_CURVE('',#139,#140,#20,.T.);
#168=EDGE_CURVE('',#138,#140,#121,.T.);
#169=EDGE_CURVE('',#140,#141,#122,.T.);
#170=EDGE_CURVE('',#140,#142,#21,.T.);
#171=EDGE_CURVE('',#142,#141,#22,.T.);
#172=EDGE_CURVE('',#141,#135,#123,.T.);
#173=EDGE_CURVE('',#141,#143,#23,.T.);
#174=EDGE_CURVE('',#143,#135,#24,.T.);
#175=EDGE_CURVE('',#144,#145,#25,.T.);
#176=EDGE_CURVE('',#145,#138,#26,.T.);
#177=EDGE_CURVE('',#144,#138,#124,.T.);
#178=EDGE_CURVE('',#136,#146,#27,.T.);
#179=EDGE_CURVE('',#146,#144,#28,.T.);
#180=EDGE_CURVE('',#136,#144,#125,.T.);
#181=EDGE_CURVE('',#130,#147,#29,.T.);
#182=EDGE_CURVE('',#147,#131,#30,.T.);
#183=EDGE_CURVE('',#131,#148,#31,.T.);
#184=EDGE_CURVE('',#148,#127,#32,.T.);
#185=EDGE_CURVE('',#127,#149,#33,.T.);
#186=EDGE_CURVE('',#149,#126,#34,.T.);
#187=EDGE_CURVE('',#128,#150,#35,.T.);
#188=EDGE_CURVE('',#150,#129,#36,.T.);
#189=EDGE_CURVE('',#129,#151,#37,.T.);
#190=EDGE_CURVE('',#151,#130,#38,.T.);
#191=EDGE_CURVE('',#148,#143,#52,.T.);
#192=EDGE_CURVE('',#147,#137,#53,.T.);
#193=EDGE_CURVE('',#149,#142,#54,.T.);
#194=EDGE_CURVE('',#134,#139,#55,.T.);
#195=EDGE_CURVE('',#150,#145,#56,.T.);
#196=EDGE_CURVE('',#151,#146,#57,.T.);
#197=ORIENTED_EDGE('',*,*,#152,.F.);
#198=ORIENTED_EDGE('',*,*,#153,.F.);
#199=ORIENTED_EDGE('',*,*,#154,.F.);
#200=ORIENTED_EDGE('',*,*,#155,.F.);
#201=ORIENTED_EDGE('',*,*,#156,.F.);
#202=ORIENTED_EDGE('',*,*,#157,.F.);
#203=ORIENTED_EDGE('',*,*,#158,.T.);
#204=ORIENTED_EDGE('',*,*,#158,.F.);
#205=ORIENTED_EDGE('',*,*,#159,.T.);
#206=ORIENTED_EDGE('',*,*,#160,.T.);
#207=ORIENTED_EDGE('',*,*,#159,.F.);
#208=ORIENTED_EDGE('',*,*,#153,.T.);
#209=ORIENTED_EDGE('',*,*,#161,.T.);
#210=ORIENTED_EDGE('',*,*,#162,.T.);
#211=ORIENTED_EDGE('',*,*,#163,.F.);
#212=ORIENTED_EDGE('',*,*,#164,.T.);
#213=ORIENTED_EDGE('',*,*,#165,.T.);
#214=ORIENTED_EDGE('',*,*,#166,.T.);
#215=ORIENTED_EDGE('',*,*,#167,.T.);
#216=ORIENTED_EDGE('',*,*,#168,.F.);
#217=ORIENTED_EDGE('',*,*,#169,.F.);
#218=ORIENTED_EDGE('',*,*,#170,.T.);
#219=ORIENTED_EDGE('',*,*,#171,.T.);
#220=ORIENTED_EDGE('',*,*,#172,.F.);
#221=ORIENTED_EDGE('',*,*,#173,.T.);
#222=ORIENTED_EDGE('',*,*,#174,.T.);
#223=ORIENTED_EDGE('',*,*,#175,.T.);
#224=ORIENTED_EDGE('',*,*,#176,.T.);
#225=ORIENTED_EDGE('',*,*,#177,.F.);
#226=ORIENTED_EDGE('',*,*,#178,.T.);
#227=ORIENTED_EDGE('',*,*,#179,.T.);
#228=ORIENTED_EDGE('',*,*,#180,.F.);
#229=ORIENTED_EDGE('',*,*,#181,.T.);
#230=ORIENTED_EDGE('',*,*,#182,.T.);
#231=ORIENTED_EDGE('',*,*,#156,.T.);
#232=ORIENTED_EDGE('',*,*,#157,.T.);
#233=ORIENTED_EDGE('',*,*,#183,.T.);
#234=ORIENTED_EDGE('',*,*,#184,.T.);
#235=ORIENTED_EDGE('',*,*,#152,.T.);
#236=ORIENTED_EDGE('',*,*,#185,.T.);
#237=ORIENTED_EDGE('',*,*,#186,.T.);
#238=ORIENTED_EDGE('',*,*,#154,.T.);
#239=ORIENTED_EDGE('',*,*,#187,.T.);
#240=ORIENTED_EDGE('',*,*,#188,.T.);
#241=ORIENTED_EDGE('',*,*,#155,.T.);
#242=ORIENTED_EDGE('',*,*,#189,.T.);
#243=ORIENTED_EDGE('',*,*,#190,.T.);
#244=ORIENTED_EDGE('',*,*,#180,.T.);
#245=ORIENTED_EDGE('',*,*,#177,.T.);
#246=ORIENTED_EDGE('',*,*,#168,.T.);
#247=ORIENTED_EDGE('',*,*,#169,.T.);
#248=ORIENTED_EDGE('',*,*,#172,.T.);
#249=ORIENTED_EDGE('',*,*,#163,.T.);
#250=ORIENTED_EDGE('',*,*,#160,.F.);
#251=ORIENTED_EDGE('',*,*,#191,.F.);
#252=ORIENTED_EDGE('',*,*,#183,.F.);
#253=ORIENTED_EDGE('',*,*,#182,.F.);
#254=ORIENTED_EDGE('',*,*,#192,.T.);
#255=ORIENTED_EDGE('',*,*,#164,.F.);
#256=ORIENTED_EDGE('',*,*,#174,.F.);
#257=ORIENTED_EDGE('',*,*,#193,.F.);
#258=ORIENTED_EDGE('',*,*,#185,.F.);
#259=ORIENTED_EDGE('',*,*,#184,.F.);
#260=ORIENTED_EDGE('',*,*,#191,.T.);
#261=ORIENTED_EDGE('',*,*,#173,.F.);
#262=ORIENTED_EDGE('',*,*,#171,.F.);
#263=ORIENTED_EDGE('',*,*,#194,.F.);
#264=ORIENTED_EDGE('',*,*,#161,.F.);
#265=ORIENTED_EDGE('',*,*,#186,.F.);
#266=ORIENTED_EDGE('',*,*,#193,.T.);
#267=ORIENTED_EDGE('',*,*,#170,.F.);
#268=ORIENTED_EDGE('',*,*,#167,.F.);
#269=ORIENTED_EDGE('',*,*,#195,.F.);
#270=ORIENTED_EDGE('',*,*,#187,.F.);
#271=ORIENTED_EDGE('',*,*,#162,.F.);
#272=ORIENTED_EDGE('',*,*,#194,.T.);
#273=ORIENTED_EDGE('',*,*,#166,.F.);
#274=ORIENTED_EDGE('',*,*,#176,.F.);
#275=ORIENTED_EDGE('',*,*,#196,.F.);
#276=ORIENTED_EDGE('',*,*,#189,.F.);
#277=ORIENTED_EDGE('',*,*,#188,.F.);
#278=ORIENTED_EDGE('',*,*,#195,.T.);
#279=ORIENTED_EDGE('',*,*,#175,.F.);
#280=ORIENTED_EDGE('',*,*,#179,.F.);
#281=ORIENTED_EDGE('',*,*,#192,.F.);
#282=ORIENTED_EDGE('',*,*,#181,.F.);
#283=ORIENTED_EDGE('',*,*,#190,.F.);
#284=ORIENTED_EDGE('',*,*,#196,.T.);
#285=ORIENTED_EDGE('',*,*,#178,.F.);
#286=ORIENTED_EDGE('',*,*,#165,.F.);
#287=PLANE('',#330);
#288=PLANE('',#358);
#289=PLANE('',#359);
#290=PLANE('',#360);
#291=PLANE('',#361);
#292=PLANE('',#362);
#293=PLANE('',#363);
#294=PLANE('',#364);
#295=ADVANCED_FACE('',(#68,#66),#287,.T.);
#296=ADVANCED_FACE('',(#69),#65,.F.);
#297=ADVANCED_FACE('',(#70),#39,.T.);
#298=ADVANCED_FACE('',(#71),#40,.T.);
#299=ADVANCED_FACE('',(#72),#41,.T.);
#300=ADVANCED_FACE('',(#73),#42,.T.);
#301=ADVANCED_FACE('',(#74),#43,.T.);
#302=ADVANCED_FACE('',(#75),#44,.T.);
#303=ADVANCED_FACE('',(#76),#45,.T.);
#304=ADVANCED_FACE('',(#77),#46,.T.);
#305=ADVANCED_FACE('',(#78),#47,.T.);
#306=ADVANCED_FACE('',(#79),#48,.T.);
#307=ADVANCED_FACE('',(#80),#49,.T.);
#308=ADVANCED_FACE('',(#81),#50,.T.);
#309=ADVANCED_FACE('',(#82,#67),#288,.F.);
#310=ADVANCED_FACE('',(#83),#289,.T.);
#311=ADVANCED_FACE('',(#84),#290,.T.);
#312=ADVANCED_FACE('',(#85),#291,.T.);
#313=ADVANCED_FACE('',(#86),#292,.T.);
#314=ADVANCED_FACE('',(#87),#293,.T.);
#315=ADVANCED_FACE('',(#88),#294,.T.);
#316=CLOSED_SHELL('',(#295,#296,#297,#298,#299,#300,#301,#302,#303,#304,
#305,#306,#307,#308,#309,#310,#311,#312,#313,#314,#315));
#317=DERIVED_UNIT_ELEMENT(#319,1.);
#318=DERIVED_UNIT_ELEMENT(#590,3.);
#319=(
MASS_UNIT()
NAMED_UNIT(*)
SI_UNIT(.KILO.,.GRAM.)
);
#320=DERIVED_UNIT((#317,#318));
#321=MEASURE_REPRESENTATION_ITEM('density measure',
POSITIVE_RATIO_MEASURE(7850.),#320);
#322=PROPERTY_DEFINITION_REPRESENTATION(#327,#324);
#323=PROPERTY_DEFINITION_REPRESENTATION(#328,#325);
#324=REPRESENTATION('material name',(#326),#587);
#325=REPRESENTATION('density',(#321),#587);
#326=DESCRIPTIVE_REPRESENTATION_ITEM('Steel','Steel');
#327=PROPERTY_DEFINITION('material property','material name',#597);
#328=PROPERTY_DEFINITION('material property','density of part',#597);
#329=AXIS2_PLACEMENT_3D('placement',#444,#365,#366);
#330=AXIS2_PLACEMENT_3D('',#445,#367,#368);
#331=AXIS2_PLACEMENT_3D('',#448,#369,#370);
#332=AXIS2_PLACEMENT_3D('',#450,#371,#372);
#333=AXIS2_PLACEMENT_3D('',#452,#373,#374);
#334=AXIS2_PLACEMENT_3D('',#454,#375,#376);
#335=AXIS2_PLACEMENT_3D('',#456,#377,#378);
#336=AXIS2_PLACEMENT_3D('',#457,#379,#380);
#337=AXIS2_PLACEMENT_3D('',#459,#381,#382);
#338=AXIS2_PLACEMENT_3D('',#460,#383,#384);
#339=AXIS2_PLACEMENT_3D('',#463,#386,#387);
#340=AXIS2_PLACEMENT_3D('',#464,#388,#389);
#341=AXIS2_PLACEMENT_3D('',#472,#390,#391);
#342=AXIS2_PLACEMENT_3D('',#475,#392,#393);
#343=AXIS2_PLACEMENT_3D('',#483,#394,#395);
#344=AXIS2_PLACEMENT_3D('',#493,#396,#397);
#345=AXIS2_PLACEMENT_3D('',#494,#398,#399);
#346=AXIS2_PLACEMENT_3D('',#496,#400,#401);
#347=AXIS2_PLACEMENT_3D('',#504,#402,#403);
#348=AXIS2_PLACEMENT_3D('',#505,#404,#405);
#349=AXIS2_PLACEMENT_3D('',#513,#406,#407);
#350=AXIS2_PLACEMENT_3D('',#522,#408,#409);
#351=AXIS2_PLACEMENT_3D('',#523,#410,#411);
#352=AXIS2_PLACEMENT_3D('',#531,#412,#413);
#353=AXIS2_PLACEMENT_3D('',#532,#414,#415);
#354=AXIS2_PLACEMENT_3D('',#540,#416,#417);
#355=AXIS2_PLACEMENT_3D('',#548,#418,#419);
#356=AXIS2_PLACEMENT_3D('',#556,#420,#421);
#357=AXIS2_PLACEMENT_3D('',#564,#422,#423);
#358=AXIS2_PLACEMENT_3D('',#572,#424,#425);
#359=AXIS2_PLACEMENT_3D('',#573,#426,#427);
#360=AXIS2_PLACEMENT_3D('',#576,#430,#431);
#361=AXIS2_PLACEMENT_3D('',#578,#433,#434);
#362=AXIS2_PLACEMENT_3D('',#580,#436,#437);
#363=AXIS2_PLACEMENT_3D('',#582,#439,#440);
#364=AXIS2_PLACEMENT_3D('',#584,#442,#443);
#365=DIRECTION('axis',(0.,0.,1.));
#366=DIRECTION('refdir',(1.,0.,0.));
#367=DIRECTION('center_axis',(0.,1.,0.));
#368=DIRECTION('ref_axis',(-1.,0.,0.));
#369=DIRECTION('center_axis',(0.,-1.,0.));
#370=DIRECTION('ref_axis',(0.,0.,-1.));
#371=DIRECTION('center_axis',(0.,-1.,0.));
#372=DIRECTION('ref_axis',(0.,0.,-1.));
#373=DIRECTION('center_axis',(0.,-1.,0.));
#374=DIRECTION('ref_axis',(0.,0.,-1.));
#375=DIRECTION('center_axis',(0.,-1.,0.));
#376=DIRECTION('ref_axis',(0.,0.,-1.));
#377=DIRECTION('center_axis',(0.,-1.,0.));
#378=DIRECTION('ref_axis',(0.,0.,-1.));
#379=DIRECTION('center_axis',(0.,-1.,0.));
#380=DIRECTION('ref_axis',(0.,0.,-1.));
#381=DIRECTION('center_axis',(0.,-1.,0.));
#382=DIRECTION('ref_axis',(0.,0.,-1.));
#383=DIRECTION('center_axis',(0.,-1.,0.));
#384=DIRECTION('ref_axis',(0.,0.,-1.));
#385=DIRECTION('',(0.,-1.,0.));
#386=DIRECTION('center_axis',(0.,-1.,0.));
#387=DIRECTION('ref_axis',(0.,0.,-1.));
#388=DIRECTION('center_axis',(0.,-1.,0.));
#389=DIRECTION('ref_axis',(0.,0.,-1.));
#390=DIRECTION('center_axis',(0.,1.,0.));
#391=DIRECTION('ref_axis',(0.,0.,1.));
#392=DIRECTION('center_axis',(0.,-1.,0.));
#393=DIRECTION('ref_axis',(0.,0.,1.));
#394=DIRECTION('center_axis',(0.,1.,0.));
#395=DIRECTION('ref_axis',(-1.22464679914735E-16,0.,-1.));
#396=DIRECTION('center_axis',(0.,-1.,0.));
#397=DIRECTION('ref_axis',(1.77635683940025E-15,0.,1.));
#398=DIRECTION('center_axis',(0.,1.,0.));
#399=DIRECTION('ref_axis',(0.,0.,1.));
#400=DIRECTION('center_axis',(0.,-1.,0.));
#401=DIRECTION('ref_axis',(0.,0.,1.));
#402=DIRECTION('center_axis',(0.,1.,0.));
#403=DIRECTION('ref_axis',(0.,0.,1.));
#404=DIRECTION('center_axis',(0.,-1.,0.));
#405=DIRECTION('ref_axis',(-1.77635683940025E-15,0.,1.));
#406=DIRECTION('center_axis',(0.,1.,0.));
#407=DIRECTION('ref_axis',(0.,0.,1.));
#408=DIRECTION('center_axis',(0.,-1.,0.));
#409=DIRECTION('ref_axis',(0.,0.,1.));
#410=DIRECTION('center_axis',(0.,1.,0.));
#411=DIRECTION('ref_axis',(0.,0.,1.));
#412=DIRECTION('center_axis',(0.,-1.,0.));
#413=DIRECTION('ref_axis',(0.,0.,1.));
#414=DIRECTION('center_axis',(0.,-1.,0.));
#415=DIRECTION('ref_axis',(-1.22464679914735E-16,0.,1.));
#416=DIRECTION('center_axis',(0.,-1.,0.));
#417=DIRECTION('ref_axis',(0.,0.,-1.));
#418=DIRECTION('center_axis',(0.,-1.,0.));
#419=DIRECTION('ref_axis',(0.,0.,-1.));
#420=DIRECTION('center_axis',(0.,-1.,0.));
#421=DIRECTION('ref_axis',(0.,0.,-1.));
#422=DIRECTION('center_axis',(0.,-1.,0.));
#423=DIRECTION('ref_axis',(0.,0.,-1.));
#424=DIRECTION('center_axis',(0.,1.,0.));
#425=DIRECTION('ref_axis',(0.,0.,1.));
#426=DIRECTION('center_axis',(0.5,0.,0.866025403784439));
#427=DIRECTION('ref_axis',(0.866025403784439,0.,-0.5));
#428=DIRECTION('',(0.,-1.,0.));
#429=DIRECTION('',(0.,-1.,0.));
#430=DIRECTION('center_axis',(1.,0.,0.));
#431=DIRECTION('ref_axis',(0.,0.,-1.));
#432=DIRECTION('',(0.,-1.,0.));
#433=DIRECTION('center_axis',(0.5,0.,-0.866025403784439));
#434=DIRECTION('ref_axis',(-0.866025403784439,0.,-0.5));
#435=DIRECTION('',(0.,-1.,0.));
#436=DIRECTION('center_axis',(-0.5,0.,-0.866025403784439));
#437=DIRECTION('ref_axis',(-0.866025403784439,0.,0.5));
#438=DIRECTION('',(0.,-1.,0.));
#439=DIRECTION('center_axis',(-1.,0.,0.));
#440=DIRECTION('ref_axis',(0.,0.,1.));
#441=DIRECTION('',(0.,-1.,0.));
#442=DIRECTION('center_axis',(-0.5,0.,0.866025403784439));
#443=DIRECTION('ref_axis',(0.866025403784439,0.,0.5));
#444=CARTESIAN_POINT('',(0.,0.,0.));
#445=CARTESIAN_POINT('Origin',(-5.55111512312578E-16,4.17,0.));
#446=CARTESIAN_POINT('',(2.,4.17,-3.46410161513776));
#447=CARTESIAN_POINT('',(4.,4.17,-6.73519595893603E-20));
#448=CARTESIAN_POINT('Origin',(0.,4.17,0.));
#449=CARTESIAN_POINT('',(-2.,4.17,-3.46410161513776));
#450=CARTESIAN_POINT('Origin',(0.,4.17,0.));
#451=CARTESIAN_POINT('',(-4.,4.17,-6.73521110506541E-20));
#452=CARTESIAN_POINT('Origin',(0.,4.17,0.));
#453=CARTESIAN_POINT('',(-2.,4.17,3.46410161513776));
#454=CARTESIAN_POINT('Origin',(0.,4.17,0.));
#455=CARTESIAN_POINT('',(2.,4.17,3.46410161513776));
#456=CARTESIAN_POINT('Origin',(0.,4.17,0.));
#457=CARTESIAN_POINT('Origin',(0.,4.17,0.));
#458=CARTESIAN_POINT('',(-3.06161699786838E-16,4.17,2.5));
#459=CARTESIAN_POINT('Origin',(0.,4.17,0.));
#460=CARTESIAN_POINT('Origin',(0.,0.,0.));
#461=CARTESIAN_POINT('',(-3.06161699786838E-16,0.,2.5));
#462=CARTESIAN_POINT('',(-3.06161699786838E-16,0.,2.5));
#463=CARTESIAN_POINT('Origin',(0.,0.,0.));
#464=CARTESIAN_POINT('Origin',(0.,3.82026925638375,0.));
#465=CARTESIAN_POINT('',(-1.59857788091625E-15,3.88144781693221,-4.61880215351701));
#466=CARTESIAN_POINT('Ctrl Pts',(2.,4.17,-3.46410161513775));
#467=CARTESIAN_POINT('Ctrl Pts',(1.07179676972098,4.17,-4.00000000000203));
#468=CARTESIAN_POINT('Ctrl Pts',(-8.73584491342985E-12,3.88144781692986,
-4.61880215352205));
#469=CARTESIAN_POINT('Ctrl Pts',(8.72942798575494E-12,3.88144781692986,
-4.61880215352205));
#470=CARTESIAN_POINT('Ctrl Pts',(-1.07179676972098,4.17,-4.00000000000203));
#471=CARTESIAN_POINT('Ctrl Pts',(-2.,4.17,-3.46410161513775));
#472=CARTESIAN_POINT('Origin',(0.,0.,0.));
#473=CARTESIAN_POINT('',(2.,0.,3.46410161513776));
#474=CARTESIAN_POINT('',(-2.,0.,3.46410161513776));
#475=CARTESIAN_POINT('Origin',(0.,0.,0.));
#476=CARTESIAN_POINT('',(9.09587494490075E-17,0.288552183067787,4.61880215351701));
#477=CARTESIAN_POINT('Ctrl Pts',(2.00000000000001,4.00183060688354E-15,
3.46410161513775));
#478=CARTESIAN_POINT('Ctrl Pts',(1.07179676972098,3.14135334476148E-15,
4.00000000000203));
#479=CARTESIAN_POINT('Ctrl Pts',(-8.73143327565335E-12,0.288552183070137,
4.61880215352205));
#480=CARTESIAN_POINT('Ctrl Pts',(8.73203486262288E-12,0.288552183070141,
4.61880215352205));
#481=CARTESIAN_POINT('Ctrl Pts',(-1.07179676972098,7.38298311375729E-15,
4.00000000000203));
#482=CARTESIAN_POINT('Ctrl Pts',(-2.,5.86314716822473E-15,3.46410161513776));
#483=CARTESIAN_POINT('Origin',(0.,0.,0.));
#484=CARTESIAN_POINT('',(-2.,0.,-3.46410161513776));
#485=CARTESIAN_POINT('',(-1.59857788091625E-15,0.288552183067787,-4.61880215351701));
#486=CARTESIAN_POINT('Ctrl Pts',(-1.99999999999999,5.77008134015768E-15,
-3.46410161513776));
#487=CARTESIAN_POINT('Ctrl Pts',(-1.07179676972098,7.87890550722967E-15,
-4.00000000000203));
#488=CARTESIAN_POINT('Ctrl Pts',(8.72982904373463E-12,0.28855218307014,
-4.61880215352205));
#489=CARTESIAN_POINT('',(2.,0.,-3.46410161513776));
#490=CARTESIAN_POINT('Ctrl Pts',(-8.7312327466635E-12,0.288552183070138,
-4.61880215352205));
#491=CARTESIAN_POINT('Ctrl Pts',(1.07179676972098,4.32986979603811E-15,
-4.00000000000203));
#492=CARTESIAN_POINT('Ctrl Pts',(2.,4.09489643495059E-15,-3.46410161513776));
#493=CARTESIAN_POINT('Origin',(0.,0.,0.));
#494=CARTESIAN_POINT('Origin',(0.,0.,0.));
#495=CARTESIAN_POINT('',(4.,0.,0.));
#496=CARTESIAN_POINT('Origin',(0.,0.,0.));
#497=CARTESIAN_POINT('',(4.,0.288552183067787,-2.3094010767585));
#498=CARTESIAN_POINT('Ctrl Pts',(2.,4.09489643495059E-15,-3.46410161513776));
#499=CARTESIAN_POINT('Ctrl Pts',(2.92820323027902,3.74815149910912E-15,
-2.92820323027349));
#500=CARTESIAN_POINT('Ctrl Pts',(4.00000000000874,0.288552183070139,-2.30940107675346));
#501=CARTESIAN_POINT('Ctrl Pts',(4.,0.288552183070137,-2.30940107676858));
#502=CARTESIAN_POINT('Ctrl Pts',(4.,3.83026943495679E-15,-1.07179676972854));
#503=CARTESIAN_POINT('Ctrl Pts',(4.,3.35036981041412E-15,-3.35036981041412E-15));
#504=CARTESIAN_POINT('Origin',(0.,0.,0.));
#505=CARTESIAN_POINT('Origin',(0.,0.,0.));
#506=CARTESIAN_POINT('',(4.,0.288552183067787,2.3094010767585));
#507=CARTESIAN_POINT('Ctrl Pts',(4.,3.35036981041412E-15,-3.35036981041412E-15));
#508=CARTESIAN_POINT('Ctrl Pts',(4.,3.03118553808961E-15,1.07179676972854));
#509=CARTESIAN_POINT('Ctrl Pts',(4.,0.288552183070136,2.30940107676858));
#510=CARTESIAN_POINT('Ctrl Pts',(4.00000000000874,0.288552183070139,2.30940107675346));
#511=CARTESIAN_POINT('Ctrl Pts',(2.92820323027902,4.91273688396632E-15,
2.92820323027348));
#512=CARTESIAN_POINT('Ctrl Pts',(2.00000000000001,4.00183060688354E-15,
3.46410161513775));
#513=CARTESIAN_POINT('Origin',(0.,0.,0.));
#514=CARTESIAN_POINT('',(-4.,0.,0.));
#515=CARTESIAN_POINT('',(-4.,0.288552183067787,-2.3094010767585));
#516=CARTESIAN_POINT('Ctrl Pts',(-4.,3.35036981041412E-15,-2.97810649814589E-15));
#517=CARTESIAN_POINT('Ctrl Pts',(-4.,3.73376616948309E-15,-1.07179676972854));
#518=CARTESIAN_POINT('Ctrl Pts',(-4.,0.288552183070137,-2.30940107676858));
#519=CARTESIAN_POINT('Ctrl Pts',(-4.00000000000873,0.288552183070138,-2.30940107675346));
#520=CARTESIAN_POINT('Ctrl Pts',(-2.92820323027901,3.71924713249427E-15,
-2.92820323027349));
#521=CARTESIAN_POINT('Ctrl Pts',(-1.99999999999999,5.77008134015768E-15,
-3.46410161513776));
#522=CARTESIAN_POINT('Origin',(0.,0.,0.));
#523=CARTESIAN_POINT('Origin',(0.,0.,0.));
#524=CARTESIAN_POINT('',(-4.,0.288552183067787,2.3094010767585));
#525=CARTESIAN_POINT('Ctrl Pts',(-2.,5.86314716822473E-15,3.46410161513776));
#526=CARTESIAN_POINT('Ctrl Pts',(-2.92820323027902,4.42634890241497E-15,
2.92820323027349));
#527=CARTESIAN_POINT('Ctrl Pts',(-4.00000000000873,0.288552183070136,2.30940107675347));
#528=CARTESIAN_POINT('Ctrl Pts',(-4.,0.288552183070138,2.30940107676859));
#529=CARTESIAN_POINT('Ctrl Pts',(-4.,3.05311331771918E-15,1.07179676972854));
#530=CARTESIAN_POINT('Ctrl Pts',(-4.,3.35036981041412E-15,-2.97810649814589E-15));
#531=CARTESIAN_POINT('Origin',(0.,0.,0.));
#532=CARTESIAN_POINT('Origin',(0.,3.82026925638375,0.));
#533=CARTESIAN_POINT('',(7.61885070717527E-17,3.88144781693221,4.61880215351701));
#534=CARTESIAN_POINT('Ctrl Pts',(-2.,4.17,3.46410161513775));
#535=CARTESIAN_POINT('Ctrl Pts',(-1.07179676972098,4.17,4.00000000000203));
#536=CARTESIAN_POINT('Ctrl Pts',(8.73243592060254E-12,3.88144781692986,
4.61880215352205));
#537=CARTESIAN_POINT('Ctrl Pts',(-8.73103221767366E-12,3.88144781692986,
4.61880215352205));
#538=CARTESIAN_POINT('Ctrl Pts',(1.07179676972098,4.17,4.00000000000203));
#539=CARTESIAN_POINT('Ctrl Pts',(2.,4.17,3.46410161513775));
#540=CARTESIAN_POINT('Origin',(0.,3.82026925638375,0.));
#541=CARTESIAN_POINT('',(4.,3.88144781693221,2.3094010767585));
#542=CARTESIAN_POINT('Ctrl Pts',(2.,4.17,3.46410161513775));
#543=CARTESIAN_POINT('Ctrl Pts',(2.92820323027902,4.17,2.92820323027348));
#544=CARTESIAN_POINT('Ctrl Pts',(4.00000000000874,3.88144781692986,2.30940107675346));
#545=CARTESIAN_POINT('Ctrl Pts',(4.,3.88144781692986,2.30940107676859));
#546=CARTESIAN_POINT('Ctrl Pts',(4.,4.17,1.07179676972855));
#547=CARTESIAN_POINT('Ctrl Pts',(4.,4.17,5.58394968402354E-15));
#548=CARTESIAN_POINT('Origin',(0.,3.82026925638375,0.));
#549=CARTESIAN_POINT('',(4.,3.88144781693221,-2.3094010767585));
#550=CARTESIAN_POINT('Ctrl Pts',(4.,4.17,5.58394968402354E-15));
#551=CARTESIAN_POINT('Ctrl Pts',(4.,4.17,-1.07179676972854));
#552=CARTESIAN_POINT('Ctrl Pts',(4.,3.88144781692987,-2.30940107676858));
#553=CARTESIAN_POINT('Ctrl Pts',(4.00000000000873,3.88144781692986,-2.30940107675346));
#554=CARTESIAN_POINT('Ctrl Pts',(2.92820323027902,4.17,-2.92820323027348));
#555=CARTESIAN_POINT('Ctrl Pts',(2.,4.17,-3.46410161513775));
#556=CARTESIAN_POINT('Origin',(0.,3.82026925638375,0.));
#557=CARTESIAN_POINT('',(-4.,3.88144781693221,-2.3094010767585));
#558=CARTESIAN_POINT('Ctrl Pts',(-2.,4.17,-3.46410161513775));
#559=CARTESIAN_POINT('Ctrl Pts',(-2.92820323027902,4.17,-2.92820323027348));
#560=CARTESIAN_POINT('Ctrl Pts',(-4.00000000000874,3.88144781692986,-2.30940107675346));
#561=CARTESIAN_POINT('Ctrl Pts',(-4.,3.88144781692986,-2.30940107676859));
#562=CARTESIAN_POINT('Ctrl Pts',(-4.,4.17,-1.07179676972855));
#563=CARTESIAN_POINT('Ctrl Pts',(-4.,4.17,-3.35036981041413E-15));
#564=CARTESIAN_POINT('Origin',(0.,3.82026925638375,0.));
#565=CARTESIAN_POINT('',(-4.,3.88144781693221,2.3094010767585));
#566=CARTESIAN_POINT('Ctrl Pts',(-4.,4.17,-3.35036981041413E-15));
#567=CARTESIAN_POINT('Ctrl Pts',(-4.,4.17,1.07179676972854));
#568=CARTESIAN_POINT('Ctrl Pts',(-4.,3.88144781692986,2.30940107676859));
#569=CARTESIAN_POINT('Ctrl Pts',(-4.00000000000874,3.88144781692986,2.30940107675346));
#570=CARTESIAN_POINT('Ctrl Pts',(-2.92820323027902,4.17,2.92820323027348));
#571=CARTESIAN_POINT('Ctrl Pts',(-2.,4.17,3.46410161513775));
#572=CARTESIAN_POINT('Origin',(-2.5,0.,0.));
#573=CARTESIAN_POINT('Origin',(4.,5.,2.3094010767585));
#574=CARTESIAN_POINT('',(4.,5.,2.3094010767585));
#575=CARTESIAN_POINT('',(9.09587494490075E-17,5.,4.61880215351701));
#576=CARTESIAN_POINT('Origin',(4.,5.,-2.3094010767585));
#577=CARTESIAN_POINT('',(4.,5.,-2.3094010767585));
#578=CARTESIAN_POINT('Origin',(-1.59857788091625E-15,5.,-4.61880215351701));
#579=CARTESIAN_POINT('',(-1.59857788091625E-15,5.,-4.61880215351701));
#580=CARTESIAN_POINT('Origin',(-4.,5.,-2.3094010767585));
#581=CARTESIAN_POINT('',(-4.,5.,-2.3094010767585));
#582=CARTESIAN_POINT('Origin',(-4.,5.,2.3094010767585));
#583=CARTESIAN_POINT('',(-4.,5.,2.3094010767585));
#584=CARTESIAN_POINT('Origin',(9.09587494490075E-17,5.,4.61880215351701));
#585=UNCERTAINTY_MEASURE_WITH_UNIT(LENGTH_MEASURE(0.01),#589,
'DISTANCE_ACCURACY_VALUE',
'Maximum model space distance between geometric entities at asserted c
onnectivities');
#586=UNCERTAINTY_MEASURE_WITH_UNIT(LENGTH_MEASURE(0.01),#589,
'DISTANCE_ACCURACY_VALUE',
'Maximum model space distance between geometric entities at asserted c
onnectivities');
#587=(
GEOMETRIC_REPRESENTATION_CONTEXT(3)
GLOBAL_UNCERTAINTY_ASSIGNED_CONTEXT((#585))
GLOBAL_UNIT_ASSIGNED_CONTEXT((#589,#591,#592))
REPRESENTATION_CONTEXT('','3D')
);
#588=(
GEOMETRIC_REPRESENTATION_CONTEXT(3)
GLOBAL_UNCERTAINTY_ASSIGNED_CONTEXT((#586))
GLOBAL_UNIT_ASSIGNED_CONTEXT((#589,#591,#592))
REPRESENTATION_CONTEXT('','3D')
);
#589=(
LENGTH_UNIT()
NAMED_UNIT(*)
SI_UNIT(.MILLI.,.METRE.)
);
#590=(
LENGTH_UNIT()
NAMED_UNIT(*)
SI_UNIT($,.METRE.)
);
#591=(
NAMED_UNIT(*)
PLANE_ANGLE_UNIT()
SI_UNIT($,.RADIAN.)
);
#592=(
NAMED_UNIT(*)
SI_UNIT($,.STERADIAN.)
SOLID_ANGLE_UNIT()
);
#593=SHAPE_DEFINITION_REPRESENTATION(#594,#595);
#594=PRODUCT_DEFINITION_SHAPE('',$,#597);
#595=SHAPE_REPRESENTATION('',(#329),#587);
#596=PRODUCT_DEFINITION_CONTEXT('part definition',#601,'design');
#597=PRODUCT_DEFINITION('M5 hex nut','M5 hex nut v1',#598,#596);
#598=PRODUCT_DEFINITION_FORMATION('',$,#603);
#599=PRODUCT_RELATED_PRODUCT_CATEGORY('M5 hex nut v1','M5 hex nut v1',(#603));
#600=APPLICATION_PROTOCOL_DEFINITION('international standard',
'automotive_design',2009,#601);
#601=APPLICATION_CONTEXT(
'Core Data for Automotive Mechanical Design Process');
#602=PRODUCT_CONTEXT('part definition',#601,'mechanical');
#603=PRODUCT('M5 hex nut','M5 hex nut v1',$,(#602));
#604=PRESENTATION_STYLE_ASSIGNMENT((#605));
#605=SURFACE_STYLE_USAGE(.BOTH.,#606);
#606=SURFACE_SIDE_STYLE('',(#607));
#607=SURFACE_STYLE_FILL_AREA(#608);
#608=FILL_AREA_STYLE('Steel - Satin',(#609));
#609=FILL_AREA_STYLE_COLOUR('Steel - Satin',#610);
#610=COLOUR_RGB('Steel - Satin',0.627450980392157,0.627450980392157,0.627450980392157);
ENDSEC;
END-ISO-10303-21;
