ISO-10303-21;
HEADER;
FILE_DESCRIPTION(('FreeCAD Model'),'2;1');
FILE_NAME(
  'C:/Users/Antonio/Desktop/screws/hexagonal_head_bolt_M5x20.step',
  '2020-02-17T20:34:06',('Author'),(''),
  'Open CASCADE STEP processor 7.3','FreeCAD','Unknown');
FILE_SCHEMA(('AUTOMOTIVE_DESIGN { 1 0 10303 214 1 1 1 1 }'));
ENDSEC;
DATA;
#1 = APPLICATION_PROTOCOL_DEFINITION('international standard',
  'automotive_design',2000,#2);
#2 = APPLICATION_CONTEXT(
  'core data for automotive mechanical design processes');
#3 = SHAPE_DEFINITION_REPRESENTATION(#4,#10);
#4 = PRODUCT_DEFINITION_SHAPE('','',#5);
#5 = PRODUCT_DEFINITION('design','',#6,#9);
#6 = PRODUCT_DEFINITION_FORMATION('','',#7);
#7 = PRODUCT('VITE_TESTA_ESAGONALE','VITE_TESTA_ESAGONALE','',(#8));
#8 = PRODUCT_CONTEXT('',#2,'mechanical');
#9 = PRODUCT_DEFINITION_CONTEXT('part definition',#2,'design');
#10 = ADVANCED_BREP_SHAPE_REPRESENTATION('',(#11,#15),#827);
#11 = AXIS2_PLACEMENT_3D('',#12,#13,#14);
#12 = CARTESIAN_POINT('',(0.,0.,0.));
#13 = DIRECTION('',(0.,0.,1.));
#14 = DIRECTION('',(1.,0.,-0.));
#15 = MANIFOLD_SOLID_BREP('',#16);
#16 = CLOSED_SHELL('',(#17,#54,#109,#164,#199,#254,#416,#500,#557,#614,
    #671,#728,#763,#823));
#17 = ADVANCED_FACE('',(#18),#31,.F.);
#18 = FACE_BOUND('',#19,.T.);
#19 = EDGE_LOOP('',(#20));
#20 = ORIENTED_EDGE('',*,*,#21,.F.);
#21 = EDGE_CURVE('',#22,#22,#24,.T.);
#22 = VERTEX_POINT('',#23);
#23 = CARTESIAN_POINT('',(2.,-4.440892098501E-15,-20.));
#24 = SURFACE_CURVE('',#25,(#30,#42),.PCURVE_S1.);
#25 = CIRCLE('',#26,2.);
#26 = AXIS2_PLACEMENT_3D('',#27,#28,#29);
#27 = CARTESIAN_POINT('',(0.,0.,-20.));
#28 = DIRECTION('',(-0.,0.,1.));
#29 = DIRECTION('',(1.,-2.22044604925E-15,0.));
#30 = PCURVE('',#31,#36);
#31 = PLANE('',#32);
#32 = AXIS2_PLACEMENT_3D('',#33,#34,#35);
#33 = CARTESIAN_POINT('',(0.,0.,-20.));
#34 = DIRECTION('',(0.,0.,1.));
#35 = DIRECTION('',(1.,-2.22044604925E-15,0.));
#36 = DEFINITIONAL_REPRESENTATION('',(#37),#41);
#37 = CIRCLE('',#38,2.);
#38 = AXIS2_PLACEMENT_2D('',#39,#40);
#39 = CARTESIAN_POINT('',(0.,0.));
#40 = DIRECTION('',(1.,-0.));
#41 = ( GEOMETRIC_REPRESENTATION_CONTEXT(2) 
PARAMETRIC_REPRESENTATION_CONTEXT() REPRESENTATION_CONTEXT('2D SPACE',''
  ) );
#42 = PCURVE('',#43,#48);
#43 = CONICAL_SURFACE('',#44,2.,0.785398163397);
#44 = AXIS2_PLACEMENT_3D('',#45,#46,#47);
#45 = CARTESIAN_POINT('',(0.,0.,-20.));
#46 = DIRECTION('',(0.,0.,1.));
#47 = DIRECTION('',(1.,-2.22044604925E-15,0.));
#48 = DEFINITIONAL_REPRESENTATION('',(#49),#53);
#49 = LINE('',#50,#51);
#50 = CARTESIAN_POINT('',(0.,0.));
#51 = VECTOR('',#52,1.);
#52 = DIRECTION('',(1.,0.));
#53 = ( GEOMETRIC_REPRESENTATION_CONTEXT(2) 
PARAMETRIC_REPRESENTATION_CONTEXT() REPRESENTATION_CONTEXT('2D SPACE',''
  ) );
#54 = ADVANCED_FACE('',(#55),#43,.T.);
#55 = FACE_BOUND('',#56,.T.);
#56 = EDGE_LOOP('',(#57,#58,#81,#108));
#57 = ORIENTED_EDGE('',*,*,#21,.T.);
#58 = ORIENTED_EDGE('',*,*,#59,.T.);
#59 = EDGE_CURVE('',#22,#60,#62,.T.);
#60 = VERTEX_POINT('',#61);
#61 = CARTESIAN_POINT('',(2.5,-4.329869796038E-15,-19.5));
#62 = SEAM_CURVE('',#63,(#67,#74),.PCURVE_S1.);
#63 = LINE('',#64,#65);
#64 = CARTESIAN_POINT('',(2.,-4.440892098501E-15,-20.));
#65 = VECTOR('',#66,1.);
#66 = DIRECTION('',(0.707106781187,1.570092458684E-16,0.707106781187));
#67 = PCURVE('',#43,#68);
#68 = DEFINITIONAL_REPRESENTATION('',(#69),#73);
#69 = LINE('',#70,#71);
#70 = CARTESIAN_POINT('',(0.,0.));
#71 = VECTOR('',#72,1.);
#72 = DIRECTION('',(0.,1.));
#73 = ( GEOMETRIC_REPRESENTATION_CONTEXT(2) 
PARAMETRIC_REPRESENTATION_CONTEXT() REPRESENTATION_CONTEXT('2D SPACE',''
  ) );
#74 = PCURVE('',#43,#75);
#75 = DEFINITIONAL_REPRESENTATION('',(#76),#80);
#76 = LINE('',#77,#78);
#77 = CARTESIAN_POINT('',(6.28318530718,0.));
#78 = VECTOR('',#79,1.);
#79 = DIRECTION('',(0.,1.));
#80 = ( GEOMETRIC_REPRESENTATION_CONTEXT(2) 
PARAMETRIC_REPRESENTATION_CONTEXT() REPRESENTATION_CONTEXT('2D SPACE',''
  ) );
#81 = ORIENTED_EDGE('',*,*,#82,.F.);
#82 = EDGE_CURVE('',#60,#60,#83,.T.);
#83 = SURFACE_CURVE('',#84,(#89,#96),.PCURVE_S1.);
#84 = CIRCLE('',#85,2.5);
#85 = AXIS2_PLACEMENT_3D('',#86,#87,#88);
#86 = CARTESIAN_POINT('',(0.,0.,-19.5));
#87 = DIRECTION('',(-0.,0.,1.));
#88 = DIRECTION('',(1.,-1.731947918415E-15,0.));
#89 = PCURVE('',#43,#90);
#90 = DEFINITIONAL_REPRESENTATION('',(#91),#95);
#91 = LINE('',#92,#93);
#92 = CARTESIAN_POINT('',(0.,0.5));
#93 = VECTOR('',#94,1.);
#94 = DIRECTION('',(1.,0.));
#95 = ( GEOMETRIC_REPRESENTATION_CONTEXT(2) 
PARAMETRIC_REPRESENTATION_CONTEXT() REPRESENTATION_CONTEXT('2D SPACE',''
  ) );
#96 = PCURVE('',#97,#102);
#97 = CYLINDRICAL_SURFACE('',#98,2.5);
#98 = AXIS2_PLACEMENT_3D('',#99,#100,#101);
#99 = CARTESIAN_POINT('',(0.,0.,-19.5));
#100 = DIRECTION('',(0.,0.,1.));
#101 = DIRECTION('',(1.,-1.731947918415E-15,0.));
#102 = DEFINITIONAL_REPRESENTATION('',(#103),#107);
#103 = LINE('',#104,#105);
#104 = CARTESIAN_POINT('',(0.,0.));
#105 = VECTOR('',#106,1.);
#106 = DIRECTION('',(1.,0.));
#107 = ( GEOMETRIC_REPRESENTATION_CONTEXT(2) 
PARAMETRIC_REPRESENTATION_CONTEXT() REPRESENTATION_CONTEXT('2D SPACE',''
  ) );
#108 = ORIENTED_EDGE('',*,*,#59,.F.);
#109 = ADVANCED_FACE('',(#110),#97,.T.);
#110 = FACE_BOUND('',#111,.T.);
#111 = EDGE_LOOP('',(#112,#113,#136,#163));
#112 = ORIENTED_EDGE('',*,*,#82,.T.);
#113 = ORIENTED_EDGE('',*,*,#114,.T.);
#114 = EDGE_CURVE('',#60,#115,#117,.T.);
#115 = VERTEX_POINT('',#116);
#116 = CARTESIAN_POINT('',(2.5,0.,0.));
#117 = SEAM_CURVE('',#118,(#122,#129),.PCURVE_S1.);
#118 = LINE('',#119,#120);
#119 = CARTESIAN_POINT('',(2.5,-4.329869796038E-15,-19.5));
#120 = VECTOR('',#121,1.);
#121 = DIRECTION('',(0.,2.22044604925E-16,1.));
#122 = PCURVE('',#97,#123);
#123 = DEFINITIONAL_REPRESENTATION('',(#124),#128);
#124 = LINE('',#125,#126);
#125 = CARTESIAN_POINT('',(0.,0.));
#126 = VECTOR('',#127,1.);
#127 = DIRECTION('',(0.,1.));
#128 = ( GEOMETRIC_REPRESENTATION_CONTEXT(2) 
PARAMETRIC_REPRESENTATION_CONTEXT() REPRESENTATION_CONTEXT('2D SPACE',''
  ) );
#129 = PCURVE('',#97,#130);
#130 = DEFINITIONAL_REPRESENTATION('',(#131),#135);
#131 = LINE('',#132,#133);
#132 = CARTESIAN_POINT('',(6.28318530718,0.));
#133 = VECTOR('',#134,1.);
#134 = DIRECTION('',(0.,1.));
#135 = ( GEOMETRIC_REPRESENTATION_CONTEXT(2) 
PARAMETRIC_REPRESENTATION_CONTEXT() REPRESENTATION_CONTEXT('2D SPACE',''
  ) );
#136 = ORIENTED_EDGE('',*,*,#137,.F.);
#137 = EDGE_CURVE('',#115,#115,#138,.T.);
#138 = SURFACE_CURVE('',#139,(#144,#151),.PCURVE_S1.);
#139 = CIRCLE('',#140,2.5);
#140 = AXIS2_PLACEMENT_3D('',#141,#142,#143);
#141 = CARTESIAN_POINT('',(0.,0.,0.));
#142 = DIRECTION('',(0.,0.,1.));
#143 = DIRECTION('',(1.,0.,0.));
#144 = PCURVE('',#97,#145);
#145 = DEFINITIONAL_REPRESENTATION('',(#146),#150);
#146 = LINE('',#147,#148);
#147 = CARTESIAN_POINT('',(0.,19.5));
#148 = VECTOR('',#149,1.);
#149 = DIRECTION('',(1.,0.));
#150 = ( GEOMETRIC_REPRESENTATION_CONTEXT(2) 
PARAMETRIC_REPRESENTATION_CONTEXT() REPRESENTATION_CONTEXT('2D SPACE',''
  ) );
#151 = PCURVE('',#152,#157);
#152 = PLANE('',#153);
#153 = AXIS2_PLACEMENT_3D('',#154,#155,#156);
#154 = CARTESIAN_POINT('',(0.,0.,0.));
#155 = DIRECTION('',(0.,0.,1.));
#156 = DIRECTION('',(1.,0.,0.));
#157 = DEFINITIONAL_REPRESENTATION('',(#158),#162);
#158 = CIRCLE('',#159,2.5);
#159 = AXIS2_PLACEMENT_2D('',#160,#161);
#160 = CARTESIAN_POINT('',(0.,0.));
#161 = DIRECTION('',(1.,-0.));
#162 = ( GEOMETRIC_REPRESENTATION_CONTEXT(2) 
PARAMETRIC_REPRESENTATION_CONTEXT() REPRESENTATION_CONTEXT('2D SPACE',''
  ) );
#163 = ORIENTED_EDGE('',*,*,#114,.F.);
#164 = ADVANCED_FACE('',(#165,#168),#152,.F.);
#165 = FACE_BOUND('',#166,.T.);
#166 = EDGE_LOOP('',(#167));
#167 = ORIENTED_EDGE('',*,*,#137,.T.);
#168 = FACE_BOUND('',#169,.T.);
#169 = EDGE_LOOP('',(#170));
#170 = ORIENTED_EDGE('',*,*,#171,.F.);
#171 = EDGE_CURVE('',#172,#172,#174,.T.);
#172 = VERTEX_POINT('',#173);
#173 = CARTESIAN_POINT('',(4.,0.,0.));
#174 = SURFACE_CURVE('',#175,(#180,#187),.PCURVE_S1.);
#175 = CIRCLE('',#176,4.);
#176 = AXIS2_PLACEMENT_3D('',#177,#178,#179);
#177 = CARTESIAN_POINT('',(0.,0.,0.));
#178 = DIRECTION('',(0.,0.,1.));
#179 = DIRECTION('',(1.,0.,0.));
#180 = PCURVE('',#152,#181);
#181 = DEFINITIONAL_REPRESENTATION('',(#182),#186);
#182 = CIRCLE('',#183,4.);
#183 = AXIS2_PLACEMENT_2D('',#184,#185);
#184 = CARTESIAN_POINT('',(0.,0.));
#185 = DIRECTION('',(1.,-0.));
#186 = ( GEOMETRIC_REPRESENTATION_CONTEXT(2) 
PARAMETRIC_REPRESENTATION_CONTEXT() REPRESENTATION_CONTEXT('2D SPACE',''
  ) );
#187 = PCURVE('',#188,#193);
#188 = CYLINDRICAL_SURFACE('',#189,4.);
#189 = AXIS2_PLACEMENT_3D('',#190,#191,#192);
#190 = CARTESIAN_POINT('',(0.,0.,0.));
#191 = DIRECTION('',(0.,0.,1.));
#192 = DIRECTION('',(1.,0.,0.));
#193 = DEFINITIONAL_REPRESENTATION('',(#194),#198);
#194 = LINE('',#195,#196);
#195 = CARTESIAN_POINT('',(0.,0.));
#196 = VECTOR('',#197,1.);
#197 = DIRECTION('',(1.,0.));
#198 = ( GEOMETRIC_REPRESENTATION_CONTEXT(2) 
PARAMETRIC_REPRESENTATION_CONTEXT() REPRESENTATION_CONTEXT('2D SPACE',''
  ) );
#199 = ADVANCED_FACE('',(#200),#188,.T.);
#200 = FACE_BOUND('',#201,.T.);
#201 = EDGE_LOOP('',(#202,#203,#226,#253));
#202 = ORIENTED_EDGE('',*,*,#171,.T.);
#203 = ORIENTED_EDGE('',*,*,#204,.T.);
#204 = EDGE_CURVE('',#172,#205,#207,.T.);
#205 = VERTEX_POINT('',#206);
#206 = CARTESIAN_POINT('',(4.,1.110223024625E-16,0.5));
#207 = SEAM_CURVE('',#208,(#212,#219),.PCURVE_S1.);
#208 = LINE('',#209,#210);
#209 = CARTESIAN_POINT('',(4.,0.,0.));
#210 = VECTOR('',#211,1.);
#211 = DIRECTION('',(0.,2.22044604925E-16,1.));
#212 = PCURVE('',#188,#213);
#213 = DEFINITIONAL_REPRESENTATION('',(#214),#218);
#214 = LINE('',#215,#216);
#215 = CARTESIAN_POINT('',(0.,0.));
#216 = VECTOR('',#217,1.);
#217 = DIRECTION('',(0.,1.));
#218 = ( GEOMETRIC_REPRESENTATION_CONTEXT(2) 
PARAMETRIC_REPRESENTATION_CONTEXT() REPRESENTATION_CONTEXT('2D SPACE',''
  ) );
#219 = PCURVE('',#188,#220);
#220 = DEFINITIONAL_REPRESENTATION('',(#221),#225);
#221 = LINE('',#222,#223);
#222 = CARTESIAN_POINT('',(6.28318530718,0.));
#223 = VECTOR('',#224,1.);
#224 = DIRECTION('',(0.,1.));
#225 = ( GEOMETRIC_REPRESENTATION_CONTEXT(2) 
PARAMETRIC_REPRESENTATION_CONTEXT() REPRESENTATION_CONTEXT('2D SPACE',''
  ) );
#226 = ORIENTED_EDGE('',*,*,#227,.F.);
#227 = EDGE_CURVE('',#205,#205,#228,.T.);
#228 = SURFACE_CURVE('',#229,(#234,#241),.PCURVE_S1.);
#229 = CIRCLE('',#230,4.);
#230 = AXIS2_PLACEMENT_3D('',#231,#232,#233);
#231 = CARTESIAN_POINT('',(0.,0.,0.5));
#232 = DIRECTION('',(0.,-0.,1.));
#233 = DIRECTION('',(1.,2.775557561563E-17,0.));
#234 = PCURVE('',#188,#235);
#235 = DEFINITIONAL_REPRESENTATION('',(#236),#240);
#236 = LINE('',#237,#238);
#237 = CARTESIAN_POINT('',(0.,0.5));
#238 = VECTOR('',#239,1.);
#239 = DIRECTION('',(1.,0.));
#240 = ( GEOMETRIC_REPRESENTATION_CONTEXT(2) 
PARAMETRIC_REPRESENTATION_CONTEXT() REPRESENTATION_CONTEXT('2D SPACE',''
  ) );
#241 = PCURVE('',#242,#247);
#242 = PLANE('',#243);
#243 = AXIS2_PLACEMENT_3D('',#244,#245,#246);
#244 = CARTESIAN_POINT('',(0.,0.,0.5));
#245 = DIRECTION('',(0.,0.,1.));
#246 = DIRECTION('',(1.,2.775557561563E-17,0.));
#247 = DEFINITIONAL_REPRESENTATION('',(#248),#252);
#248 = CIRCLE('',#249,4.);
#249 = AXIS2_PLACEMENT_2D('',#250,#251);
#250 = CARTESIAN_POINT('',(0.,0.));
#251 = DIRECTION('',(1.,-0.));
#252 = ( GEOMETRIC_REPRESENTATION_CONTEXT(2) 
PARAMETRIC_REPRESENTATION_CONTEXT() REPRESENTATION_CONTEXT('2D SPACE',''
  ) );
#253 = ORIENTED_EDGE('',*,*,#204,.F.);
#254 = ADVANCED_FACE('',(#255,#413),#242,.F.);
#255 = FACE_BOUND('',#256,.T.);
#256 = EDGE_LOOP('',(#257,#285,#311,#337,#363,#389));
#257 = ORIENTED_EDGE('',*,*,#258,.F.);
#258 = EDGE_CURVE('',#259,#261,#263,.T.);
#259 = VERTEX_POINT('',#260);
#260 = CARTESIAN_POINT('',(4.62,1.110223024625E-16,0.5));
#261 = VERTEX_POINT('',#262);
#262 = CARTESIAN_POINT('',(2.31,4.001037365484,0.5));
#263 = SURFACE_CURVE('',#264,(#268,#274),.PCURVE_S1.);
#264 = LINE('',#265,#266);
#265 = CARTESIAN_POINT('',(4.0425,1.000259341371,0.5));
#266 = VECTOR('',#267,1.);
#267 = DIRECTION('',(-0.5,0.866025403784,0.));
#268 = PCURVE('',#242,#269);
#269 = DEFINITIONAL_REPRESENTATION('',(#270),#273);
#270 = B_SPLINE_CURVE_WITH_KNOTS('',1,(#271,#272),.UNSPECIFIED.,.F.,.F.,
  (2,2),(-1.617,3.927),.PIECEWISE_BEZIER_KNOTS.);
#271 = CARTESIAN_POINT('',(4.851,-0.400103736548));
#272 = CARTESIAN_POINT('',(2.079,4.401141102033));
#273 = ( GEOMETRIC_REPRESENTATION_CONTEXT(2) 
PARAMETRIC_REPRESENTATION_CONTEXT() REPRESENTATION_CONTEXT('2D SPACE',''
  ) );
#274 = PCURVE('',#275,#280);
#275 = PLANE('',#276);
#276 = AXIS2_PLACEMENT_3D('',#277,#278,#279);
#277 = CARTESIAN_POINT('',(4.62,0.,0.));
#278 = DIRECTION('',(-0.866025403784,-0.5,0.));
#279 = DIRECTION('',(-0.5,0.866025403784,0.));
#280 = DEFINITIONAL_REPRESENTATION('',(#281),#284);
#281 = B_SPLINE_CURVE_WITH_KNOTS('',1,(#282,#283),.UNSPECIFIED.,.F.,.F.,
  (2,2),(-1.617,3.927),.PIECEWISE_BEZIER_KNOTS.);
#282 = CARTESIAN_POINT('',(-0.462,-0.5));
#283 = CARTESIAN_POINT('',(5.082,-0.5));
#284 = ( GEOMETRIC_REPRESENTATION_CONTEXT(2) 
PARAMETRIC_REPRESENTATION_CONTEXT() REPRESENTATION_CONTEXT('2D SPACE',''
  ) );
#285 = ORIENTED_EDGE('',*,*,#286,.F.);
#286 = EDGE_CURVE('',#287,#259,#289,.T.);
#287 = VERTEX_POINT('',#288);
#288 = CARTESIAN_POINT('',(2.31,-4.001037365484,0.5));
#289 = SURFACE_CURVE('',#290,(#294,#300),.PCURVE_S1.);
#290 = LINE('',#291,#292);
#291 = CARTESIAN_POINT('',(2.8875,-3.000778024113,0.5));
#292 = VECTOR('',#293,1.);
#293 = DIRECTION('',(0.5,0.866025403784,0.));
#294 = PCURVE('',#242,#295);
#295 = DEFINITIONAL_REPRESENTATION('',(#296),#299);
#296 = B_SPLINE_CURVE_WITH_KNOTS('',1,(#297,#298),.UNSPECIFIED.,.F.,.F.,
  (2,2),(-1.617,3.927),.PIECEWISE_BEZIER_KNOTS.);
#297 = CARTESIAN_POINT('',(2.079,-4.401141102033));
#298 = CARTESIAN_POINT('',(4.851,0.400103736548));
#299 = ( GEOMETRIC_REPRESENTATION_CONTEXT(2) 
PARAMETRIC_REPRESENTATION_CONTEXT() REPRESENTATION_CONTEXT('2D SPACE',''
  ) );
#300 = PCURVE('',#301,#306);
#301 = PLANE('',#302);
#302 = AXIS2_PLACEMENT_3D('',#303,#304,#305);
#303 = CARTESIAN_POINT('',(2.31,-4.001037365484,0.));
#304 = DIRECTION('',(-0.866025403784,0.5,0.));
#305 = DIRECTION('',(0.5,0.866025403784,0.));
#306 = DEFINITIONAL_REPRESENTATION('',(#307),#310);
#307 = B_SPLINE_CURVE_WITH_KNOTS('',1,(#308,#309),.UNSPECIFIED.,.F.,.F.,
  (2,2),(-1.617,3.927),.PIECEWISE_BEZIER_KNOTS.);
#308 = CARTESIAN_POINT('',(-0.462,-0.5));
#309 = CARTESIAN_POINT('',(5.082,-0.5));
#310 = ( GEOMETRIC_REPRESENTATION_CONTEXT(2) 
PARAMETRIC_REPRESENTATION_CONTEXT() REPRESENTATION_CONTEXT('2D SPACE',''
  ) );
#311 = ORIENTED_EDGE('',*,*,#312,.F.);
#312 = EDGE_CURVE('',#313,#287,#315,.T.);
#313 = VERTEX_POINT('',#314);
#314 = CARTESIAN_POINT('',(-2.31,-4.001037365484,0.5));
#315 = SURFACE_CURVE('',#316,(#320,#326),.PCURVE_S1.);
#316 = LINE('',#317,#318);
#317 = CARTESIAN_POINT('',(-1.155,-4.001037365484,0.5));
#318 = VECTOR('',#319,1.);
#319 = DIRECTION('',(1.,-5.8E-16,0.));
#320 = PCURVE('',#242,#321);
#321 = DEFINITIONAL_REPRESENTATION('',(#322),#325);
#322 = B_SPLINE_CURVE_WITH_KNOTS('',1,(#323,#324),.UNSPECIFIED.,.F.,.F.,
  (2,2),(-1.617,3.927),.PIECEWISE_BEZIER_KNOTS.);
#323 = CARTESIAN_POINT('',(-2.772,-4.001037365484));
#324 = CARTESIAN_POINT('',(2.772,-4.001037365484));
#325 = ( GEOMETRIC_REPRESENTATION_CONTEXT(2) 
PARAMETRIC_REPRESENTATION_CONTEXT() REPRESENTATION_CONTEXT('2D SPACE',''
  ) );
#326 = PCURVE('',#327,#332);
#327 = PLANE('',#328);
#328 = AXIS2_PLACEMENT_3D('',#329,#330,#331);
#329 = CARTESIAN_POINT('',(-2.31,-4.001037365484,0.));
#330 = DIRECTION('',(5.8E-16,1.,0.));
#331 = DIRECTION('',(1.,-5.8E-16,0.));
#332 = DEFINITIONAL_REPRESENTATION('',(#333),#336);
#333 = B_SPLINE_CURVE_WITH_KNOTS('',1,(#334,#335),.UNSPECIFIED.,.F.,.F.,
  (2,2),(-1.617,3.927),.PIECEWISE_BEZIER_KNOTS.);
#334 = CARTESIAN_POINT('',(-0.462,-0.5));
#335 = CARTESIAN_POINT('',(5.082,-0.5));
#336 = ( GEOMETRIC_REPRESENTATION_CONTEXT(2) 
PARAMETRIC_REPRESENTATION_CONTEXT() REPRESENTATION_CONTEXT('2D SPACE',''
  ) );
#337 = ORIENTED_EDGE('',*,*,#338,.F.);
#338 = EDGE_CURVE('',#339,#313,#341,.T.);
#339 = VERTEX_POINT('',#340);
#340 = CARTESIAN_POINT('',(-4.62,-7.787276549666E-14,0.5));
#341 = SURFACE_CURVE('',#342,(#346,#352),.PCURVE_S1.);
#342 = LINE('',#343,#344);
#343 = CARTESIAN_POINT('',(-4.0425,-1.000259341371,0.5));
#344 = VECTOR('',#345,1.);
#345 = DIRECTION('',(0.5,-0.866025403784,0.));
#346 = PCURVE('',#242,#347);
#347 = DEFINITIONAL_REPRESENTATION('',(#348),#351);
#348 = B_SPLINE_CURVE_WITH_KNOTS('',1,(#349,#350),.UNSPECIFIED.,.F.,.F.,
  (2,2),(-1.617,3.927),.PIECEWISE_BEZIER_KNOTS.);
#349 = CARTESIAN_POINT('',(-4.851,0.400103736548));
#350 = CARTESIAN_POINT('',(-2.079,-4.401141102033));
#351 = ( GEOMETRIC_REPRESENTATION_CONTEXT(2) 
PARAMETRIC_REPRESENTATION_CONTEXT() REPRESENTATION_CONTEXT('2D SPACE',''
  ) );
#352 = PCURVE('',#353,#358);
#353 = PLANE('',#354);
#354 = AXIS2_PLACEMENT_3D('',#355,#356,#357);
#355 = CARTESIAN_POINT('',(-4.62,1.78E-15,0.));
#356 = DIRECTION('',(0.866025403784,0.5,0.));
#357 = DIRECTION('',(0.5,-0.866025403784,0.));
#358 = DEFINITIONAL_REPRESENTATION('',(#359),#362);
#359 = B_SPLINE_CURVE_WITH_KNOTS('',1,(#360,#361),.UNSPECIFIED.,.F.,.F.,
  (2,2),(-1.617,3.927),.PIECEWISE_BEZIER_KNOTS.);
#360 = CARTESIAN_POINT('',(-0.462,-0.5));
#361 = CARTESIAN_POINT('',(5.082,-0.5));
#362 = ( GEOMETRIC_REPRESENTATION_CONTEXT(2) 
PARAMETRIC_REPRESENTATION_CONTEXT() REPRESENTATION_CONTEXT('2D SPACE',''
  ) );
#363 = ORIENTED_EDGE('',*,*,#364,.F.);
#364 = EDGE_CURVE('',#365,#339,#367,.T.);
#365 = VERTEX_POINT('',#366);
#366 = CARTESIAN_POINT('',(-2.31,4.001037365484,0.5));
#367 = SURFACE_CURVE('',#368,(#372,#378),.PCURVE_S1.);
#368 = LINE('',#369,#370);
#369 = CARTESIAN_POINT('',(-2.8875,3.000778024113,0.5));
#370 = VECTOR('',#371,1.);
#371 = DIRECTION('',(-0.5,-0.866025403784,0.));
#372 = PCURVE('',#242,#373);
#373 = DEFINITIONAL_REPRESENTATION('',(#374),#377);
#374 = B_SPLINE_CURVE_WITH_KNOTS('',1,(#375,#376),.UNSPECIFIED.,.F.,.F.,
  (2,2),(-1.617,3.927),.PIECEWISE_BEZIER_KNOTS.);
#375 = CARTESIAN_POINT('',(-2.079,4.401141102033));
#376 = CARTESIAN_POINT('',(-4.851,-0.400103736548));
#377 = ( GEOMETRIC_REPRESENTATION_CONTEXT(2) 
PARAMETRIC_REPRESENTATION_CONTEXT() REPRESENTATION_CONTEXT('2D SPACE',''
  ) );
#378 = PCURVE('',#379,#384);
#379 = PLANE('',#380);
#380 = AXIS2_PLACEMENT_3D('',#381,#382,#383);
#381 = CARTESIAN_POINT('',(-2.31,4.001037365484,0.));
#382 = DIRECTION('',(0.866025403784,-0.5,0.));
#383 = DIRECTION('',(-0.5,-0.866025403784,0.));
#384 = DEFINITIONAL_REPRESENTATION('',(#385),#388);
#385 = B_SPLINE_CURVE_WITH_KNOTS('',1,(#386,#387),.UNSPECIFIED.,.F.,.F.,
  (2,2),(-1.617,3.927),.PIECEWISE_BEZIER_KNOTS.);
#386 = CARTESIAN_POINT('',(-0.462,-0.5));
#387 = CARTESIAN_POINT('',(5.082,-0.5));
#388 = ( GEOMETRIC_REPRESENTATION_CONTEXT(2) 
PARAMETRIC_REPRESENTATION_CONTEXT() REPRESENTATION_CONTEXT('2D SPACE',''
  ) );
#389 = ORIENTED_EDGE('',*,*,#390,.F.);
#390 = EDGE_CURVE('',#261,#365,#391,.T.);
#391 = SURFACE_CURVE('',#392,(#396,#402),.PCURVE_S1.);
#392 = LINE('',#393,#394);
#393 = CARTESIAN_POINT('',(1.155,4.001037365484,0.5));
#394 = VECTOR('',#395,1.);
#395 = DIRECTION('',(-1.,1.9E-16,0.));
#396 = PCURVE('',#242,#397);
#397 = DEFINITIONAL_REPRESENTATION('',(#398),#401);
#398 = B_SPLINE_CURVE_WITH_KNOTS('',1,(#399,#400),.UNSPECIFIED.,.F.,.F.,
  (2,2),(-1.617,3.927),.PIECEWISE_BEZIER_KNOTS.);
#399 = CARTESIAN_POINT('',(2.772,4.001037365484));
#400 = CARTESIAN_POINT('',(-2.772,4.001037365484));
#401 = ( GEOMETRIC_REPRESENTATION_CONTEXT(2) 
PARAMETRIC_REPRESENTATION_CONTEXT() REPRESENTATION_CONTEXT('2D SPACE',''
  ) );
#402 = PCURVE('',#403,#408);
#403 = PLANE('',#404);
#404 = AXIS2_PLACEMENT_3D('',#405,#406,#407);
#405 = CARTESIAN_POINT('',(2.31,4.001037365484,0.));
#406 = DIRECTION('',(-1.9E-16,-1.,0.));
#407 = DIRECTION('',(-1.,1.9E-16,0.));
#408 = DEFINITIONAL_REPRESENTATION('',(#409),#412);
#409 = B_SPLINE_CURVE_WITH_KNOTS('',1,(#410,#411),.UNSPECIFIED.,.F.,.F.,
  (2,2),(-1.617,3.927),.PIECEWISE_BEZIER_KNOTS.);
#410 = CARTESIAN_POINT('',(-0.462,-0.5));
#411 = CARTESIAN_POINT('',(5.082,-0.5));
#412 = ( GEOMETRIC_REPRESENTATION_CONTEXT(2) 
PARAMETRIC_REPRESENTATION_CONTEXT() REPRESENTATION_CONTEXT('2D SPACE',''
  ) );
#413 = FACE_BOUND('',#414,.T.);
#414 = EDGE_LOOP('',(#415));
#415 = ORIENTED_EDGE('',*,*,#227,.T.);
#416 = ADVANCED_FACE('',(#417),#275,.F.);
#417 = FACE_BOUND('',#418,.F.);
#418 = EDGE_LOOP('',(#419,#420,#443,#479));
#419 = ORIENTED_EDGE('',*,*,#258,.F.);
#420 = ORIENTED_EDGE('',*,*,#421,.T.);
#421 = EDGE_CURVE('',#259,#422,#424,.T.);
#422 = VERTEX_POINT('',#423);
#423 = CARTESIAN_POINT('',(4.62,7.309803502725E-16,3.292042833102));
#424 = SURFACE_CURVE('',#425,(#429,#436),.PCURVE_S1.);
#425 = LINE('',#426,#427);
#426 = CARTESIAN_POINT('',(4.62,1.110223024625E-16,0.5));
#427 = VECTOR('',#428,1.);
#428 = DIRECTION('',(0.,2.22044604925E-16,1.));
#429 = PCURVE('',#275,#430);
#430 = DEFINITIONAL_REPRESENTATION('',(#431),#435);
#431 = LINE('',#432,#433);
#432 = CARTESIAN_POINT('',(7.211110073938E-17,-0.5));
#433 = VECTOR('',#434,1.);
#434 = DIRECTION('',(1.922962686384E-16,-1.));
#435 = ( GEOMETRIC_REPRESENTATION_CONTEXT(2) 
PARAMETRIC_REPRESENTATION_CONTEXT() REPRESENTATION_CONTEXT('2D SPACE',''
  ) );
#436 = PCURVE('',#301,#437);
#437 = DEFINITIONAL_REPRESENTATION('',(#438),#442);
#438 = LINE('',#439,#440);
#439 = CARTESIAN_POINT('',(4.62,-0.5));
#440 = VECTOR('',#441,1.);
#441 = DIRECTION('',(1.922962686384E-16,-1.));
#442 = ( GEOMETRIC_REPRESENTATION_CONTEXT(2) 
PARAMETRIC_REPRESENTATION_CONTEXT() REPRESENTATION_CONTEXT('2D SPACE',''
  ) );
#443 = ORIENTED_EDGE('',*,*,#444,.F.);
#444 = EDGE_CURVE('',#445,#422,#447,.T.);
#445 = VERTEX_POINT('',#446);
#446 = CARTESIAN_POINT('',(2.31,4.001037365484,3.292042833102));
#447 = SURFACE_CURVE('',#448,(#453,#460),.PCURVE_S1.);
#448 = HYPERBOLA('',#449,2.31,4.001037365484);
#449 = AXIS2_PLACEMENT_3D('',#450,#451,#452);
#450 = CARTESIAN_POINT('',(3.465,2.000518682742,5.959401076759));
#451 = DIRECTION('',(-0.866025403784,-0.5,-0.));
#452 = DIRECTION('',(0.,0.,-1.));
#453 = PCURVE('',#275,#454);
#454 = DEFINITIONAL_REPRESENTATION('',(#455),#459);
#455 = ( BOUNDED_CURVE() B_SPLINE_CURVE(2,(#456,#457,#458),
.UNSPECIFIED.,.F.,.F.) B_SPLINE_CURVE_WITH_KNOTS((3,3),(-0.549306144334,
0.549306144334),.PIECEWISE_BEZIER_KNOTS.) CURVE() 
GEOMETRIC_REPRESENTATION_ITEM() RATIONAL_B_SPLINE_CURVE((1.,
1.154700538379,1.)) REPRESENTATION_ITEM('') );
#456 = CARTESIAN_POINT('',(4.62,-3.292042833102));
#457 = CARTESIAN_POINT('',(2.31,-3.958882394016));
#458 = CARTESIAN_POINT('',(8.881784197001E-16,-3.292042833102));
#459 = ( GEOMETRIC_REPRESENTATION_CONTEXT(2) 
PARAMETRIC_REPRESENTATION_CONTEXT() REPRESENTATION_CONTEXT('2D SPACE',''
  ) );
#460 = PCURVE('',#461,#466);
#461 = CONICAL_SURFACE('',#462,4.,1.047197551197);
#462 = AXIS2_PLACEMENT_3D('',#463,#464,#465);
#463 = CARTESIAN_POINT('',(0.,0.,3.65));
#464 = DIRECTION('',(-0.,-0.,-1.));
#465 = DIRECTION('',(1.,2.026157019941E-16,0.));
#466 = DEFINITIONAL_REPRESENTATION('',(#467),#478);
#467 = B_SPLINE_CURVE_WITH_KNOTS('',9,(#468,#469,#470,#471,#472,#473,
    #474,#475,#476,#477),.UNSPECIFIED.,.F.,.F.,(10,10),(-0.549306144334,
    0.549306144334),.PIECEWISE_BEZIER_KNOTS.);
#468 = CARTESIAN_POINT('',(-1.047197551197,0.357957166898));
#469 = CARTESIAN_POINT('',(-0.94148353443,0.195157581078));
#470 = CARTESIAN_POINT('',(-0.828510925676,7.70714014803E-02));
#471 = CARTESIAN_POINT('',(-0.709417965291,1.898656869628E-04));
#472 = CARTESIAN_POINT('',(-0.586079821405,-3.771087472381E-02));
#473 = CARTESIAN_POINT('',(-0.461117729777,-3.771087472364E-02));
#474 = CARTESIAN_POINT('',(-0.337779585901,1.898656862807E-04));
#475 = CARTESIAN_POINT('',(-0.218686625517,7.707140148037E-02));
#476 = CARTESIAN_POINT('',(-0.105714016766,0.195157581078));
#477 = CARTESIAN_POINT('',(0.,0.357957166898));
#478 = ( GEOMETRIC_REPRESENTATION_CONTEXT(2) 
PARAMETRIC_REPRESENTATION_CONTEXT() REPRESENTATION_CONTEXT('2D SPACE',''
  ) );
#479 = ORIENTED_EDGE('',*,*,#480,.F.);
#480 = EDGE_CURVE('',#261,#445,#481,.T.);
#481 = SURFACE_CURVE('',#482,(#486,#493),.PCURVE_S1.);
#482 = LINE('',#483,#484);
#483 = CARTESIAN_POINT('',(2.31,4.001037365484,0.));
#484 = VECTOR('',#485,1.);
#485 = DIRECTION('',(0.,0.,1.));
#486 = PCURVE('',#275,#487);
#487 = DEFINITIONAL_REPRESENTATION('',(#488),#492);
#488 = LINE('',#489,#490);
#489 = CARTESIAN_POINT('',(4.62,0.));
#490 = VECTOR('',#491,1.);
#491 = DIRECTION('',(0.,-1.));
#492 = ( GEOMETRIC_REPRESENTATION_CONTEXT(2) 
PARAMETRIC_REPRESENTATION_CONTEXT() REPRESENTATION_CONTEXT('2D SPACE',''
  ) );
#493 = PCURVE('',#403,#494);
#494 = DEFINITIONAL_REPRESENTATION('',(#495),#499);
#495 = LINE('',#496,#497);
#496 = CARTESIAN_POINT('',(0.,0.));
#497 = VECTOR('',#498,1.);
#498 = DIRECTION('',(0.,-1.));
#499 = ( GEOMETRIC_REPRESENTATION_CONTEXT(2) 
PARAMETRIC_REPRESENTATION_CONTEXT() REPRESENTATION_CONTEXT('2D SPACE',''
  ) );
#500 = ADVANCED_FACE('',(#501),#403,.F.);
#501 = FACE_BOUND('',#502,.F.);
#502 = EDGE_LOOP('',(#503,#504,#505,#536));
#503 = ORIENTED_EDGE('',*,*,#390,.F.);
#504 = ORIENTED_EDGE('',*,*,#480,.T.);
#505 = ORIENTED_EDGE('',*,*,#506,.F.);
#506 = EDGE_CURVE('',#507,#445,#509,.T.);
#507 = VERTEX_POINT('',#508);
#508 = CARTESIAN_POINT('',(-2.31,4.001037365484,3.292042833102));
#509 = SURFACE_CURVE('',#510,(#515,#522),.PCURVE_S1.);
#510 = HYPERBOLA('',#511,2.31,4.001037365484);
#511 = AXIS2_PLACEMENT_3D('',#512,#513,#514);
#512 = CARTESIAN_POINT('',(7.60197099442E-16,4.001037365484,
    5.959401076759));
#513 = DIRECTION('',(-1.9E-16,-1.,-0.));
#514 = DIRECTION('',(0.,0.,-1.));
#515 = PCURVE('',#403,#516);
#516 = DEFINITIONAL_REPRESENTATION('',(#517),#521);
#517 = ( BOUNDED_CURVE() B_SPLINE_CURVE(2,(#518,#519,#520),
.UNSPECIFIED.,.F.,.F.) B_SPLINE_CURVE_WITH_KNOTS((3,3),(-0.549306144334,
0.549306144334),.PIECEWISE_BEZIER_KNOTS.) CURVE() 
GEOMETRIC_REPRESENTATION_ITEM() RATIONAL_B_SPLINE_CURVE((1.,
1.154700538379,1.)) REPRESENTATION_ITEM('') );
#518 = CARTESIAN_POINT('',(4.62,-3.292042833102));
#519 = CARTESIAN_POINT('',(2.31,-3.958882394016));
#520 = CARTESIAN_POINT('',(-8.881784197001E-16,-3.292042833102));
#521 = ( GEOMETRIC_REPRESENTATION_CONTEXT(2) 
PARAMETRIC_REPRESENTATION_CONTEXT() REPRESENTATION_CONTEXT('2D SPACE',''
  ) );
#522 = PCURVE('',#461,#523);
#523 = DEFINITIONAL_REPRESENTATION('',(#524),#535);
#524 = B_SPLINE_CURVE_WITH_KNOTS('',9,(#525,#526,#527,#528,#529,#530,
    #531,#532,#533,#534),.UNSPECIFIED.,.F.,.F.,(10,10),(-0.549306144334,
    0.549306144334),.PIECEWISE_BEZIER_KNOTS.);
#525 = CARTESIAN_POINT('',(-2.094395102393,0.357957166898));
#526 = CARTESIAN_POINT('',(-1.988681085627,0.195157581078));
#527 = CARTESIAN_POINT('',(-1.87570847688,7.70714014803E-02));
#528 = CARTESIAN_POINT('',(-1.756615516468,1.898656866501E-04));
#529 = CARTESIAN_POINT('',(-1.633277372581,-3.771087472364E-02));
#530 = CARTESIAN_POINT('',(-1.508315280895,-3.771087472376E-02));
#531 = CARTESIAN_POINT('',(-1.384977137132,1.898656862807E-04));
#532 = CARTESIAN_POINT('',(-1.265884176712,7.70714014804E-02));
#533 = CARTESIAN_POINT('',(-1.152911567963,0.195157581078));
#534 = CARTESIAN_POINT('',(-1.047197551197,0.357957166898));
#535 = ( GEOMETRIC_REPRESENTATION_CONTEXT(2) 
PARAMETRIC_REPRESENTATION_CONTEXT() REPRESENTATION_CONTEXT('2D SPACE',''
  ) );
#536 = ORIENTED_EDGE('',*,*,#537,.F.);
#537 = EDGE_CURVE('',#365,#507,#538,.T.);
#538 = SURFACE_CURVE('',#539,(#543,#550),.PCURVE_S1.);
#539 = LINE('',#540,#541);
#540 = CARTESIAN_POINT('',(-2.31,4.001037365484,0.));
#541 = VECTOR('',#542,1.);
#542 = DIRECTION('',(0.,0.,1.));
#543 = PCURVE('',#403,#544);
#544 = DEFINITIONAL_REPRESENTATION('',(#545),#549);
#545 = LINE('',#546,#547);
#546 = CARTESIAN_POINT('',(4.62,0.));
#547 = VECTOR('',#548,1.);
#548 = DIRECTION('',(0.,-1.));
#549 = ( GEOMETRIC_REPRESENTATION_CONTEXT(2) 
PARAMETRIC_REPRESENTATION_CONTEXT() REPRESENTATION_CONTEXT('2D SPACE',''
  ) );
#550 = PCURVE('',#379,#551);
#551 = DEFINITIONAL_REPRESENTATION('',(#552),#556);
#552 = LINE('',#553,#554);
#553 = CARTESIAN_POINT('',(0.,0.));
#554 = VECTOR('',#555,1.);
#555 = DIRECTION('',(0.,-1.));
#556 = ( GEOMETRIC_REPRESENTATION_CONTEXT(2) 
PARAMETRIC_REPRESENTATION_CONTEXT() REPRESENTATION_CONTEXT('2D SPACE',''
  ) );
#557 = ADVANCED_FACE('',(#558),#379,.F.);
#558 = FACE_BOUND('',#559,.F.);
#559 = EDGE_LOOP('',(#560,#561,#562,#593));
#560 = ORIENTED_EDGE('',*,*,#364,.F.);
#561 = ORIENTED_EDGE('',*,*,#537,.T.);
#562 = ORIENTED_EDGE('',*,*,#563,.F.);
#563 = EDGE_CURVE('',#564,#507,#566,.T.);
#564 = VERTEX_POINT('',#565);
#565 = CARTESIAN_POINT('',(-4.62,-7.818274452056E-14,3.292042833102));
#566 = SURFACE_CURVE('',#567,(#572,#579),.PCURVE_S1.);
#567 = HYPERBOLA('',#568,2.31,4.001037365484);
#568 = AXIS2_PLACEMENT_3D('',#569,#570,#571);
#569 = CARTESIAN_POINT('',(-3.465,2.000518682742,5.959401076759));
#570 = DIRECTION('',(0.866025403784,-0.5,0.));
#571 = DIRECTION('',(0.,0.,-1.));
#572 = PCURVE('',#379,#573);
#573 = DEFINITIONAL_REPRESENTATION('',(#574),#578);
#574 = ( BOUNDED_CURVE() B_SPLINE_CURVE(2,(#575,#576,#577),
.UNSPECIFIED.,.F.,.F.) B_SPLINE_CURVE_WITH_KNOTS((3,3),(-0.549306144334,
0.549306144334),.PIECEWISE_BEZIER_KNOTS.) CURVE() 
GEOMETRIC_REPRESENTATION_ITEM() RATIONAL_B_SPLINE_CURVE((1.,
1.154700538379,1.)) REPRESENTATION_ITEM('') );
#575 = CARTESIAN_POINT('',(4.62,-3.292042833102));
#576 = CARTESIAN_POINT('',(2.31,-3.958882394016));
#577 = CARTESIAN_POINT('',(1.33226762955E-15,-3.292042833102));
#578 = ( GEOMETRIC_REPRESENTATION_CONTEXT(2) 
PARAMETRIC_REPRESENTATION_CONTEXT() REPRESENTATION_CONTEXT('2D SPACE',''
  ) );
#579 = PCURVE('',#461,#580);
#580 = DEFINITIONAL_REPRESENTATION('',(#581),#592);
#581 = B_SPLINE_CURVE_WITH_KNOTS('',9,(#582,#583,#584,#585,#586,#587,
    #588,#589,#590,#591),.UNSPECIFIED.,.F.,.F.,(10,10),(-0.549306144334,
    0.549306144334),.PIECEWISE_BEZIER_KNOTS.);
#582 = CARTESIAN_POINT('',(-3.14159265359,0.357957166898));
#583 = CARTESIAN_POINT('',(-3.035878636824,0.195157581078));
#584 = CARTESIAN_POINT('',(-2.922906028047,7.707140148035E-02));
#585 = CARTESIAN_POINT('',(-2.803813067709,1.898656867638E-04));
#586 = CARTESIAN_POINT('',(-2.680474923676,-3.771087472342E-02));
#587 = CARTESIAN_POINT('',(-2.555512832245,-3.77108747237E-02));
#588 = CARTESIAN_POINT('',(-2.432174688234,1.89865686508E-04));
#589 = CARTESIAN_POINT('',(-2.313081727928,7.707140148037E-02));
#590 = CARTESIAN_POINT('',(-2.200109119159,0.195157581078));
#591 = CARTESIAN_POINT('',(-2.094395102393,0.357957166898));
#592 = ( GEOMETRIC_REPRESENTATION_CONTEXT(2) 
PARAMETRIC_REPRESENTATION_CONTEXT() REPRESENTATION_CONTEXT('2D SPACE',''
  ) );
#593 = ORIENTED_EDGE('',*,*,#594,.F.);
#594 = EDGE_CURVE('',#339,#564,#595,.T.);
#595 = SURFACE_CURVE('',#596,(#600,#607),.PCURVE_S1.);
#596 = LINE('',#597,#598);
#597 = CARTESIAN_POINT('',(-4.62,1.78E-15,0.));
#598 = VECTOR('',#599,1.);
#599 = DIRECTION('',(0.,0.,1.));
#600 = PCURVE('',#379,#601);
#601 = DEFINITIONAL_REPRESENTATION('',(#602),#606);
#602 = LINE('',#603,#604);
#603 = CARTESIAN_POINT('',(4.62,0.));
#604 = VECTOR('',#605,1.);
#605 = DIRECTION('',(0.,-1.));
#606 = ( GEOMETRIC_REPRESENTATION_CONTEXT(2) 
PARAMETRIC_REPRESENTATION_CONTEXT() REPRESENTATION_CONTEXT('2D SPACE',''
  ) );
#607 = PCURVE('',#353,#608);
#608 = DEFINITIONAL_REPRESENTATION('',(#609),#613);
#609 = LINE('',#610,#611);
#610 = CARTESIAN_POINT('',(0.,0.));
#611 = VECTOR('',#612,1.);
#612 = DIRECTION('',(0.,-1.));
#613 = ( GEOMETRIC_REPRESENTATION_CONTEXT(2) 
PARAMETRIC_REPRESENTATION_CONTEXT() REPRESENTATION_CONTEXT('2D SPACE',''
  ) );
#614 = ADVANCED_FACE('',(#615),#353,.F.);
#615 = FACE_BOUND('',#616,.F.);
#616 = EDGE_LOOP('',(#617,#618,#619,#650));
#617 = ORIENTED_EDGE('',*,*,#338,.F.);
#618 = ORIENTED_EDGE('',*,*,#594,.T.);
#619 = ORIENTED_EDGE('',*,*,#620,.F.);
#620 = EDGE_CURVE('',#621,#564,#623,.T.);
#621 = VERTEX_POINT('',#622);
#622 = CARTESIAN_POINT('',(-2.31,-4.001037365484,3.292042833102));
#623 = SURFACE_CURVE('',#624,(#629,#636),.PCURVE_S1.);
#624 = HYPERBOLA('',#625,2.31,4.001037365484);
#625 = AXIS2_PLACEMENT_3D('',#626,#627,#628);
#626 = CARTESIAN_POINT('',(-3.465,-2.000518682742,5.959401076759));
#627 = DIRECTION('',(0.866025403784,0.5,0.));
#628 = DIRECTION('',(0.,0.,-1.));
#629 = PCURVE('',#353,#630);
#630 = DEFINITIONAL_REPRESENTATION('',(#631),#635);
#631 = ( BOUNDED_CURVE() B_SPLINE_CURVE(2,(#632,#633,#634),
.UNSPECIFIED.,.F.,.F.) B_SPLINE_CURVE_WITH_KNOTS((3,3),(-0.549306144334,
0.549306144334),.PIECEWISE_BEZIER_KNOTS.) CURVE() 
GEOMETRIC_REPRESENTATION_ITEM() RATIONAL_B_SPLINE_CURVE((1.,
1.154700538379,1.)) REPRESENTATION_ITEM('') );
#632 = CARTESIAN_POINT('',(4.62,-3.292042833102));
#633 = CARTESIAN_POINT('',(2.31,-3.958882394016));
#634 = CARTESIAN_POINT('',(0.,-3.292042833102));
#635 = ( GEOMETRIC_REPRESENTATION_CONTEXT(2) 
PARAMETRIC_REPRESENTATION_CONTEXT() REPRESENTATION_CONTEXT('2D SPACE',''
  ) );
#636 = PCURVE('',#461,#637);
#637 = DEFINITIONAL_REPRESENTATION('',(#638),#649);
#638 = B_SPLINE_CURVE_WITH_KNOTS('',9,(#639,#640,#641,#642,#643,#644,
    #645,#646,#647,#648),.UNSPECIFIED.,.F.,.F.,(10,10),(-0.549306144334,
    0.549306144334),.PIECEWISE_BEZIER_KNOTS.);
#639 = CARTESIAN_POINT('',(-4.188790204786,0.357957166898));
#640 = CARTESIAN_POINT('',(-4.08307618802,0.195157581078));
#641 = CARTESIAN_POINT('',(-3.970103579271,7.707140148039E-02));
#642 = CARTESIAN_POINT('',(-3.851010618775,1.898656864796E-04));
#643 = CARTESIAN_POINT('',(-3.727672475055,-3.771087472381E-02));
#644 = CARTESIAN_POINT('',(-3.602710383071,-3.77108747241E-02));
#645 = CARTESIAN_POINT('',(-3.479372239628,1.898656866786E-04));
#646 = CARTESIAN_POINT('',(-3.36027927909,7.707140148032E-02));
#647 = CARTESIAN_POINT('',(-3.247306670356,0.195157581078));
#648 = CARTESIAN_POINT('',(-3.14159265359,0.357957166898));
#649 = ( GEOMETRIC_REPRESENTATION_CONTEXT(2) 
PARAMETRIC_REPRESENTATION_CONTEXT() REPRESENTATION_CONTEXT('2D SPACE',''
  ) );
#650 = ORIENTED_EDGE('',*,*,#651,.F.);
#651 = EDGE_CURVE('',#313,#621,#652,.T.);
#652 = SURFACE_CURVE('',#653,(#657,#664),.PCURVE_S1.);
#653 = LINE('',#654,#655);
#654 = CARTESIAN_POINT('',(-2.31,-4.001037365484,0.));
#655 = VECTOR('',#656,1.);
#656 = DIRECTION('',(0.,0.,1.));
#657 = PCURVE('',#353,#658);
#658 = DEFINITIONAL_REPRESENTATION('',(#659),#663);
#659 = LINE('',#660,#661);
#660 = CARTESIAN_POINT('',(4.62,0.));
#661 = VECTOR('',#662,1.);
#662 = DIRECTION('',(0.,-1.));
#663 = ( GEOMETRIC_REPRESENTATION_CONTEXT(2) 
PARAMETRIC_REPRESENTATION_CONTEXT() REPRESENTATION_CONTEXT('2D SPACE',''
  ) );
#664 = PCURVE('',#327,#665);
#665 = DEFINITIONAL_REPRESENTATION('',(#666),#670);
#666 = LINE('',#667,#668);
#667 = CARTESIAN_POINT('',(0.,0.));
#668 = VECTOR('',#669,1.);
#669 = DIRECTION('',(0.,-1.));
#670 = ( GEOMETRIC_REPRESENTATION_CONTEXT(2) 
PARAMETRIC_REPRESENTATION_CONTEXT() REPRESENTATION_CONTEXT('2D SPACE',''
  ) );
#671 = ADVANCED_FACE('',(#672),#327,.F.);
#672 = FACE_BOUND('',#673,.F.);
#673 = EDGE_LOOP('',(#674,#675,#676,#707));
#674 = ORIENTED_EDGE('',*,*,#312,.F.);
#675 = ORIENTED_EDGE('',*,*,#651,.T.);
#676 = ORIENTED_EDGE('',*,*,#677,.F.);
#677 = EDGE_CURVE('',#678,#621,#680,.T.);
#678 = VERTEX_POINT('',#679);
#679 = CARTESIAN_POINT('',(2.31,-4.001037365484,3.292042833102));
#680 = SURFACE_CURVE('',#681,(#686,#693),.PCURVE_S1.);
#681 = HYPERBOLA('',#682,2.31,4.001037365484);
#682 = AXIS2_PLACEMENT_3D('',#683,#684,#685);
#683 = CARTESIAN_POINT('',(-2.320601671981E-15,-4.001037365484,
    5.959401076759));
#684 = DIRECTION('',(5.8E-16,1.,0.));
#685 = DIRECTION('',(0.,0.,-1.));
#686 = PCURVE('',#327,#687);
#687 = DEFINITIONAL_REPRESENTATION('',(#688),#692);
#688 = ( BOUNDED_CURVE() B_SPLINE_CURVE(2,(#689,#690,#691),
.UNSPECIFIED.,.F.,.F.) B_SPLINE_CURVE_WITH_KNOTS((3,3),(-0.549306144334,
0.549306144334),.PIECEWISE_BEZIER_KNOTS.) CURVE() 
GEOMETRIC_REPRESENTATION_ITEM() RATIONAL_B_SPLINE_CURVE((1.,
1.154700538379,1.)) REPRESENTATION_ITEM('') );
#689 = CARTESIAN_POINT('',(4.62,-3.292042833102));
#690 = CARTESIAN_POINT('',(2.31,-3.958882394016));
#691 = CARTESIAN_POINT('',(-2.6645352591E-15,-3.292042833102));
#692 = ( GEOMETRIC_REPRESENTATION_CONTEXT(2) 
PARAMETRIC_REPRESENTATION_CONTEXT() REPRESENTATION_CONTEXT('2D SPACE',''
  ) );
#693 = PCURVE('',#461,#694);
#694 = DEFINITIONAL_REPRESENTATION('',(#695),#706);
#695 = B_SPLINE_CURVE_WITH_KNOTS('',9,(#696,#697,#698,#699,#700,#701,
    #702,#703,#704,#705),.UNSPECIFIED.,.F.,.F.,(10,10),(-0.549306144334,
    0.549306144334),.PIECEWISE_BEZIER_KNOTS.);
#696 = CARTESIAN_POINT('',(-5.235987755983,0.357957166898));
#697 = CARTESIAN_POINT('',(-5.130273739217,0.195157581078));
#698 = CARTESIAN_POINT('',(-5.017301130525,7.707140148033E-02));
#699 = CARTESIAN_POINT('',(-4.898208169783,1.898656864796E-04));
#700 = CARTESIAN_POINT('',(-4.774870026624,-3.771087472359E-02));
#701 = CARTESIAN_POINT('',(-4.649907933839,-3.771087472364E-02));
#702 = CARTESIAN_POINT('',(-4.526569791051,1.898656865649E-04));
#703 = CARTESIAN_POINT('',(-4.407476830251,7.707140148034E-02));
#704 = CARTESIAN_POINT('',(-4.294504221553,0.195157581078));
#705 = CARTESIAN_POINT('',(-4.188790204786,0.357957166898));
#706 = ( GEOMETRIC_REPRESENTATION_CONTEXT(2) 
PARAMETRIC_REPRESENTATION_CONTEXT() REPRESENTATION_CONTEXT('2D SPACE',''
  ) );
#707 = ORIENTED_EDGE('',*,*,#708,.F.);
#708 = EDGE_CURVE('',#287,#678,#709,.T.);
#709 = SURFACE_CURVE('',#710,(#714,#721),.PCURVE_S1.);
#710 = LINE('',#711,#712);
#711 = CARTESIAN_POINT('',(2.31,-4.001037365484,0.));
#712 = VECTOR('',#713,1.);
#713 = DIRECTION('',(0.,0.,1.));
#714 = PCURVE('',#327,#715);
#715 = DEFINITIONAL_REPRESENTATION('',(#716),#720);
#716 = LINE('',#717,#718);
#717 = CARTESIAN_POINT('',(4.62,0.));
#718 = VECTOR('',#719,1.);
#719 = DIRECTION('',(0.,-1.));
#720 = ( GEOMETRIC_REPRESENTATION_CONTEXT(2) 
PARAMETRIC_REPRESENTATION_CONTEXT() REPRESENTATION_CONTEXT('2D SPACE',''
  ) );
#721 = PCURVE('',#301,#722);
#722 = DEFINITIONAL_REPRESENTATION('',(#723),#727);
#723 = LINE('',#724,#725);
#724 = CARTESIAN_POINT('',(0.,0.));
#725 = VECTOR('',#726,1.);
#726 = DIRECTION('',(0.,-1.));
#727 = ( GEOMETRIC_REPRESENTATION_CONTEXT(2) 
PARAMETRIC_REPRESENTATION_CONTEXT() REPRESENTATION_CONTEXT('2D SPACE',''
  ) );
#728 = ADVANCED_FACE('',(#729),#301,.F.);
#729 = FACE_BOUND('',#730,.F.);
#730 = EDGE_LOOP('',(#731,#732,#733,#762));
#731 = ORIENTED_EDGE('',*,*,#286,.F.);
#732 = ORIENTED_EDGE('',*,*,#708,.T.);
#733 = ORIENTED_EDGE('',*,*,#734,.F.);
#734 = EDGE_CURVE('',#422,#678,#735,.T.);
#735 = SURFACE_CURVE('',#736,(#741,#748),.PCURVE_S1.);
#736 = HYPERBOLA('',#737,2.31,4.001037365484);
#737 = AXIS2_PLACEMENT_3D('',#738,#739,#740);
#738 = CARTESIAN_POINT('',(3.465,-2.000518682742,5.959401076759));
#739 = DIRECTION('',(-0.866025403784,0.5,0.));
#740 = DIRECTION('',(0.,0.,-1.));
#741 = PCURVE('',#301,#742);
#742 = DEFINITIONAL_REPRESENTATION('',(#743),#747);
#743 = ( BOUNDED_CURVE() B_SPLINE_CURVE(2,(#744,#745,#746),
.UNSPECIFIED.,.F.,.F.) B_SPLINE_CURVE_WITH_KNOTS((3,3),(-0.549306144334,
0.549306144334),.PIECEWISE_BEZIER_KNOTS.) CURVE() 
GEOMETRIC_REPRESENTATION_ITEM() RATIONAL_B_SPLINE_CURVE((1.,
1.154700538379,1.)) REPRESENTATION_ITEM('') );
#744 = CARTESIAN_POINT('',(4.62,-3.292042833102));
#745 = CARTESIAN_POINT('',(2.31,-3.958882394016));
#746 = CARTESIAN_POINT('',(8.881784197001E-16,-3.292042833102));
#747 = ( GEOMETRIC_REPRESENTATION_CONTEXT(2) 
PARAMETRIC_REPRESENTATION_CONTEXT() REPRESENTATION_CONTEXT('2D SPACE',''
  ) );
#748 = PCURVE('',#461,#749);
#749 = DEFINITIONAL_REPRESENTATION('',(#750),#761);
#750 = B_SPLINE_CURVE_WITH_KNOTS('',9,(#751,#752,#753,#754,#755,#756,
    #757,#758,#759,#760),.UNSPECIFIED.,.F.,.F.,(10,10),(-0.549306144334,
    0.549306144334),.PIECEWISE_BEZIER_KNOTS.);
#751 = CARTESIAN_POINT('',(-6.28318530718,0.357957166898));
#752 = CARTESIAN_POINT('',(-6.177471290413,0.195157581078));
#753 = CARTESIAN_POINT('',(-6.064498681642,7.707140148028E-02));
#754 = CARTESIAN_POINT('',(-5.945405721373,1.898656867638E-04));
#755 = CARTESIAN_POINT('',(-5.822067577246,-3.77108747241E-02));
#756 = CARTESIAN_POINT('',(-5.697105485597,-3.771087472308E-02));
#757 = CARTESIAN_POINT('',(-5.573767341935,1.898656865365E-04));
#758 = CARTESIAN_POINT('',(-5.454674381501,7.707140148034E-02));
#759 = CARTESIAN_POINT('',(-5.341701772749,0.195157581078));
#760 = CARTESIAN_POINT('',(-5.235987755983,0.357957166898));
#761 = ( GEOMETRIC_REPRESENTATION_CONTEXT(2) 
PARAMETRIC_REPRESENTATION_CONTEXT() REPRESENTATION_CONTEXT('2D SPACE',''
  ) );
#762 = ORIENTED_EDGE('',*,*,#421,.F.);
#763 = ADVANCED_FACE('',(#764),#461,.T.);
#764 = FACE_BOUND('',#765,.F.);
#765 = EDGE_LOOP('',(#766,#789,#816,#817,#818,#819,#820,#821,#822));
#766 = ORIENTED_EDGE('',*,*,#767,.F.);
#767 = EDGE_CURVE('',#768,#422,#770,.T.);
#768 = VERTEX_POINT('',#769);
#769 = CARTESIAN_POINT('',(4.,8.104628079764E-16,3.65));
#770 = SEAM_CURVE('',#771,(#775,#782),.PCURVE_S1.);
#771 = LINE('',#772,#773);
#772 = CARTESIAN_POINT('',(4.,8.104628079764E-16,3.65));
#773 = VECTOR('',#774,1.);
#774 = DIRECTION('',(0.866025403784,-1.110223024625E-16,-0.5));
#775 = PCURVE('',#461,#776);
#776 = DEFINITIONAL_REPRESENTATION('',(#777),#781);
#777 = LINE('',#778,#779);
#778 = CARTESIAN_POINT('',(-0.,0.));
#779 = VECTOR('',#780,1.);
#780 = DIRECTION('',(-0.,1.));
#781 = ( GEOMETRIC_REPRESENTATION_CONTEXT(2) 
PARAMETRIC_REPRESENTATION_CONTEXT() REPRESENTATION_CONTEXT('2D SPACE',''
  ) );
#782 = PCURVE('',#461,#783);
#783 = DEFINITIONAL_REPRESENTATION('',(#784),#788);
#784 = LINE('',#785,#786);
#785 = CARTESIAN_POINT('',(-6.28318530718,0.));
#786 = VECTOR('',#787,1.);
#787 = DIRECTION('',(-0.,1.));
#788 = ( GEOMETRIC_REPRESENTATION_CONTEXT(2) 
PARAMETRIC_REPRESENTATION_CONTEXT() REPRESENTATION_CONTEXT('2D SPACE',''
  ) );
#789 = ORIENTED_EDGE('',*,*,#790,.T.);
#790 = EDGE_CURVE('',#768,#768,#791,.T.);
#791 = SURFACE_CURVE('',#792,(#797,#804),.PCURVE_S1.);
#792 = CIRCLE('',#793,4.);
#793 = AXIS2_PLACEMENT_3D('',#794,#795,#796);
#794 = CARTESIAN_POINT('',(0.,0.,3.65));
#795 = DIRECTION('',(0.,-0.,1.));
#796 = DIRECTION('',(1.,2.026157019941E-16,0.));
#797 = PCURVE('',#461,#798);
#798 = DEFINITIONAL_REPRESENTATION('',(#799),#803);
#799 = LINE('',#800,#801);
#800 = CARTESIAN_POINT('',(-0.,0.));
#801 = VECTOR('',#802,1.);
#802 = DIRECTION('',(-1.,0.));
#803 = ( GEOMETRIC_REPRESENTATION_CONTEXT(2) 
PARAMETRIC_REPRESENTATION_CONTEXT() REPRESENTATION_CONTEXT('2D SPACE',''
  ) );
#804 = PCURVE('',#805,#810);
#805 = PLANE('',#806);
#806 = AXIS2_PLACEMENT_3D('',#807,#808,#809);
#807 = CARTESIAN_POINT('',(0.,0.,3.65));
#808 = DIRECTION('',(0.,0.,1.));
#809 = DIRECTION('',(1.,2.026157019941E-16,0.));
#810 = DEFINITIONAL_REPRESENTATION('',(#811),#815);
#811 = CIRCLE('',#812,4.);
#812 = AXIS2_PLACEMENT_2D('',#813,#814);
#813 = CARTESIAN_POINT('',(0.,0.));
#814 = DIRECTION('',(1.,-0.));
#815 = ( GEOMETRIC_REPRESENTATION_CONTEXT(2) 
PARAMETRIC_REPRESENTATION_CONTEXT() REPRESENTATION_CONTEXT('2D SPACE',''
  ) );
#816 = ORIENTED_EDGE('',*,*,#767,.T.);
#817 = ORIENTED_EDGE('',*,*,#734,.T.);
#818 = ORIENTED_EDGE('',*,*,#677,.T.);
#819 = ORIENTED_EDGE('',*,*,#620,.T.);
#820 = ORIENTED_EDGE('',*,*,#563,.T.);
#821 = ORIENTED_EDGE('',*,*,#506,.T.);
#822 = ORIENTED_EDGE('',*,*,#444,.T.);
#823 = ADVANCED_FACE('',(#824),#805,.T.);
#824 = FACE_BOUND('',#825,.F.);
#825 = EDGE_LOOP('',(#826));
#826 = ORIENTED_EDGE('',*,*,#790,.F.);
#827 = ( GEOMETRIC_REPRESENTATION_CONTEXT(3) 
GLOBAL_UNCERTAINTY_ASSIGNED_CONTEXT((#831)) GLOBAL_UNIT_ASSIGNED_CONTEXT
((#828,#829,#830)) REPRESENTATION_CONTEXT('Context #1',
  '3D Context with UNIT and UNCERTAINTY') );
#828 = ( LENGTH_UNIT() NAMED_UNIT(*) SI_UNIT(.MILLI.,.METRE.) );
#829 = ( NAMED_UNIT(*) PLANE_ANGLE_UNIT() SI_UNIT($,.RADIAN.) );
#830 = ( NAMED_UNIT(*) SI_UNIT($,.STERADIAN.) SOLID_ANGLE_UNIT() );
#831 = UNCERTAINTY_MEASURE_WITH_UNIT(LENGTH_MEASURE(1.E-07),#828,
  'distance_accuracy_value','confusion accuracy');
#832 = PRODUCT_RELATED_PRODUCT_CATEGORY('part',$,(#7));
#833 = MECHANICAL_DESIGN_GEOMETRIC_PRESENTATION_REPRESENTATION('',(#834,
    #842,#849,#856,#863,#870,#877,#884,#891,#898,#905,#912,#919,#926),
  #827);
#834 = STYLED_ITEM('color',(#835),#17);
#835 = PRESENTATION_STYLE_ASSIGNMENT((#836));
#836 = SURFACE_STYLE_USAGE(.BOTH.,#837);
#837 = SURFACE_SIDE_STYLE('',(#838));
#838 = SURFACE_STYLE_FILL_AREA(#839);
#839 = FILL_AREA_STYLE('',(#840));
#840 = FILL_AREA_STYLE_COLOUR('',#841);
#841 = COLOUR_RGB('',0.800000011921,0.800000011921,0.800000011921);
#842 = STYLED_ITEM('color',(#843),#54);
#843 = PRESENTATION_STYLE_ASSIGNMENT((#844));
#844 = SURFACE_STYLE_USAGE(.BOTH.,#845);
#845 = SURFACE_SIDE_STYLE('',(#846));
#846 = SURFACE_STYLE_FILL_AREA(#847);
#847 = FILL_AREA_STYLE('',(#848));
#848 = FILL_AREA_STYLE_COLOUR('',#841);
#849 = STYLED_ITEM('color',(#850),#109);
#850 = PRESENTATION_STYLE_ASSIGNMENT((#851));
#851 = SURFACE_STYLE_USAGE(.BOTH.,#852);
#852 = SURFACE_SIDE_STYLE('',(#853));
#853 = SURFACE_STYLE_FILL_AREA(#854);
#854 = FILL_AREA_STYLE('',(#855));
#855 = FILL_AREA_STYLE_COLOUR('',#841);
#856 = STYLED_ITEM('color',(#857),#164);
#857 = PRESENTATION_STYLE_ASSIGNMENT((#858));
#858 = SURFACE_STYLE_USAGE(.BOTH.,#859);
#859 = SURFACE_SIDE_STYLE('',(#860));
#860 = SURFACE_STYLE_FILL_AREA(#861);
#861 = FILL_AREA_STYLE('',(#862));
#862 = FILL_AREA_STYLE_COLOUR('',#841);
#863 = STYLED_ITEM('color',(#864),#199);
#864 = PRESENTATION_STYLE_ASSIGNMENT((#865));
#865 = SURFACE_STYLE_USAGE(.BOTH.,#866);
#866 = SURFACE_SIDE_STYLE('',(#867));
#867 = SURFACE_STYLE_FILL_AREA(#868);
#868 = FILL_AREA_STYLE('',(#869));
#869 = FILL_AREA_STYLE_COLOUR('',#841);
#870 = STYLED_ITEM('color',(#871),#254);
#871 = PRESENTATION_STYLE_ASSIGNMENT((#872));
#872 = SURFACE_STYLE_USAGE(.BOTH.,#873);
#873 = SURFACE_SIDE_STYLE('',(#874));
#874 = SURFACE_STYLE_FILL_AREA(#875);
#875 = FILL_AREA_STYLE('',(#876));
#876 = FILL_AREA_STYLE_COLOUR('',#841);
#877 = STYLED_ITEM('color',(#878),#416);
#878 = PRESENTATION_STYLE_ASSIGNMENT((#879));
#879 = SURFACE_STYLE_USAGE(.BOTH.,#880);
#880 = SURFACE_SIDE_STYLE('',(#881));
#881 = SURFACE_STYLE_FILL_AREA(#882);
#882 = FILL_AREA_STYLE('',(#883));
#883 = FILL_AREA_STYLE_COLOUR('',#841);
#884 = STYLED_ITEM('color',(#885),#500);
#885 = PRESENTATION_STYLE_ASSIGNMENT((#886));
#886 = SURFACE_STYLE_USAGE(.BOTH.,#887);
#887 = SURFACE_SIDE_STYLE('',(#888));
#888 = SURFACE_STYLE_FILL_AREA(#889);
#889 = FILL_AREA_STYLE('',(#890));
#890 = FILL_AREA_STYLE_COLOUR('',#841);
#891 = STYLED_ITEM('color',(#892),#557);
#892 = PRESENTATION_STYLE_ASSIGNMENT((#893));
#893 = SURFACE_STYLE_USAGE(.BOTH.,#894);
#894 = SURFACE_SIDE_STYLE('',(#895));
#895 = SURFACE_STYLE_FILL_AREA(#896);
#896 = FILL_AREA_STYLE('',(#897));
#897 = FILL_AREA_STYLE_COLOUR('',#841);
#898 = STYLED_ITEM('color',(#899),#614);
#899 = PRESENTATION_STYLE_ASSIGNMENT((#900));
#900 = SURFACE_STYLE_USAGE(.BOTH.,#901);
#901 = SURFACE_SIDE_STYLE('',(#902));
#902 = SURFACE_STYLE_FILL_AREA(#903);
#903 = FILL_AREA_STYLE('',(#904));
#904 = FILL_AREA_STYLE_COLOUR('',#841);
#905 = STYLED_ITEM('color',(#906),#671);
#906 = PRESENTATION_STYLE_ASSIGNMENT((#907));
#907 = SURFACE_STYLE_USAGE(.BOTH.,#908);
#908 = SURFACE_SIDE_STYLE('',(#909));
#909 = SURFACE_STYLE_FILL_AREA(#910);
#910 = FILL_AREA_STYLE('',(#911));
#911 = FILL_AREA_STYLE_COLOUR('',#841);
#912 = STYLED_ITEM('color',(#913),#728);
#913 = PRESENTATION_STYLE_ASSIGNMENT((#914));
#914 = SURFACE_STYLE_USAGE(.BOTH.,#915);
#915 = SURFACE_SIDE_STYLE('',(#916));
#916 = SURFACE_STYLE_FILL_AREA(#917);
#917 = FILL_AREA_STYLE('',(#918));
#918 = FILL_AREA_STYLE_COLOUR('',#841);
#919 = STYLED_ITEM('color',(#920),#763);
#920 = PRESENTATION_STYLE_ASSIGNMENT((#921));
#921 = SURFACE_STYLE_USAGE(.BOTH.,#922);
#922 = SURFACE_SIDE_STYLE('',(#923));
#923 = SURFACE_STYLE_FILL_AREA(#924);
#924 = FILL_AREA_STYLE('',(#925));
#925 = FILL_AREA_STYLE_COLOUR('',#841);
#926 = STYLED_ITEM('color',(#927),#823);
#927 = PRESENTATION_STYLE_ASSIGNMENT((#928));
#928 = SURFACE_STYLE_USAGE(.BOTH.,#929);
#929 = SURFACE_SIDE_STYLE('',(#930));
#930 = SURFACE_STYLE_FILL_AREA(#931);
#931 = FILL_AREA_STYLE('',(#932));
#932 = FILL_AREA_STYLE_COLOUR('',#841);
ENDSEC;
END-ISO-10303-21;
